﻿<?xml version="1.0"?>
<!-- Generator: Adobe Illustrator 10.0, SVG Export Plug-In . SVG Version: 3.0.0 Build 77)  -->
<!DOCTYPE svg PUBLIC "-//W3C//DTD SVG 1.0//EN" "http://www.w3.org/TR/2001/REC-SVG-20010904/DTD/svg10.dtd"[
	<!ENTITY ns_flows "http://ns.adobe.com/Flows/1.0/">
	<!ENTITY ns_svg "http://www.w3.org/2000/svg">
	<!ENTITY ns_xlink "http://www.w3.org/1999/xlink">
	<!ENTITY st0 "fill:none;stroke:#000000;stroke-linecap:round;stroke-linejoin:round;">
	<!ENTITY st1 "fill:none;stroke:#000000;stroke-width:0.6;stroke-linecap:round;stroke-linejoin:round;">
	<!ENTITY st2 "font-size:6px;">
	<!ENTITY st3 "font-family:'Arial';">
	<!ATTLIST svg
		ewd:ver CDATA #IMPLIED
		xmlns:ewd CDATA #FIXED "http://shcl.co.jp/ewd"
		xmlns:a CDATA #FIXED "http://ns.adobe.com/AdobeSVGViewerExtensions/3.0/">
	<!ATTLIST g
		ewd:pinNo CDATA #IMPLIED>
]>
<svg width="53.408" height="42.927" viewBox="0 0 53.408 42.927" style="overflow:visible;enable-background:new 0 0 53.408 42.927" xml:space="preserve" onload="call_execInitLoadProc_svg('connector')" ewd:ver="2.1.2.9" xmlns="&ns_svg;" xmlns:ewd="http://shcl.co.jp/ewd" xmlns:a="http://ns.adobe.com/AdobeSVGViewerExtensions/3.0/" xmlns:xlink="&ns_xlink;">
<script type="text/javascript" xlink:href="../../../../../system/js/ewd/fig/svgfig.js"/>
<g id="レイヤー_1">
	<path style="&st0;" d="M42.993,42.427c0.782,0,1.417-0.634,1.417-1.417"/>
	<path style="&st0;" d="M14.664,41.01c0,0.782,0.634,1.417,1.417,1.417"/>
	<path style="&st1;" d="M21.604,34.495c-1.095,0-1.983,0.888-1.983,1.983"/>
	<path style="&st1;" d="M39.452,36.478c0-1.095-0.888-1.983-1.983-1.983"/>
	<path style="&st0;" d="M39.452,4.75h13.456"/>
	<path style="&st0;" d="M14.664,4.75h14.873"/>
	<path style="&st0;" d="M29.537,4.75V0.5h9.915v4.25"/>
	<path style="&st0;" d="M14.664,4.75V0.5H0.5v31.162h14.164"/>
	<path style="&st1;" d="M36.619,8.999V4.75h-4.25v4.25H36.619"/>
	<path style="&st1;" d="M39.452,36.478v5.949"/>
	<path style="&st1;" d="M34.494,34.495h2.975"/>
	<path style="&st1;" d="M21.604,34.495h2.975"/>
	<path style="&st1;" d="M19.622,42.427v-5.949"/>
	<path style="&st1;" d="M24.579,34.495v-2.833h9.915v2.833"/>
	<path style="&st0;" d="M44.409,31.662v9.349"/>
	<path style="&st0;" d="M16.081,42.427h26.912"/>
	<path style="&st0;" d="M14.664,31.662v9.349"/>
	<path style="&st1;" d="M25.996,37.327v-2.833h7.082v2.833"/>
	<path style="&st0;" d="M52.908,4.75v26.912"/>
	<path style="&st0;" d="M44.409,31.662h8.499"/>
	<path style="&st1;" d="M27.412,37.327v2.833h4.25v-2.833"/>
	<path style="&st1;" d="M8.999,8.999V4.75H3.333v4.25H8.999"/>
	<path style="&st1;" d="M37.327,11.832v14.569"/>
	<path style="&st1;" d="M25.996,11.832v14.569"/>
	<path style="&st1;" d="M14.664,11.832v14.569h33.995V11.832H14.664"/>
	<path style="&st1;" d="M19.622,37.327h19.83"/>
	<path style="&st1;" d="M24.579,42.427v-5.1"/>
	<path style="&st1;" d="M34.494,42.427v-5.1"/>
	<g ewd:pinNo="3">
		<text transform="matrix(1 0 0 1 41.4595 21.2729)"><tspan x="0" y="0" style="&st3; &st2;">3</tspan></text>
	</g>
	<g ewd:pinNo="2">
		<text transform="matrix(1 0 0 1 30.1279 21.2729)"><tspan x="0" y="0" style="&st3; &st2;">2</tspan></text>
	</g>
	<g ewd:pinNo="1">
		<text transform="matrix(1 0 0 1 18.7964 21.2729)"><tspan x="0" y="0" style="&st3; &st2;">1</tspan></text>
	</g>
</g>
</svg>