﻿<?xml version="1.0"?>
<!-- Generator: Adobe Illustrator 10.0, SVG Export Plug-In . SVG Version: 3.0.0 Build 77)  -->
<!DOCTYPE svg PUBLIC "-//W3C//DTD SVG 1.0//EN" "http://www.w3.org/TR/2001/REC-SVG-20010904/DTD/svg10.dtd"[
	<!ENTITY ns_flows "http://ns.adobe.com/Flows/1.0/">
	<!ENTITY ns_svg "http://www.w3.org/2000/svg">
	<!ENTITY ns_xlink "http://www.w3.org/1999/xlink">
	<!ENTITY st0 "fill:none;stroke:#000000;stroke-linecap:round;stroke-linejoin:round;">
	<!ENTITY st1 "fill:none;stroke:#000000;stroke-width:0.6;stroke-linecap:round;stroke-linejoin:round;">
	<!ENTITY st2 "font-size:6px;">
	<!ENTITY st3 "font-family:'Arial';">
	<!ATTLIST svg
		ewd:ver CDATA #IMPLIED
		xmlns:ewd CDATA #FIXED "http://shcl.co.jp/ewd"
		xmlns:a CDATA #FIXED "http://ns.adobe.com/AdobeSVGViewerExtensions/3.0/">
	<!ATTLIST g
		ewd:pinNo CDATA #IMPLIED>
]>
<svg width="31.03" height="32.02" viewBox="0 0 31.03 32.02" style="overflow:visible;enable-background:new 0 0 31.03 32.02" xml:space="preserve" onload="call_execInitLoadProc_svg('connector')" ewd:ver="2.1.2.9" xmlns="&ns_svg;" xmlns:ewd="http://shcl.co.jp/ewd" xmlns:a="http://ns.adobe.com/AdobeSVGViewerExtensions/3.0/" xmlns:xlink="&ns_xlink;">
<script type="text/javascript" xlink:href="../../../../../system/js/ewd/fig/svgfig.js"/>
<g id="レイヤー_1">
	<path style="&st1;" d="M10.698,12.03h9.632"/>
	<path style="&st1;" d="M7.865,20.416v-5.553"/>
	<path style="&st1;" d="M20.33,23.248h-9.632"/>
	<path style="&st1;" d="M23.163,14.863v5.553"/>
	<path style="&st1;" d="M7.582,4.75v4.867"/>
	<path style="&st1;" d="M23.446,4.75v4.867"/>
	<path style="&st1;" d="M9.707,2.625h11.615"/>
	<path style="&st0;" d="M25.571,6.166v1.609"/>
	<path style="&st0;" d="M5.458,6.166v1.609"/>
	<path style="&st0;" d="M4.115,10.874l-2.943,2.762"/>
	<path style="&st0;" d="M26.914,10.874l2.943,2.762"/>
	<path style="&st1;" d="M11.282,30.812l-1.065-1.844"/>
	<path style="&st1;" d="M19.747,30.812l1.065-1.844"/>
	<path style="&st0;" d="M8.8,31.52h13.428"/>
	<path style="&st0;" d="M11.123,0.5h8.782"/>
	<path style="&st1;" d="M11.548,3.758h1.983"/>
	<path style="&st1;" d="M17.497,3.758h1.983"/>
	<path style="&st1;" d="M17.214,4.041v0.567"/>
	<path style="&st1;" d="M13.814,4.041v0.567"/>
	<path style="&st1;" d="M14.098,4.891h2.833"/>
	<path style="&st1;" d="M2.766,20.188v-1.417"/>
	<path style="&st1;" d="M4.749,21.038H3.616"/>
	<path style="&st1;" d="M27.412,14.523h-1.133"/>
	<path style="&st1;" d="M28.262,16.789v-1.416"/>
	<path style="&st1;" d="M15.514,12.03v11.218"/>
	<path style="&st1;" d="M14.806,28.687h1.417"/>
	<path style="&st0;" d="M30.528,22.424v-7.238"/>
	<path style="&st0;" d="M0.5,22.424v-7.238"/>
	<path style="&st1;" d="M28.262,15.373c0-0.47-0.38-0.85-0.85-0.85"/>
	<path style="&st1;" d="M27.412,17.639c0.469,0,0.85-0.381,0.85-0.85"/>
	<path style="&st1;" d="M4.749,21.038c0,3.129,2.537,5.666,5.666,5.666"/>
	<path style="&st1;" d="M7.582,9.616c-1.807,1.043-2.833,2.821-2.833,4.907"/>
	<path style="&st1;" d="M16.222,28.687c0.469,0,0.85-0.38,0.85-0.85"/>
	<path style="&st1;" d="M13.956,27.837c0,0.469,0.38,0.85,0.85,0.85"/>
	<path style="&st1;" d="M20.613,26.704c3.129,0,5.666-2.537,5.666-5.666"/>
	<path style="&st1;" d="M26.279,14.523c0-2.086-1.026-3.864-2.833-4.907"/>
	<path style="&st1;" d="M10.698,12.03c-1.564,0-2.833,1.269-2.833,2.833"/>
	<path style="&st1;" d="M7.865,20.416c0,1.564,1.269,2.833,2.833,2.833"/>
	<path style="&st1;" d="M20.33,23.248c1.564,0,2.833-1.269,2.833-2.833"/>
	<path style="&st1;" d="M23.163,14.863c0-1.564-1.268-2.833-2.833-2.833"/>
	<path style="&st1;" d="M9.707,2.625c-1.173,0-2.125,0.952-2.125,2.125"/>
	<path style="&st1;" d="M23.446,4.75c0-1.173-0.952-2.125-2.125-2.125"/>
	<path style="&st0;" d="M4.115,10.874c0.891-0.835,1.342-1.878,1.342-3.099"/>
	<path style="&st0;" d="M25.571,7.775c0,1.221,0.452,2.264,1.342,3.1"/>
	<path style="&st0;" d="M1.171,13.636C0.726,14.054,0.5,14.575,0.5,15.186"/>
	<path style="&st0;" d="M30.528,15.186c0-0.61-0.226-1.132-0.671-1.55"/>
	<path style="&st1;" d="M11.282,30.812c0.261,0.452,0.705,0.708,1.227,0.708"/>
	<path style="&st1;" d="M18.52,31.52c0.521,0,0.966-0.256,1.227-0.708"/>
	<path style="&st1;" d="M5.041,26.871c1.475,1.359,3.17,2.046,5.176,2.096"/>
	<path style="&st0;" d="M29.843,23.639c0.44-0.265,0.687-0.702,0.687-1.215"/>
	<path style="&st0;" d="M7.514,30.696c-1.417-3.072-3.428-5.316-6.328-7.059"/>
	<path style="&st0;" d="M0.5,22.424c0,0.513,0.247,0.949,0.687,1.213"/>
	<path style="&st0;" d="M7.514,30.696C7.751,31.211,8.233,31.52,8.8,31.52"/>
	<path style="&st0;" d="M25.571,6.166c0-3.129-2.537-5.666-5.666-5.666"/>
	<path style="&st0;" d="M11.123,0.5c-3.129,0-5.666,2.537-5.666,5.666"/>
	<path style="&st1;" d="M13.814,4.608c0,0.157,0.127,0.283,0.283,0.283"/>
	<path style="&st1;" d="M16.931,4.891c0.156,0,0.283-0.126,0.283-0.283"/>
	<path style="&st1;" d="M17.497,3.758c-0.156,0-0.283,0.127-0.283,0.283"/>
	<path style="&st1;" d="M13.814,4.041c0-0.156-0.127-0.283-0.283-0.283"/>
	<path style="&st1;" d="M20.33,4.608c0-0.469-0.381-0.85-0.85-0.85"/>
	<path style="&st1;" d="M11.548,3.758c-0.47,0-0.85,0.381-0.85,0.85"/>
	<path style="&st1;" d="M20.812,28.968c2.006-0.05,3.701-0.736,5.176-2.096"/>
	<path style="&st0;" d="M29.843,23.639c-2.899,1.743-4.91,3.986-6.326,7.058"/>
	<path style="&st0;" d="M22.228,31.52c0.567,0,1.049-0.309,1.287-0.824"/>
	<path style="&st1;" d="M3.616,17.922c-0.469,0-0.85,0.38-0.85,0.85"/>
	<path style="&st1;" d="M2.766,20.188c0,0.469,0.38,0.85,0.85,0.85"/>
	<path style="&st1;" d="M26.279,14.396v0.127"/>
	<path style="&st1;" d="M26.279,21.038v0.227"/>
	<path style="&st1;" d="M4.749,21.038"/>
	<path style="&st1;" d="M10.415,26.704h3.541v1.133"/>
	<path style="&st1;" d="M20.613,26.704h-3.541v1.133"/>
	<path style="&st1;" d="M27.412,17.639h-1.133v3.399"/>
	<path style="&st1;" d="M4.749,14.523v3.399H3.616"/>
	<path style="&st1;" d="M20.33,4.608v2.575h-9.632V4.608"/>
	<g ewd:pinNo="2">
		<text transform="matrix(1 0 0 1 17.627 19.7695)"><tspan x="0" y="0" style="&st3; &st2;">2</tspan></text>
	</g>
	<g ewd:pinNo="1">
		<text transform="matrix(1 0 0 1 9.978 19.7695)"><tspan x="0" y="0" style="&st3; &st2;">1</tspan></text>
	</g>
</g>
</svg>