﻿<?xml version="1.0"?>
<!-- Generator: Adobe Illustrator 10.0, SVG Export Plug-In . SVG Version: 3.0.0 Build 77)  -->
<!DOCTYPE svg PUBLIC "-//W3C//DTD SVG 1.0//EN" "http://www.w3.org/TR/2001/REC-SVG-20010904/DTD/svg10.dtd"[
	<!ENTITY ns_flows "http://ns.adobe.com/Flows/1.0/">
	<!ENTITY ns_svg "http://www.w3.org/2000/svg">
	<!ENTITY ns_xlink "http://www.w3.org/1999/xlink">
	<!ENTITY st0 "fill:none;stroke:#000000;stroke-linecap:round;stroke-linejoin:round;">
	<!ENTITY st1 "fill:none;stroke:#000000;stroke-width:0.6;stroke-linecap:round;stroke-linejoin:round;">
	<!ENTITY st2 "font-size:6px;">
	<!ENTITY st3 "font-family:'Arial';">
	<!ATTLIST svg
		ewd:ver CDATA #IMPLIED
		xmlns:ewd CDATA #FIXED "http://shcl.co.jp/ewd"
		xmlns:a CDATA #FIXED "http://ns.adobe.com/AdobeSVGViewerExtensions/3.0/">
	<!ATTLIST g
		ewd:pinNo CDATA #IMPLIED>
]>
<svg width="44.139" height="41.863" viewBox="0 0 44.139 41.863" style="overflow:visible;enable-background:new 0 0 44.139 41.863" xml:space="preserve" onload="call_execInitLoadProc_svg('connector')" ewd:ver="2.1.2.9" xmlns="&ns_svg;" xmlns:ewd="http://shcl.co.jp/ewd" xmlns:a="http://ns.adobe.com/AdobeSVGViewerExtensions/3.0/" xmlns:xlink="&ns_xlink;">
<script type="text/javascript" xlink:href="../../../../../system/js/ewd/fig/svgfig.js"/>
<g id="レイヤー_1">
	<path style="&st1;" d="M15.474,15.694c-4.263,0-7.731,3.47-7.731,7.734v5.023c0,4.264,3.468,7.732,7.731,7.732h13.191    c4.264,0,7.732-3.469,7.732-7.732v-5.023c0-4.265-3.469-7.734-7.732-7.734H15.474z"/>
	<path style="&st1;" d="M36.395,22.941c0.777-1.272,1.226-2.767,1.226-4.363v-6.592"/>
	<path style="&st1;" d="M6.519,11.986v6.592c0,1.577,0.437,3.054,1.197,4.316"/>
	<path style="&st0;" d="M6.511,11.97C2.929,13.958,0.5,17.78,0.5,22.159v7.563c0,6.418,5.221,11.641,11.64,11.641h19.858    c6.419,0,11.642-5.223,11.642-11.641v-7.563c0-4.379-2.43-8.202-6.012-10.189"/>
	<path style="&st1;" d="M15.757,19.228c-2.471,0-4.481,2.012-4.481,4.484v4.457c0,2.472,2.01,4.482,4.481,4.482h12.624    c2.472,0,4.482-2.011,4.482-4.482v-4.457c0-2.472-2.011-4.484-4.482-4.484H15.757z M12.492,28.452v-5.023    c0-1.646,1.337-2.984,2.981-2.984h13.191c1.645,0,2.982,1.339,2.982,2.984v5.023c0,1.645-1.338,2.982-2.982,2.982H15.474    C13.83,31.435,12.492,30.097,12.492,28.452z"/>
	<path style="&st0;" d="M24.531,7.639v2.876h5.767V0.5h7.323v11.486"/>
	<path style="&st1;" d="M24.531,2.202v5.437"/>
	<path style="&st0;" d="M6.519,11.986V0.5h7.323v10.016h5.767V0.5h4.922v1.702"/>
	<path style="&st0;" d="M24.531,2.202h2.472v5.437h-2.472"/>
	<g ewd:pinNo="2">
		<text transform="matrix(1 0 0 1 25.4009 27.9316)"><tspan x="0" y="0" style="&st3; &st2;">2</tspan></text>
	</g>
	<g ewd:pinNo="1">
		<text transform="matrix(1 0 0 1 15.4019 27.9316)"><tspan x="0" y="0" style="&st3; &st2;">1</tspan></text>
	</g>
</g>
</svg>