﻿<?xml version="1.0" encoding="utf-8"?>
<!DOCTYPE svg PUBLIC "-//W3C//DTD SVG 1.0//EN" "http://www.w3.org/TR/2001/REC-SVG-20010904/DTD/svg10.dtd"[
	<!ENTITY ns_flows "http://ns.adobe.com/Flows/1.0/">
	<!ENTITY ns_svg "http://www.w3.org/2000/svg">
	<!ENTITY ns_xlink "http://www.w3.org/1999/xlink">
	<!ENTITY st0 "font-size:7px;font-family:'MS-PGothic';adobe-font-script:japanese;">
	<!ENTITY st1 "font-size:6px;font-family:'ArialMT';">
	<!-- White fill  -->
	<!ENTITY st2 "fill:#FFFFFF;stroke:#000000; stroke-width:1.41;stroke-linecap:round;stroke-linejoin:round;">
	<!-- Yellow fill  -->
	<!ENTITY st3 "fill:#FFFFCC;stroke:#FFFFCC; stroke-width:0.1;stroke-linecap:round;stroke-linejoin:round;">
	<!-- Gray fill  -->
	<!ENTITY st4 "fill:#CCCCCC;stroke:#CCCCCC; stroke-width:0.1;stroke-linecap:round;stroke-linejoin:round;">
	<!-- Light-blue fill -->
	<!ENTITY st5 "fill:#CCECF4;stroke:#000000; stroke-width:1.133;stroke-linecap:round;stroke-linejoin:round;">
	<!ENTITY st6 "fill:none;stroke-linecap:butt; stroke-linejoin:round;">
	<!ENTITY st7 "fill:none;stroke:#000000;stroke-linecap:round;stroke-linejoin:round;">
	<!ENTITY st8 "enable-background:new    ;">
	<!-- Black fill -->
	<!ENTITY st9 "fill:#000000;stroke:#000000; stroke-linecap:round;stroke-linejoin:round;">
	<!-- SRS note   -->
	<!ENTITY st10 "font-size:9px;font-family:'ArialMT';">
	<!ENTITY st11 "font-size:9px;font-family:'Svg Symbol';">
	<!ENTITY st12 "font-size:6px;font-family:'Svg Symbol';">
	<!ENTITY st13 "fill:none;stroke:#ff0000;stroke-linecap:round;stroke-linejoin:round;">
	<!-- Yellow fill  -->
	<!ENTITY st14 "fill:#FFFF00;stroke:#FFFF00; stroke-width:0.1;stroke-linecap:round;stroke-linejoin:round;">
	<!ENTITY st15 "font-size:6px;font-family:'MS-PGothic';adobe-font-script:japanese;">
	<!ENTITY st16 "1.00 0.00 0.00 1.00">
	<!ENTITY st17 "0.00 -1.00 1.00 0.00">
	<!ENTITY st18 "font-size:6px;font-family:'Arial';">
	<!ENTITY st19 "font-size:9px;font-family:'Arial';">
	<!ENTITY st20 "font-size:6px;font-family:'MS-PGothic','MS PGothic';adobe-font-script:japanese;">
	<!ENTITY st21 "font-size:7px;font-family:'MS-PGothic','MS PGothic';adobe-font-script:japanese;">
	<!ATTLIST svg
		xmlns:ewd CDATA #FIXED "http://shcl.co.jp/ewd"
		xmlns:a CDATA #FIXED "http://ns.adobe.com/AdobeSVGViewerExtensions/3.0/"
		ewd:ver CDATA #IMPLIED
	>
	<!ATTLIST a
		ewd:lineID CDATA #IMPLIED
		ewd:groupID CDATA #IMPLIED
		ewd:figtype CDATA #IMPLIED
		ewd:code CDATA #IMPLIED
		ewd:figID CDATA #IMPLIED
		ewd:pinNo CDATA #IMPLIED
		ewd:comment CDATA #IMPLIED >
	<!ATTLIST g
		ewd:lineID CDATA #IMPLIED
		ewd:groupID CDATA #IMPLIED
		ewd:figtype CDATA #IMPLIED
		ewd:code CDATA #IMPLIED
		ewd:figID CDATA #IMPLIED
		ewd:pinNo CDATA #IMPLIED
		ewd:comment CDATA #IMPLIED >
	<!ATTLIST text
		ewd:textID CDATA #IMPLIED >
	<!ATTLIST title
		ewd:textID CDATA #IMPLIED >
]>
<!-- Generator: Shintec Hozumi YS   -->
<svg onload="call_execInitLoadProc_svg('system')" style="overflow:visible;  enable-background:new 0 0 4661.323 710.000" viewBox="0 0 4661.323 710.000" height="710.000" width="4661.323" xml:space="preserve" ewd:ver="2.1.2.9" xmlns="&ns_svg;" xmlns:a="http://ns.adobe.com/AdobeSVGViewerExtensions/3.0/" xmlns:ewd="http://shcl.co.jp/ewd" xmlns:xlink="&ns_xlink;">
<path style="stroke-width: 1.42 ;&st7;  " d=" M  1504.25,   401.22  L  1512.75,   401.22  " /><path style="stroke-width: 1.42 ;&st7;  " d=" M  1946.17,   316.23  L  1937.68,   316.23  " /><path style="stroke-width: 1.42 ;&st7;  " d=" M  1784.70,   443.71  L  1793.20,   443.71  " /><path style="stroke-width: 1.42 ;&st7;  " d=" M  1827.19,   443.71  L  1835.69,   443.71  " /><path style="stroke-width: 1.42 ;&st7;  " d=" M  1716.71,   443.71  L  1725.21,   443.71  " /><text style="&st18;" transform="matrix(&st17;  1933.98  139.33 )">L</text><text style="&st18;" transform="matrix(&st17;  1933.98  266.93 )">B</text><text style="&st18;" transform="matrix(&st17;  1899.99  492.16 )">W-B</text><text style="&st18;" transform="matrix(&st16;  1867.58  253.05 )">R</text><text style="&st18;" transform="matrix(&st17;  1832.0  396.54 )">GR</text><text style="&st18;" transform="matrix(&st17;  1789.5  396.27 )">BR</text><text style="&st18;" transform="matrix(&st17;  1933.98  351.92 )">B</text><text style="&st18;" transform="matrix(&st17;  1520.38  383.58 )">(RHD)</text><text style="&st18;" transform="matrix(&st17;  1509.05  379.27 )">BR</text><text style="&st18;" transform="matrix(&st17;  1520.38  434.57 )">(RHD)</text><text style="&st18;" transform="matrix(&st17;  1509.05  430.26 )">BR</text><text style="&st18;" transform="matrix(&st17;  1721.52  394.33 )">R</text><text style="&st18;" transform="matrix(&st17;  1732.85  407.05 )">(*25,*7 *8)</text><text style="&st18;" transform="matrix(&st17;  1662.03  394.41 )">B</text><text style="&st18;" transform="matrix(&st17;  1673.36  400.53 )">(LHD)</text><text style="&st18;" transform="matrix(&st17;  1628.03  395.18 )">W</text><text style="&st18;" transform="matrix(&st17;  1687.52  394.68 )">G</text><text style="&st18;" transform="matrix(&st17;  1698.85  400.57 )">(RHD)</text><text style="&st18;" transform="matrix(&st16;  1636.81  271.44 )">G81(B),z7(C)</text><text style="&st18;" transform="matrix(&st17;  1602.54  395.18 )">W</text><text style="&st18;" transform="matrix(&st17;  1613.87  400.57 )">(RHD)</text><text style="&st18;" transform="matrix(&st16;  1636.82  278.54 )" ewd:textID="19">A/C Amplifier Assembly</text><text style="&st18;" transform="matrix(&st17;  1639.36  400.53 )">(LHD)</text><text style="&st18;" transform="matrix(&st17;  1800.84  397.43 )">(*7)</text><text style="&st18;" transform="matrix(&st17;  1843.33  397.43 )">(*7)</text><text style="&st18;" transform="matrix(&st17;  1945.31  144.03 )">(*11)</text><text style="&st18;" transform="matrix(&st17;  1945.31  271.51 )">(*11)</text><text style="&st18;" transform="matrix(&st17;  1993.47  139.33 )">L</text><text style="&st18;" transform="matrix(&st17;  1993.47  266.93 )">B</text><text style="&st18;" transform="matrix(&st16;  1577.77  32.08 )">W</text><text style="&st18;" transform="matrix(&st16;  1526.78  32.08 )">W</text><text style="&st18;" transform="matrix(&st16;  1578.43  15.09 )">V</text><text style="&st18;" transform="matrix(&st16;  1527.44  15.09 )">V</text><text style="&st18;" transform="matrix(&st17;  1721.52  507.02 )">GR</text><text style="&st18;" transform="matrix(&st17;  1766.84  511.95 )">(*7 *8)</text><text style="&st18;" transform="matrix(&st17;  1755.51  504.81 )">R</text><text style="&st18;" transform="matrix(&st17;  1732.85  509.47 )">(*25)</text><g ewd:figtype="rb" ewd:figID="4" ewd:code="FUSE85"><path style="stroke-width: 1.42 ;&st7;  " d=" M  1939.80,   112.27  L  1935.55,   112.27  " /><path style="stroke-width: 1.42 ;&st7;  " d=" M  1939.80,   120.77  L  1935.55,   120.77  " /><path style="stroke-width: 0.85 ;&st7;  " d=" M  1937.68,    95.27  L  1937.68,   112.27  " /><path style="stroke-width: 1.42 ;&st7;   " d=" M  1935.55,   112.27  C  1933.20    112.27   1931.30    114.17   1931.30    116.52  " /><path style="stroke-width: 1.42 ;&st7;   " d=" M  1931.30,   116.52  C  1931.30    118.86   1933.20    120.77   1935.55    120.77  " /><path style="stroke-width: 1.42 ;&st7;   " d=" M  1939.80,   120.77  C  1942.15    120.77   1944.05    118.86   1944.05    116.52  " /><path style="stroke-width: 1.42 ;&st7;   " d=" M  1944.05,   116.52  C  1944.05    114.17   1942.15    112.27   1939.80    112.27  " /><path style="stroke-width: 0.28 ;&st9;  " d=" M  1937.68,   107.37  L  1934.84,   104.54  L  1934.84,   108.79  L  1937.68,   111.62  L  1940.51,   108.79  L  1940.51,   104.54  L  1937.68,   107.37  " /><text style="&st18;" transform="matrix(&st16;  1929.63  49.08 )">(BAT)</text><text style="&st18;" transform="matrix(&st16;  1954.1  73.17 )">50A <tspan x="0 " dy="6.0">HTR</tspan></text><text style="&st18;" transform="matrix(&st16;  1935.88  118.49 )">2</text><text style="&st18;" transform="matrix(&st16;  1931.49  103.46 )">2</text><path style="stroke-width: 0.85 ;&st7;  " d=" M  1937.68,    86.77  L  1937.68,    95.27  " /><path style="stroke-width: 0.85 ;&st7;   " d=" M  1939.09,    85.35  C  1939.09     84.57   1938.46     83.94   1937.68     83.94  " /><path style="stroke-width: 0.85 ;&st7;   " d=" M  1937.68,    83.94  C  1936.89     83.94   1936.26     84.57   1936.26     85.35  " /><path style="stroke-width: 0.85 ;&st7;   " d=" M  1936.26,    85.35  C  1936.26     86.14   1936.89     86.77   1937.68     86.77  " /><path style="stroke-width: 0.85 ;&st7;   " d=" M  1937.68,    86.77  C  1938.46     86.77   1939.09     86.14   1939.09     85.35  " /><path style="stroke-width: 0.85 ;&st7;   " d=" M  1939.09,    62.69  C  1939.09     61.91   1938.46     61.28   1937.68     61.28  " /><path style="stroke-width: 0.85 ;&st7;   " d=" M  1937.68,    61.28  C  1936.89     61.28   1936.26     61.91   1936.26     62.69  " /><path style="stroke-width: 0.85 ;&st7;   " d=" M  1936.26,    62.69  C  1936.26     63.47   1936.89     64.11   1937.68     64.11  " /><path style="stroke-width: 0.85 ;&st7;   " d=" M  1937.68,    64.11  C  1938.46     64.11   1939.09     63.47   1939.09     62.69  " /><path style="stroke-width: 1.42 ;&st7;   " d=" M  1937.68,    83.94  C  1940.41     82.32   1941.33     78.80   1939.71     76.06  " /><path style="stroke-width: 1.42 ;&st7;   " d=" M  1939.71,    76.06  C  1939.19     75.18   1938.56     74.54   1937.68     74.02  " /><path style="stroke-width: 1.42 ;&st7;   " d=" M  1937.68,    64.11  C  1934.94     65.72   1934.03     69.25   1935.64     71.99  " /><path style="stroke-width: 1.42 ;&st7;   " d=" M  1935.64,    71.99  C  1936.16     72.87   1936.79     73.50   1937.68     74.02  " /><path style="stroke-width: 1.42 ;&st7;  " d=" M  1950.42,    95.27  L  1950.42,    52.78  L  1924.93,    52.78  L  1924.93,    95.27  L  1950.42,    95.27  " /></g><g ewd:figtype="rb" ewd:figID="9" ewd:code="2"><path style="stroke-width: 0.85 ;&st7;  " d=" M  1937.68,   214.25  L  1937.68,   163.26  " /><path style="stroke-width: 1.42 ;&st7;  " d=" M  1939.80,   154.76  L  1935.55,   154.76  " /><path style="stroke-width: 1.42 ;&st7;  " d=" M  1939.80,   163.26  L  1935.55,   163.26  " /><path style="stroke-width: 1.42 ;&st7;  " d=" M  1939.80,   231.25  L  1935.55,   231.25  " /><path style="stroke-width: 1.42 ;&st7;  " d=" M  1939.80,   239.75  L  1935.55,   239.75  " /><path style="stroke-width: 1.42 ;&st7;   " d=" M  1935.55,   154.76  C  1933.20    154.76   1931.30    156.66   1931.30    159.01  " /><path style="stroke-width: 1.42 ;&st7;   " d=" M  1931.30,   159.01  C  1931.30    161.36   1933.20    163.26   1935.55    163.26  " /><path style="stroke-width: 1.42 ;&st7;   " d=" M  1939.80,   163.26  C  1942.15    163.26   1944.05    161.36   1944.05    159.01  " /><path style="stroke-width: 1.42 ;&st7;   " d=" M  1944.05,   159.01  C  1944.05    156.66   1942.15    154.76   1939.80    154.76  " /><path style="stroke-width: 1.42 ;&st7;   " d=" M  1935.55,   231.25  C  1933.20    231.25   1931.30    233.15   1931.30    235.50  " /><path style="stroke-width: 1.42 ;&st7;   " d=" M  1931.30,   235.50  C  1931.30    237.84   1933.20    239.75   1935.55    239.75  " /><path style="stroke-width: 1.42 ;&st7;   " d=" M  1939.80,   239.75  C  1942.15    239.75   1944.05    237.84   1944.05    235.50  " /><path style="stroke-width: 1.42 ;&st7;   " d=" M  1944.05,   235.50  C  1944.05    233.15   1942.15    231.25   1939.80    231.25  " /><path style="stroke-width: 0.28 ;&st9;  " d=" M  1937.68,   168.15  L  1940.51,   170.99  L  1940.51,   166.74  L  1937.68,   163.90  L  1934.84,   166.74  L  1934.84,   170.99  L  1937.68,   168.15  " /><path style="stroke-width: 0.28 ;&st9;  " d=" M  1937.68,   226.35  L  1934.84,   223.52  L  1934.84,   227.77  L  1937.68,   230.60  L  1940.51,   227.77  L  1940.51,   223.52  L  1937.68,   226.35  " /><path style="stroke-width: 0.85 ;&st7;  " d=" M  1937.68,   214.25  L  1937.68,   231.25  " /><text style="&st18;" transform="matrix(&st16;  1931.49  176.56 )">5</text><text style="&st18;" transform="matrix(&st16;  1931.49  222.44 )">3</text><text style="&st18;" transform="matrix(&st17;  1953.81  208.83 )" ewd:textID="67">Short Pin</text><text style="&st18;" transform="matrix(&st16;  1935.88  160.98 )">2</text><text style="&st18;" transform="matrix(&st16;  1935.88  237.47 )">2</text><path style="stroke-width: 1.42 ;&st7;  " d=" M  1934.84,   205.75  L  1934.84,   188.76  " /><path style="stroke-width: 1.42 ;&st7;  " d=" M  1934.84,   188.76  L  1940.50,   188.76  " /><path style="stroke-width: 1.42 ;&st7;  " d=" M  1940.50,   188.76  L  1940.50,   205.75  " /><path style="stroke-width: 1.42 ;&st7;  " d=" M  1940.50,   205.75  L  1934.84,   205.75  " /><path style="stroke-width: 1.42 ;&st7;  " d=" M  1946.17,   180.26  L  1929.18,   180.26  L  1929.18,   214.25  L  1946.17,   214.25  L  1946.17,   180.26  " /></g><g ewd:figtype="conn" ewd:figID="11" ewd:code="G54"><path style="stroke-width: 1.42 ;&st7;  " d=" M  1886.68,   401.22  L  1886.68,   435.21  L  1954.67,   435.21  L  1954.67,   401.22  L  1886.68,   401.22  " /><g ewd:lineID="61"><text style="&st18;" transform="matrix(&st16;  1897.5  397.53 )">2</text><text style="&st18;" transform="matrix(&st16;  1900.99  408.85 )">SI</text></g><g ewd:lineID="63"><text style="&st18;" transform="matrix(&st16;  1897.5  443.41 )">1</text><text style="&st18;" transform="matrix(&st16;  1897.03  431.52 )">GND</text></g><g ewd:lineID="64"><text style="&st18;" transform="matrix(&st16;  1931.49  397.53 )">3</text><text style="&st18;" transform="matrix(&st16;  1933.94  408.85 )">+B</text></g><g ewd:figtype="title"><text style="&st18;" transform="matrix(&st17;  1875.88  438.11 )">G54</text><text style="&st18;" transform="matrix(&st17;  1882.99  438.12 )" ewd:textID="27">Blower Assembly</text></g></g><g ewd:figtype="rb" ewd:figID="29" ewd:code="FUSE58"><path style="stroke-width: 1.42 ;&st7;  " d=" M  1999.29,   112.27  L  1995.04,   112.27  " /><path style="stroke-width: 1.42 ;&st7;  " d=" M  1999.29,   120.77  L  1995.04,   120.77  " /><path style="stroke-width: 0.85 ;&st7;  " d=" M  1997.17,    95.27  L  1997.17,   112.27  " /><path style="stroke-width: 1.42 ;&st7;   " d=" M  1995.04,   112.27  C  1992.69    112.27   1990.79    114.17   1990.79    116.52  " /><path style="stroke-width: 1.42 ;&st7;   " d=" M  1990.79,   116.52  C  1990.79    118.86   1992.69    120.77   1995.04    120.77  " /><path style="stroke-width: 1.42 ;&st7;   " d=" M  1999.29,   120.77  C  2001.64    120.77   2003.54    118.86   2003.54    116.52  " /><path style="stroke-width: 1.42 ;&st7;   " d=" M  2003.54,   116.52  C  2003.54    114.17   2001.64    112.27   1999.29    112.27  " /><path style="stroke-width: 0.28 ;&st9;  " d=" M  1997.17,   107.37  L  1994.33,   104.54  L  1994.33,   108.79  L  1997.17,   111.62  L  2000.00,   108.79  L  2000.00,   104.54  L  1997.17,   107.37  " /><text style="&st18;" transform="matrix(&st16;  1989.12  49.08 )">(BAT)</text><text style="&st18;" transform="matrix(&st16;  2013.59  73.17 )">50A <tspan x="0 " dy="6.0">HTR</tspan></text><text style="&st18;" transform="matrix(&st16;  1995.37  118.49 )">1</text><text style="&st18;" transform="matrix(&st16;  1990.98  103.46 )">2</text><path style="stroke-width: 0.85 ;&st7;  " d=" M  1997.17,    86.77  L  1997.17,    95.27  " /><path style="stroke-width: 0.85 ;&st7;   " d=" M  1998.58,    85.35  C  1998.58     84.57   1997.95     83.94   1997.17     83.94  " /><path style="stroke-width: 0.85 ;&st7;   " d=" M  1997.17,    83.94  C  1996.38     83.94   1995.75     84.57   1995.75     85.35  " /><path style="stroke-width: 0.85 ;&st7;   " d=" M  1995.75,    85.35  C  1995.75     86.14   1996.38     86.77   1997.17     86.77  " /><path style="stroke-width: 0.85 ;&st7;   " d=" M  1997.17,    86.77  C  1997.95     86.77   1998.58     86.14   1998.58     85.35  " /><path style="stroke-width: 0.85 ;&st7;   " d=" M  1998.58,    62.69  C  1998.58     61.91   1997.95     61.28   1997.17     61.28  " /><path style="stroke-width: 0.85 ;&st7;   " d=" M  1997.17,    61.28  C  1996.38     61.28   1995.75     61.91   1995.75     62.69  " /><path style="stroke-width: 0.85 ;&st7;   " d=" M  1995.75,    62.69  C  1995.75     63.47   1996.38     64.11   1997.17     64.11  " /><path style="stroke-width: 0.85 ;&st7;   " d=" M  1997.17,    64.11  C  1997.95     64.11   1998.58     63.47   1998.58     62.69  " /><path style="stroke-width: 1.42 ;&st7;   " d=" M  1997.17,    83.94  C  1999.90     82.32   2000.82     78.80   1999.20     76.06  " /><path style="stroke-width: 1.42 ;&st7;   " d=" M  1999.20,    76.06  C  1998.68     75.18   1998.05     74.54   1997.17     74.02  " /><path style="stroke-width: 1.42 ;&st7;   " d=" M  1997.17,    64.11  C  1994.43     65.72   1993.52     69.25   1995.13     71.99  " /><path style="stroke-width: 1.42 ;&st7;   " d=" M  1995.13,    71.99  C  1995.65     72.87   1996.28     73.50   1997.17     74.02  " /><path style="stroke-width: 1.42 ;&st7;  " d=" M  2009.91,    95.27  L  2009.91,    52.78  L  1984.42,    52.78  L  1984.42,    95.27  L  2009.91,    95.27  " /></g><g ewd:figtype="rb" ewd:figID="30" ewd:code="1"><path style="stroke-width: 0.85 ;&st7;  " d=" M  1997.17,   214.25  L  1997.17,   163.26  " /><path style="stroke-width: 1.42 ;&st7;  " d=" M  1999.29,   154.76  L  1995.04,   154.76  " /><path style="stroke-width: 1.42 ;&st7;  " d=" M  1999.29,   163.26  L  1995.04,   163.26  " /><path style="stroke-width: 1.42 ;&st7;  " d=" M  1999.29,   231.25  L  1995.04,   231.25  " /><path style="stroke-width: 1.42 ;&st7;  " d=" M  1999.29,   239.75  L  1995.04,   239.75  " /><path style="stroke-width: 1.42 ;&st7;   " d=" M  1995.04,   154.76  C  1992.69    154.76   1990.79    156.66   1990.79    159.01  " /><path style="stroke-width: 1.42 ;&st7;   " d=" M  1990.79,   159.01  C  1990.79    161.36   1992.69    163.26   1995.04    163.26  " /><path style="stroke-width: 1.42 ;&st7;   " d=" M  1999.29,   163.26  C  2001.64    163.26   2003.54    161.36   2003.54    159.01  " /><path style="stroke-width: 1.42 ;&st7;   " d=" M  2003.54,   159.01  C  2003.54    156.66   2001.64    154.76   1999.29    154.76  " /><path style="stroke-width: 1.42 ;&st7;   " d=" M  1995.04,   231.25  C  1992.69    231.25   1990.79    233.15   1990.79    235.50  " /><path style="stroke-width: 1.42 ;&st7;   " d=" M  1990.79,   235.50  C  1990.79    237.84   1992.69    239.75   1995.04    239.75  " /><path style="stroke-width: 1.42 ;&st7;   " d=" M  1999.29,   239.75  C  2001.64    239.75   2003.54    237.84   2003.54    235.50  " /><path style="stroke-width: 1.42 ;&st7;   " d=" M  2003.54,   235.50  C  2003.54    233.15   2001.64    231.25   1999.29    231.25  " /><path style="stroke-width: 0.28 ;&st9;  " d=" M  1997.17,   168.15  L  2000.00,   170.99  L  2000.00,   166.74  L  1997.17,   163.90  L  1994.33,   166.74  L  1994.33,   170.99  L  1997.17,   168.15  " /><path style="stroke-width: 0.28 ;&st9;  " d=" M  1997.17,   226.35  L  1994.33,   223.52  L  1994.33,   227.77  L  1997.17,   230.60  L  2000.00,   227.77  L  2000.00,   223.52  L  1997.17,   226.35  " /><path style="stroke-width: 0.85 ;&st7;  " d=" M  1997.17,   214.25  L  1997.17,   231.25  " /><text style="&st18;" transform="matrix(&st16;  1990.98  176.56 )">5</text><text style="&st18;" transform="matrix(&st16;  1990.98  222.44 )">3</text><text style="&st18;" transform="matrix(&st17;  2013.3  208.83 )" ewd:textID="67">Short Pin</text><text style="&st18;" transform="matrix(&st16;  1995.37  160.98 )">1</text><text style="&st18;" transform="matrix(&st16;  1995.37  237.47 )">1</text><path style="stroke-width: 1.42 ;&st7;  " d=" M  1994.33,   205.75  L  1994.33,   188.76  " /><path style="stroke-width: 1.42 ;&st7;  " d=" M  1994.33,   188.76  L  1999.99,   188.76  " /><path style="stroke-width: 1.42 ;&st7;  " d=" M  1999.99,   188.76  L  1999.99,   205.75  " /><path style="stroke-width: 1.42 ;&st7;  " d=" M  1999.99,   205.75  L  1994.33,   205.75  " /><path style="stroke-width: 1.42 ;&st7;  " d=" M  2005.66,   180.26  L  1988.67,   180.26  L  1988.67,   214.25  L  2005.66,   214.25  L  2005.66,   180.26  " /></g><g ewd:figtype="conn" ewd:figID="43" ewd:code="G81,z7"><g ewd:lineID="55,56"><text style="&st18;" transform="matrix(&st16;  1619.93  339.73 )">12</text><path style="stroke-width: 1.42 ;&st7;   " d=" M  1636.26,   337.76  C  1636.26    335.26   1634.23    333.23   1631.73    333.23  " /><path style="stroke-width: 1.42 ;&st7;   " d=" M  1631.73,   333.23  C  1629.22    333.23   1627.19    335.26   1627.19    337.76  " /><path style="stroke-width: 1.42 ;&st7;   " d=" M  1627.19,   337.76  C  1627.19    340.27   1629.22    342.29   1631.73    342.29  " /><path style="stroke-width: 1.42 ;&st7;   " d=" M  1631.73,   342.29  C  1634.23    342.29   1636.26    340.27   1636.26    337.76  " /><text style="&st18;" transform="matrix(&st16;  1629.54  339.73 )">B</text><text style="&st18;" transform="matrix(&st16;  1623.37  329.53 )">CANL</text></g><g ewd:lineID="57,58"><text style="&st18;" transform="matrix(&st16;  1653.93  339.73 )">11</text><path style="stroke-width: 1.42 ;&st7;   " d=" M  1670.25,   337.76  C  1670.25    335.26   1668.22    333.23   1665.72    333.23  " /><path style="stroke-width: 1.42 ;&st7;   " d=" M  1665.72,   333.23  C  1663.22    333.23   1661.19    335.26   1661.19    337.76  " /><path style="stroke-width: 1.42 ;&st7;   " d=" M  1661.19,   337.76  C  1661.19    340.27   1663.22    342.29   1665.72    342.29  " /><path style="stroke-width: 1.42 ;&st7;   " d=" M  1665.72,   342.29  C  1668.22    342.29   1670.25    340.27   1670.25    337.76  " /><text style="&st18;" transform="matrix(&st16;  1663.53  339.73 )">B</text><text style="&st18;" transform="matrix(&st16;  1656.94  329.53 )">CANH</text></g><g ewd:lineID="59"><text style="&st18;" transform="matrix(&st16;  1713.42  339.73 )">39</text><text style="&st18;" transform="matrix(&st16;  1723.02  339.73 )">B</text><path style="stroke-width: 1.42 ;&st7;   " d=" M  1729.74,   337.76  C  1729.74    335.26   1727.71    333.23   1725.21    333.23  " /><path style="stroke-width: 1.42 ;&st7;   " d=" M  1725.21,   333.23  C  1722.71    333.23   1720.68    335.26   1720.68    337.76  " /><path style="stroke-width: 1.42 ;&st7;   " d=" M  1720.68,   337.76  C  1720.68    340.27   1722.71    342.29   1725.21    342.29  " /><path style="stroke-width: 1.42 ;&st7;   " d=" M  1725.21,   342.29  C  1727.71    342.29   1729.74    340.27   1729.74    337.76  " /><text style="&st18;" transform="matrix(&st16;  1717.56  329.53 )">PTC3</text></g><g ewd:lineID="60"><text style="&st18;" transform="matrix(&st16;  1781.4  339.73 )">40</text><path style="stroke-width: 1.42 ;&st7;   " d=" M  1797.73,   337.76  C  1797.73    335.26   1795.70    333.23   1793.20    333.23  " /><path style="stroke-width: 1.42 ;&st7;   " d=" M  1793.20,   333.23  C  1790.70    333.23   1788.67    335.26   1788.67    337.76  " /><path style="stroke-width: 1.42 ;&st7;   " d=" M  1788.67,   337.76  C  1788.67    340.27   1790.70    342.29   1793.20    342.29  " /><path style="stroke-width: 1.42 ;&st7;   " d=" M  1793.20,   342.29  C  1795.70    342.29   1797.73    340.27   1797.73    337.76  " /><text style="&st18;" transform="matrix(&st16;  1791.01  339.73 )">B</text><text style="&st18;" transform="matrix(&st16;  1785.54  329.53 )">PTC1</text></g><g ewd:lineID="61"><text style="&st18;" transform="matrix(&st16;  1781.4  279.67 )">22</text><text style="&st18;" transform="matrix(&st16;  1791.01  279.67 )">B</text><path style="stroke-width: 1.42 ;&st7;   " d=" M  1797.73,   277.71  C  1797.73    275.20   1795.70    273.17   1793.20    273.17  " /><path style="stroke-width: 1.42 ;&st7;   " d=" M  1793.20,   273.17  C  1790.70    273.17   1788.67    275.20   1788.67    277.71  " /><path style="stroke-width: 1.42 ;&st7;   " d=" M  1788.67,   277.71  C  1788.67    280.21   1790.70    282.24   1793.20    282.24  " /><path style="stroke-width: 1.42 ;&st7;   " d=" M  1793.20,   282.24  C  1795.70    282.24   1797.73    280.21   1797.73    277.71  " /><text style="&st18;" transform="matrix(&st16;  1786.48  289.87 )">BLW</text></g><g ewd:lineID="62"><text style="&st18;" transform="matrix(&st16;  1827.0  339.73 )">3</text><text style="&st18;" transform="matrix(&st16;  1833.51  339.73 )">B</text><path style="stroke-width: 1.42 ;&st7;   " d=" M  1840.23,   337.76  C  1840.23    335.26   1838.20    333.23   1835.69    333.23  " /><path style="stroke-width: 1.42 ;&st7;   " d=" M  1835.69,   333.23  C  1833.19    333.23   1831.16    335.26   1831.16    337.76  " /><path style="stroke-width: 1.42 ;&st7;   " d=" M  1831.16,   337.76  C  1831.16    340.27   1833.19    342.29   1835.69    342.29  " /><path style="stroke-width: 1.42 ;&st7;   " d=" M  1835.69,   342.29  C  1838.20    342.29   1840.23    340.27   1840.23    337.76  " /><text style="&st18;" transform="matrix(&st16;  1828.04  329.53 )">PTC2</text></g></g><g ewd:figtype="w2w" ewd:figID="87" ewd:code="AG4"><path style="stroke-width: 1.42 ;&st7;  " d=" M  1517.00,   395.55  L  1512.75,   399.80  L  1508.50,   395.55  " /><path style="stroke-width: 1.42 ;&st7;  " d=" M  1508.50,   392.15  L  1512.75,   396.40  L  1517.00,   392.15  " /><text style="&st18;" transform="matrix(&st16;  1500.12  407.44 )">6</text></g><g ewd:figtype="w2w" ewd:figID="88" ewd:code="AG4"><path style="stroke-width: 1.42 ;&st7;  " d=" M  1720.96,   434.65  L  1725.21,   438.90  L  1729.46,   434.65  " /><path style="stroke-width: 1.42 ;&st7;  " d=" M  1729.46,   438.05  L  1725.21,   442.29  L  1720.96,   438.05  " /><text style="&st18;" transform="matrix(&st16;  1709.48  449.93 )">18</text></g><g ewd:figtype="w2w" ewd:figID="89" ewd:code="AG4"><path style="stroke-width: 1.42 ;&st7;  " d=" M  1788.95,   434.65  L  1793.20,   438.90  L  1797.45,   434.65  " /><path style="stroke-width: 1.42 ;&st7;  " d=" M  1797.45,   438.05  L  1793.20,   442.29  L  1788.95,   438.05  " /><text style="&st18;" transform="matrix(&st16;  1777.47  449.93 )">13</text></g><g ewd:figtype="w2w" ewd:figID="90" ewd:code="AG4"><path style="stroke-width: 1.42 ;&st7;  " d=" M  1831.44,   434.65  L  1835.69,   438.90  L  1839.94,   434.65  " /><path style="stroke-width: 1.42 ;&st7;  " d=" M  1839.94,   438.05  L  1835.69,   442.29  L  1831.44,   438.05  " /><text style="&st18;" transform="matrix(&st16;  1819.96  449.93 )">14</text></g><g ewd:figtype="w2w" ewd:figID="91" ewd:code="AG8"><path style="stroke-width: 1.42 ;&st7;  " d=" M  1941.92,   325.30  L  1937.68,   321.05  L  1933.43,   325.30  " /><path style="stroke-width: 1.42 ;&st7;  " d=" M  1941.92,   321.90  L  1937.68,   317.65  L  1933.43,   321.90  " /><text style="&st18;" transform="matrix(&st16;  1925.04  313.95 )">1</text></g><g ewd:figtype="gp" ewd:figID="102" ewd:code="GD"><path style="stroke-width: 0.85 ;&st7;  " d=" M  1903.68,   697.25  L  1903.68,   701.50  " /><path style="stroke-width: 0.85 ;&st7;  " d=" M  1899.43,   704.33  L  1907.93,   704.33  " /><path style="stroke-width: 0.85 ;&st7;  " d=" M  1902.26,   710.00  L  1905.10,   710.00  " /><path style="stroke-width: 0.85 ;&st7;  " d=" M  1900.85,   707.17  L  1906.51,   707.17  " /><path style="stroke-width: 0.85 ;&st7;  " d=" M  1895.18,   701.50  L  1912.18,   701.50  " /></g></svg>