﻿<?xml version="1.0" encoding="utf-8"?>
<!DOCTYPE svg PUBLIC "-//W3C//DTD SVG 1.0//EN" "http://www.w3.org/TR/2001/REC-SVG-20010904/DTD/svg10.dtd"[
	<!ENTITY ns_flows "http://ns.adobe.com/Flows/1.0/">
	<!ENTITY ns_svg "http://www.w3.org/2000/svg">
	<!ENTITY ns_xlink "http://www.w3.org/1999/xlink">
	<!ENTITY st0 "font-size:7px;font-family:'MS-PGothic';adobe-font-script:japanese;">
	<!ENTITY st1 "font-size:6px;font-family:'ArialMT';">
	<!-- White fill  -->
	<!ENTITY st2 "fill:#FFFFFF;stroke:#000000; stroke-width:1.41;stroke-linecap:round;stroke-linejoin:round;">
	<!-- Yellow fill  -->
	<!ENTITY st3 "fill:#FFFFCC;stroke:#FFFFCC; stroke-width:0.1;stroke-linecap:round;stroke-linejoin:round;">
	<!-- Gray fill  -->
	<!ENTITY st4 "fill:#CCCCCC;stroke:#CCCCCC; stroke-width:0.1;stroke-linecap:round;stroke-linejoin:round;">
	<!-- Light-blue fill -->
	<!ENTITY st5 "fill:#CCECF4;stroke:#000000; stroke-width:1.133;stroke-linecap:round;stroke-linejoin:round;">
	<!ENTITY st6 "fill:none;stroke-linecap:butt; stroke-linejoin:round;">
	<!ENTITY st7 "fill:none;stroke:#000000;stroke-linecap:round;stroke-linejoin:round;">
	<!ENTITY st8 "enable-background:new    ;">
	<!-- Black fill -->
	<!ENTITY st9 "fill:#000000;stroke:#000000; stroke-linecap:round;stroke-linejoin:round;">
	<!-- SRS note   -->
	<!ENTITY st10 "font-size:9px;font-family:'ArialMT';">
	<!ENTITY st11 "font-size:9px;font-family:'Svg Symbol';">
	<!ENTITY st12 "font-size:6px;font-family:'Svg Symbol';">
	<!ENTITY st13 "fill:none;stroke:#ff0000;stroke-linecap:round;stroke-linejoin:round;">
	<!-- Yellow fill  -->
	<!ENTITY st14 "fill:#FFFF00;stroke:#FFFF00; stroke-width:0.1;stroke-linecap:round;stroke-linejoin:round;">
	<!ENTITY st15 "font-size:6px;font-family:'MS-PGothic';adobe-font-script:japanese;">
	<!ENTITY st16 "1.00 0.00 0.00 1.00">
	<!ENTITY st17 "0.00 -1.00 1.00 0.00">
	<!ENTITY st18 "font-size:6px;font-family:'Arial';">
	<!ENTITY st19 "font-size:9px;font-family:'Arial';">
	<!ENTITY st20 "font-size:6px;font-family:'MS-PGothic','MS PGothic';adobe-font-script:japanese;">
	<!ENTITY st21 "font-size:7px;font-family:'MS-PGothic','MS PGothic';adobe-font-script:japanese;">
	<!ATTLIST svg
		xmlns:ewd CDATA #FIXED "http://shcl.co.jp/ewd"
		xmlns:a CDATA #FIXED "http://ns.adobe.com/AdobeSVGViewerExtensions/3.0/"
		ewd:ver CDATA #IMPLIED
	>
	<!ATTLIST a
		ewd:lineID CDATA #IMPLIED
		ewd:groupID CDATA #IMPLIED
		ewd:figtype CDATA #IMPLIED
		ewd:code CDATA #IMPLIED
		ewd:figID CDATA #IMPLIED
		ewd:pinNo CDATA #IMPLIED
		ewd:comment CDATA #IMPLIED >
	<!ATTLIST g
		ewd:lineID CDATA #IMPLIED
		ewd:groupID CDATA #IMPLIED
		ewd:figtype CDATA #IMPLIED
		ewd:code CDATA #IMPLIED
		ewd:figID CDATA #IMPLIED
		ewd:pinNo CDATA #IMPLIED
		ewd:comment CDATA #IMPLIED >
	<!ATTLIST text
		ewd:textID CDATA #IMPLIED >
	<!ATTLIST title
		ewd:textID CDATA #IMPLIED >
]>
<!-- Generator: Shintec Hozumi YS   -->
<svg onload="call_execInitLoadProc_svg('system')" style="overflow:visible;  enable-background:new 0 0 6714.586 710.000" viewBox="0 0 6714.586 710.000" height="710.000" width="6714.586" xml:space="preserve" ewd:ver="2.1.2.9" xmlns="&ns_svg;" xmlns:a="http://ns.adobe.com/AdobeSVGViewerExtensions/3.0/" xmlns:ewd="http://shcl.co.jp/ewd" xmlns:xlink="&ns_xlink;">
<path style="stroke-width: 1.42 ;&st7;  " d=" M  4308.78,   239.75  L  4300.28,   239.75  " /><path style="stroke-width: 1.42 ;&st7;  " d=" M  4274.79,   239.75  L  4266.29,   239.75  " /><path style="stroke-width: 1.42 ;&st7;  " d=" M  4240.79,   239.75  L  4232.29,   239.75  " /><path style="stroke-width: 1.42 ;&st7;  " d=" M  4206.80,   239.75  L  4198.30,   239.75  " /><path style="stroke-width: 1.42 ;&st7;  " d=" M  4342.77,   239.75  L  4334.28,   239.75  " /><path style="stroke-width: 1.42 ;&st7;  " d=" M  4011.33,   248.24  L  4002.83,   248.24  " /><path style="stroke-width: 1.42 ;&st7;  " d=" M  4045.32,   248.24  L  4036.83,   248.24  " /><path style="stroke-width: 1.42 ;&st7;  " d=" M  4478.75,   409.72  L  4470.25,   409.72  " /><path style="stroke-width: 1.42 ;&st7;  " d=" M  4461.75,   316.23  L  4470.25,   316.23  " /><path style="stroke-width: 1.42 ;&st7;  " d=" M  4495.75,   316.23  L  4504.25,   316.23  " /><path style="stroke-width: 1.42 ;&st7;  " d=" M  4478.75,   231.25  L  4470.25,   231.25  " /><text style="&st18;" transform="matrix(&st17;  4330.58  300.73 )">P</text><text style="&st18;" transform="matrix(&st17;  4330.58  173.25 )">P</text><text style="&st18;" transform="matrix(&st17;  4262.59  173.37 )">R</text><text style="&st18;" transform="matrix(&st17;  4262.59  300.85 )">R</text><text style="&st18;" transform="matrix(&st17;  4228.6  301.7 )">W</text><text style="&st18;" transform="matrix(&st17;  4228.6  174.22 )">W</text><text style="&st18;" transform="matrix(&st17;  4194.6  173.45 )">B</text><text style="&st18;" transform="matrix(&st17;  4194.6  300.92 )">B</text><text style="&st18;" transform="matrix(&st17;  4033.13  183.5 )">SB</text><text style="&st18;" transform="matrix(&st17;  4033.13  309.42 )">B</text><text style="&st18;" transform="matrix(&st17;  4044.46  312.45 )">(*9)</text><text style="&st18;" transform="matrix(&st17;  4390.07  319.78 )">BR</text><text style="&st18;" transform="matrix(&st17;  4477.89  280.0 )">(*24)</text><text style="&st18;" transform="matrix(&st17;  4477.89  364.99 )">(*24)</text><text style="&st18;" transform="matrix(&st17;  4466.56  462.4 )">B</text><text style="&st18;" transform="matrix(&st17;  4477.89  466.97 )">(*24)</text><text style="&st18;" transform="matrix(&st17;  4477.89  178.02 )">(*24)</text><text style="&st18;" transform="matrix(&st17;  4466.56  360.41 )">B</text><text style="&st18;" transform="matrix(&st17;  4466.56  275.43 )">B</text><text style="&st18;" transform="matrix(&st17;  4466.56  173.45 )">B</text><text style="&st18;" transform="matrix(&st16;  4162.01  660.98 )">LG(*19)</text><text style="&st18;" transform="matrix(&st16;  4163.98  643.98 )">V(*19)</text><text style="&st18;" transform="matrix(&st16;  4111.02  660.98 )">LG(*19)</text><text style="&st18;" transform="matrix(&st16;  4112.99  643.98 )">V(*19)</text><text style="&st18;" transform="matrix(&st16;  4162.63  626.98 )">L(RHD)</text><text style="&st18;" transform="matrix(&st16;  4162.67  609.99 )">L(LHD)</text><text style="&st18;" transform="matrix(&st16;  4111.64  626.98 )">L(RHD)</text><text style="&st18;" transform="matrix(&st16;  4111.67  609.99 )">L(LHD)</text><text style="&st18;" transform="matrix(&st16;  4330.87  57.58 )" ewd:textID="61">Radio &amp; Display Receiver Assembly</text><text style="&st18;" transform="matrix(&st16;  4330.86  44.54 )">G141(L),G142(M),G143(N),G150(Q), <tspan x="0 " dy="6.0">G159(S),G190(I),Y1(T),Y2(U)</tspan></text><text style="&st18;" transform="matrix(&st16;  4330.87  37.47 )" ewd:textID="37">Navigation Receiver Assembly</text><text style="&st18;" transform="matrix(&st16;  4330.86  30.36 )">G137(F),G138(G),G139(H),G149(K),G158(R),G197(O)</text><g ewd:figtype="conn" ewd:figID="22" ewd:code="G145"><g ewd:lineID="89"><text style="&st18;" transform="matrix(&st16;  4030.64  380.53 )">8</text><text style="&st18;" transform="matrix(&st16;  4027.97  391.86 )">AUXO</text></g></g><g ewd:figtype="conn" ewd:figID="28" ewd:code="Q16"><path style="stroke-width: 1.42 ;&st7;  " d=" M  4172.80,   367.22  L  4172.80,   426.71  L  4359.77,   426.71  L  4359.77,   367.22  L  4172.80,   367.22  " /><path style="stroke-width: 0.85 ;&st7;  " d=" M  4334.27,   392.72  L  4334.27,   367.22  " /><path style="stroke-width: 0.85 ;&st7;  " d=" M  4266.29,   392.72  L  4266.29,   367.22  " /><path style="stroke-width: 0.85 ;&st7;  " d=" M  4232.29,   392.72  L  4232.29,   367.22  " /><path style="stroke-width: 0.85 ;&st7;  " d=" M  4198.30,   392.72  L  4198.30,   367.22  " /><path style="stroke-width: 1.42 ;&st7;  " d=" M  4189.80,   392.72  L  4189.80,   418.22  L  4342.77,   418.22  L  4342.77,   392.72  L  4189.80,   392.72  " /><text style="&st18;" transform="matrix(&st16;  4238.74  407.44 )" ewd:textID="35">Microphone Amplifier</text><text style="&st18;" transform="matrix(&st16;  4200.88  375.42 )">MACC</text><text style="&st18;" transform="matrix(&st16;  4234.88  375.42 )">MCO+</text><text style="&st18;" transform="matrix(&st16;  4268.87  375.42 )">MCO-</text><text style="&st18;" transform="matrix(&st16;  4336.86  375.42 )">SNS2</text><text style="&st18;" transform="matrix(&st16;  4189.6  364.66 )">3</text><path style="stroke-width: 1.42 ;&st7;   " d=" M  4202.83,   362.69  C  4202.83    360.19   4200.80    358.16   4198.30    358.16  " /><path style="stroke-width: 1.42 ;&st7;   " d=" M  4198.30,   358.16  C  4195.80    358.16   4193.77    360.19   4193.77    362.69  " /><path style="stroke-width: 1.42 ;&st7;   " d=" M  4193.77,   362.69  C  4193.77    365.19   4195.80    367.22   4198.30    367.22  " /><path style="stroke-width: 1.42 ;&st7;   " d=" M  4198.30,   367.22  C  4200.80    367.22   4202.83    365.19   4202.83    362.69  " /><text style="&st18;" transform="matrix(&st16;  4196.11  364.66 )">B</text><text style="&st18;" transform="matrix(&st16;  4223.6  364.66 )">4</text><text style="&st18;" transform="matrix(&st16;  4230.1  364.66 )">B</text><path style="stroke-width: 1.42 ;&st7;   " d=" M  4236.83,   362.69  C  4236.83    360.19   4234.80    358.16   4232.29    358.16  " /><path style="stroke-width: 1.42 ;&st7;   " d=" M  4232.29,   358.16  C  4229.79    358.16   4227.76    360.19   4227.76    362.69  " /><path style="stroke-width: 1.42 ;&st7;   " d=" M  4227.76,   362.69  C  4227.76    365.19   4229.79    367.22   4232.29    367.22  " /><path style="stroke-width: 1.42 ;&st7;   " d=" M  4232.29,   367.22  C  4234.80    367.22   4236.83    365.19   4236.83    362.69  " /><text style="&st18;" transform="matrix(&st16;  4257.59  364.66 )">6</text><path style="stroke-width: 1.42 ;&st7;   " d=" M  4270.82,   362.69  C  4270.82    360.19   4268.79    358.16   4266.29    358.16  " /><path style="stroke-width: 1.42 ;&st7;   " d=" M  4266.29,   358.16  C  4263.78    358.16   4261.75    360.19   4261.75    362.69  " /><path style="stroke-width: 1.42 ;&st7;   " d=" M  4261.75,   362.69  C  4261.75    365.19   4263.78    367.22   4266.29    367.22  " /><path style="stroke-width: 1.42 ;&st7;   " d=" M  4266.29,   367.22  C  4268.79    367.22   4270.82    365.19   4270.82    362.69  " /><text style="&st18;" transform="matrix(&st16;  4264.1  364.66 )">B</text><text style="&st18;" transform="matrix(&st16;  4325.58  364.66 )">5</text><text style="&st18;" transform="matrix(&st16;  4332.09  364.66 )">B</text><path style="stroke-width: 1.42 ;&st7;   " d=" M  4338.81,   362.69  C  4338.81    360.19   4336.78    358.16   4334.28    358.16  " /><path style="stroke-width: 1.42 ;&st7;   " d=" M  4334.28,   358.16  C  4331.77    358.16   4329.74    360.19   4329.74    362.69  " /><path style="stroke-width: 1.42 ;&st7;   " d=" M  4329.74,   362.69  C  4329.74    365.19   4331.77    367.22   4334.28    367.22  " /><path style="stroke-width: 1.42 ;&st7;   " d=" M  4334.28,   367.22  C  4336.78    367.22   4338.81    365.19   4338.81    362.69  " /><g ewd:figtype="title"><text style="&st18;" transform="matrix(&st16;  4169.4  441.43 )" ewd:textID="34">Map Light Assembly</text><text style="&st18;" transform="matrix(&st16;  4169.39  434.32 )">Q16(B)</text></g></g><g ewd:figtype="w2w" ewd:figID="67" ewd:code="GG1"><path style="stroke-width: 1.42 ;&st7;  " d=" M  4041.07,   257.31  L  4036.82,   253.06  L  4032.57,   257.31  " /><path style="stroke-width: 1.42 ;&st7;  " d=" M  4041.07,   253.91  L  4036.82,   249.66  L  4032.57,   253.91  " /><text style="&st18;" transform="matrix(&st16;  4024.19  245.96 )">4</text></g><g ewd:figtype="w2w" ewd:figID="68" ewd:code="GQ2"><path style="stroke-width: 1.42 ;&st7;  " d=" M  4202.55,   245.41  L  4198.30,   241.16  L  4194.05,   245.41  " /><path style="stroke-width: 1.42 ;&st7;  " d=" M  4202.55,   248.81  L  4198.30,   244.56  L  4194.05,   248.81  " /><text style="&st18;" transform="matrix(&st16;  4185.67  237.47 )">4</text></g><g ewd:figtype="w2w" ewd:figID="69" ewd:code="GQ2"><path style="stroke-width: 1.42 ;&st7;  " d=" M  4236.54,   245.41  L  4232.29,   241.16  L  4228.04,   245.41  " /><path style="stroke-width: 1.42 ;&st7;  " d=" M  4236.54,   248.81  L  4232.29,   244.56  L  4228.04,   248.81  " /><text style="&st18;" transform="matrix(&st16;  4219.66  237.47 )">2</text></g><g ewd:figtype="w2w" ewd:figID="70" ewd:code="GQ2"><path style="stroke-width: 1.42 ;&st7;  " d=" M  4270.53,   245.41  L  4266.29,   241.16  L  4262.04,   245.41  " /><path style="stroke-width: 1.42 ;&st7;  " d=" M  4270.53,   248.81  L  4266.29,   244.56  L  4262.04,   248.81  " /><text style="&st18;" transform="matrix(&st16;  4253.66  237.47 )">3</text></g><g ewd:figtype="w2w" ewd:figID="71" ewd:code="GQ2"><path style="stroke-width: 1.42 ;&st7;  " d=" M  4304.53,   245.41  L  4300.28,   241.16  L  4296.03,   245.41  " /><path style="stroke-width: 1.42 ;&st7;  " d=" M  4304.53,   248.81  L  4300.28,   244.56  L  4296.03,   248.81  " /><text style="&st18;" transform="matrix(&st16;  4287.65  237.47 )">1</text></g><g ewd:figtype="w2w" ewd:figID="72" ewd:code="GQ2"><path style="stroke-width: 1.42 ;&st7;  " d=" M  4338.52,   245.41  L  4334.27,   241.16  L  4330.02,   245.41  " /><path style="stroke-width: 1.42 ;&st7;  " d=" M  4338.52,   248.81  L  4334.27,   244.56  L  4330.02,   248.81  " /><text style="&st18;" transform="matrix(&st16;  4321.64  237.47 )">8</text></g><g ewd:figtype="w2w" ewd:figID="73" ewd:code="aM2"><path style="stroke-width: 1.42 ;&st7;  " d=" M  4474.50,   418.78  L  4470.25,   414.53  L  4466.00,   418.78  " /><path style="stroke-width: 1.42 ;&st7;  " d=" M  4474.50,   415.38  L  4470.25,   411.13  L  4466.00,   415.38  " /><text style="&st18;" transform="matrix(&st16;  4457.62  407.44 )">1</text></g><g ewd:figtype="w2w" ewd:figID="74" ewd:code="aM1"><path style="stroke-width: 1.42 ;&st7;  " d=" M  4466.00,   307.17  L  4470.25,   311.42  L  4474.50,   307.17  " /><path style="stroke-width: 1.42 ;&st7;  " d=" M  4474.50,   310.57  L  4470.25,   314.82  L  4466.00,   310.57  " /><text style="&st18;" transform="matrix(&st16;  4457.62  322.45 )">5</text></g><g ewd:figtype="w2w" ewd:figID="75" ewd:code="GM1"><path style="stroke-width: 1.42 ;&st7;  " d=" M  4474.50,   236.91  L  4470.25,   232.66  L  4466.00,   236.91  " /><path style="stroke-width: 1.42 ;&st7;  " d=" M  4474.50,   240.31  L  4470.25,   236.06  L  4466.00,   240.31  " /><text style="&st18;" transform="matrix(&st16;  4457.62  228.97 )">5</text></g><g ewd:figtype="w2w" ewd:figID="76" ewd:code="aM2"><path style="stroke-width: 1.42 ;&st7;  " d=" M  4508.49,   418.78  L  4504.25,   414.53  L  4500.00,   418.78  " /><path style="stroke-width: 1.42 ;&st7;  " d=" M  4508.49,   415.38  L  4504.25,   411.13  L  4500.00,   415.38  " /><text style="&st18;" transform="matrix(&st16;  4491.62  407.44 )">2</text></g><g ewd:figtype="w2w" ewd:figID="77" ewd:code="aM1"><path style="stroke-width: 1.42 ;&st7;  " d=" M  4500.00,   307.17  L  4504.25,   311.42  L  4508.49,   307.17  " /><path style="stroke-width: 1.42 ;&st7;  " d=" M  4508.49,   310.57  L  4504.25,   314.82  L  4500.00,   310.57  " /><text style="&st18;" transform="matrix(&st16;  4488.51  322.45 )">17</text></g><g ewd:figtype="w2w" ewd:figID="78" ewd:code="GM1"><path style="stroke-width: 1.42 ;&st7;  " d=" M  4508.49,   236.91  L  4504.25,   232.66  L  4500.00,   236.91  " /><path style="stroke-width: 1.42 ;&st7;  " d=" M  4508.49,   240.31  L  4504.25,   236.06  L  4500.00,   240.31  " /><text style="&st18;" transform="matrix(&st16;  4491.62  228.97 )">2</text></g><g ewd:figtype="gp" ewd:figID="151" ewd:code="GE"><path style="stroke-width: 0.85 ;&st7;  " d=" M  4392.35,   710.00  L  4395.18,   710.00  " /><path style="stroke-width: 0.85 ;&st7;  " d=" M  4390.93,   707.17  L  4396.60,   707.17  " /><path style="stroke-width: 0.85 ;&st7;  " d=" M  4389.51,   704.33  L  4398.01,   704.33  " /><path style="stroke-width: 0.85 ;&st7;  " d=" M  4385.27,   701.50  L  4402.26,   701.50  " /><path style="stroke-width: 0.85 ;&st7;  " d=" M  4393.76,   697.25  L  4393.76,   701.50  " /></g><g ewd:code=" " ewd:figID="178" ewd:comment=" ,24" ewd:figtype="sh"><path style="stroke-width: 0.85 ;&st7; stroke-dasharray:3, 1.5;" d=" M  4572.23,   188.75  L  4444.76,   188.75  L  4444.76,   154.76  L  4572.23,   154.76  L  4572.23,   188.75  " /><path style="stroke-width: 0.85 ;&st7;  " d=" M  4571.04,   153.76  L  4570.77,   154.23  L  4570.68,   154.76  L  4570.77,   155.29  L  4571.04,   155.76  L  4571.46,   156.11  L  4571.96,   156.30  L  4572.50,   156.30  L  4573.01,   156.11  L  4573.43,   155.76  L  4573.70,   155.29  L  4573.79,   154.76  L  4573.70,   154.23  L  4573.43,   153.76  L  4573.01,   153.41  L  4572.50,   153.22  L  4571.96,   153.22  L  4571.46,   153.41  L  4571.04,   153.76  L  4571.44,   154.47  L  4571.44,   155.05  L  4571.81,   155.50  L  4572.38,   155.60  L  4572.89,   155.31  L  4573.08,   154.76  L  4572.89,   154.21  L  4572.38,   153.92  L  4571.81,   154.02  L  4572.23,   154.76  " /><path style="stroke-width: 0.85 ;&st7;  " d=" M  4571.04,   187.75  L  4570.77,   188.22  L  4570.68,   188.75  L  4570.77,   189.29  L  4571.04,   189.76  L  4571.46,   190.10  L  4571.96,   190.29  L  4572.50,   190.29  L  4573.01,   190.10  L  4573.43,   189.76  L  4573.70,   189.29  L  4573.79,   188.75  L  4573.70,   188.22  L  4573.43,   187.75  L  4573.01,   187.41  L  4572.50,   187.22  L  4571.96,   187.22  L  4571.46,   187.41  L  4571.04,   187.75  L  4571.44,   188.46  L  4571.44,   189.05  L  4571.81,   189.49  L  4572.38,   189.59  L  4572.89,   189.30  L  4573.08,   188.75  L  4572.89,   188.21  L  4572.38,   187.92  L  4571.81,   188.02  L  4572.23,   188.75  " /><g ewd:code="" ewd:figID="236" ewd:comment="24" ewd:figtype="commref"><text style="&st18;" transform="matrix(&st17;  4452.39  178.02 )">(*24)</text></g><g ewd:code="" ewd:figID="238" ewd:comment=" " ewd:figtype="commref"><text style="&st18;" transform="matrix(&st17;  4441.06  183.99 )" ewd:textID="2">(Shielded)</text></g></g><g ewd:code=" " ewd:figID="179" ewd:comment=" ,24" ewd:figtype="sh"><path style="stroke-width: 0.85 ;&st7; stroke-dasharray:3, 1.5;" d=" M  4572.23,   375.72  L  4444.76,   375.72  L  4444.76,   341.73  L  4572.23,   341.73  L  4572.23,   375.72  " /><path style="stroke-width: 0.85 ;&st7;  " d=" M  4571.04,   340.73  L  4570.77,   341.20  L  4570.68,   341.73  L  4570.77,   342.26  L  4571.04,   342.73  L  4571.46,   343.08  L  4571.96,   343.26  L  4572.50,   343.26  L  4573.01,   343.08  L  4573.43,   342.73  L  4573.70,   342.26  L  4573.79,   341.73  L  4573.70,   341.20  L  4573.43,   340.73  L  4573.01,   340.38  L  4572.50,   340.19  L  4571.96,   340.19  L  4571.46,   340.38  L  4571.04,   340.73  L  4571.44,   341.44  L  4571.44,   342.02  L  4571.81,   342.46  L  4572.38,   342.56  L  4572.89,   342.28  L  4573.08,   341.73  L  4572.89,   341.18  L  4572.38,   340.89  L  4571.81,   340.99  L  4572.23,   341.73  " /><path style="stroke-width: 0.85 ;&st7;  " d=" M  4571.04,   374.72  L  4570.77,   375.19  L  4570.68,   375.72  L  4570.77,   376.26  L  4571.04,   376.73  L  4571.46,   377.07  L  4571.96,   377.26  L  4572.50,   377.26  L  4573.01,   377.07  L  4573.43,   376.73  L  4573.70,   376.26  L  4573.79,   375.72  L  4573.70,   375.19  L  4573.43,   374.72  L  4573.01,   374.37  L  4572.50,   374.19  L  4571.96,   374.19  L  4571.46,   374.37  L  4571.04,   374.72  L  4571.44,   375.43  L  4571.44,   376.01  L  4571.81,   376.46  L  4572.38,   376.56  L  4572.89,   376.27  L  4573.08,   375.72  L  4572.89,   375.18  L  4572.38,   374.89  L  4571.81,   374.99  L  4572.23,   375.72  " /><g ewd:code="" ewd:figID="231" ewd:comment="24" ewd:figtype="commref"><text style="&st18;" transform="matrix(&st17;  4452.39  364.99 )">(*24)</text></g><g ewd:code="" ewd:figID="237" ewd:comment=" " ewd:figtype="commref"><text style="&st18;" transform="matrix(&st17;  4441.06  370.96 )" ewd:textID="2">(Shielded)</text></g></g><g ewd:code=" " ewd:figID="163" ewd:comment=" ,24" ewd:figtype="sh"><path style="stroke-width: 0.85 ;&st7; stroke-dasharray:3, 1.5;" d=" M  4572.23,   256.74  L  4572.23,   290.74  L  4444.76,   290.74  L  4444.76,   256.74  L  4572.23,   256.74  " /><path style="stroke-width: 0.85 ;&st7;  " d=" M  4571.04,   255.74  L  4570.77,   256.21  L  4570.68,   256.74  L  4570.77,   257.28  L  4571.04,   257.75  L  4571.46,   258.09  L  4571.96,   258.28  L  4572.50,   258.28  L  4573.01,   258.09  L  4573.43,   257.75  L  4573.70,   257.28  L  4573.79,   256.74  L  4573.70,   256.21  L  4573.43,   255.74  L  4573.01,   255.39  L  4572.50,   255.21  L  4571.96,   255.21  L  4571.46,   255.39  L  4571.04,   255.74  L  4571.44,   256.45  L  4571.44,   257.03  L  4571.81,   257.48  L  4572.38,   257.58  L  4572.89,   257.29  L  4573.08,   256.74  L  4572.89,   256.20  L  4572.38,   255.91  L  4571.81,   256.01  L  4572.23,   256.74  " /><path style="stroke-width: 0.85 ;&st7;  " d=" M  4571.04,   289.73  L  4570.77,   290.20  L  4570.68,   290.74  L  4570.77,   291.27  L  4571.04,   291.74  L  4571.46,   292.09  L  4571.96,   292.27  L  4572.50,   292.27  L  4573.01,   292.09  L  4573.43,   291.74  L  4573.70,   291.27  L  4573.79,   290.74  L  4573.70,   290.20  L  4573.43,   289.73  L  4573.01,   289.39  L  4572.50,   289.20  L  4571.96,   289.20  L  4571.46,   289.39  L  4571.04,   289.73  L  4571.44,   290.45  L  4571.44,   291.03  L  4571.81,   291.47  L  4572.38,   291.57  L  4572.89,   291.28  L  4573.08,   290.74  L  4572.89,   290.19  L  4572.38,   289.90  L  4571.81,   290.00  L  4572.23,   290.74  " /><g ewd:code="" ewd:figID="225" ewd:comment="24" ewd:figtype="commref"><text style="&st18;" transform="matrix(&st17;  4452.39  280.0 )">(*24)</text></g><g ewd:code="" ewd:figID="239" ewd:comment=" " ewd:figtype="commref"><text style="&st18;" transform="matrix(&st17;  4441.06  285.98 )" ewd:textID="2">(Shielded)</text></g></g><g ewd:code=" " ewd:figID="177" ewd:comment=" ,24" ewd:figtype="sh"><path style="stroke-width: 0.85 ;&st7; stroke-dasharray:3, 1.5;" d=" M  4572.23,   477.71  L  4444.76,   477.71  L  4444.76,   443.71  L  4572.23,   443.71  L  4572.23,   477.71  " /><path style="stroke-width: 0.85 ;&st7;  " d=" M  4571.04,   442.71  L  4570.77,   443.18  L  4570.68,   443.71  L  4570.77,   444.24  L  4571.04,   444.71  L  4571.46,   445.06  L  4571.96,   445.25  L  4572.50,   445.25  L  4573.01,   445.06  L  4573.43,   444.71  L  4573.70,   444.24  L  4573.79,   443.71  L  4573.70,   443.18  L  4573.43,   442.71  L  4573.01,   442.36  L  4572.50,   442.18  L  4571.96,   442.18  L  4571.46,   442.36  L  4571.04,   442.71  L  4571.44,   443.42  L  4571.44,   444.00  L  4571.81,   444.45  L  4572.38,   444.55  L  4572.89,   444.26  L  4573.08,   443.71  L  4572.89,   443.16  L  4572.38,   442.88  L  4571.81,   442.97  L  4572.23,   443.71  " /><path style="stroke-width: 0.85 ;&st7;  " d=" M  4571.04,   476.70  L  4570.77,   477.17  L  4570.68,   477.71  L  4570.77,   478.24  L  4571.04,   478.71  L  4571.46,   479.05  L  4571.96,   479.24  L  4572.50,   479.24  L  4573.01,   479.05  L  4573.43,   478.71  L  4573.70,   478.24  L  4573.79,   477.71  L  4573.70,   477.17  L  4573.43,   476.70  L  4573.01,   476.36  L  4572.50,   476.17  L  4571.96,   476.17  L  4571.46,   476.36  L  4571.04,   476.70  L  4571.44,   477.41  L  4571.44,   478.00  L  4571.81,   478.44  L  4572.38,   478.54  L  4572.89,   478.25  L  4573.08,   477.71  L  4572.89,   477.16  L  4572.38,   476.87  L  4571.81,   476.97  L  4572.23,   477.71  " /><g ewd:code="" ewd:figID="233" ewd:comment="24" ewd:figtype="commref"><text style="&st18;" transform="matrix(&st17;  4452.39  466.97 )">(*24)</text></g><g ewd:code="" ewd:figID="232" ewd:comment=" " ewd:figtype="commref"><text style="&st18;" transform="matrix(&st17;  4441.06  472.94 )" ewd:textID="2">(Shielded)</text></g></g><g ewd:code=" " ewd:figID="162" ewd:comment=" " ewd:figtype="sh"><path style="stroke-width: 0.85 ;&st7; stroke-dasharray:3, 1.5;" d=" M  4300.28,   188.75  L  4172.80,   188.75  L  4172.80,   154.76  L  4300.28,   154.76  L  4300.28,   188.75  " /><path style="stroke-width: 0.85 ;&st7;  " d=" M  4299.09,   153.76  L  4298.82,   154.23  L  4298.72,   154.76  L  4298.82,   155.29  L  4299.09,   155.76  L  4299.50,   156.11  L  4300.01,   156.30  L  4300.55,   156.30  L  4301.06,   156.11  L  4301.47,   155.76  L  4301.74,   155.29  L  4301.84,   154.76  L  4301.74,   154.23  L  4301.47,   153.76  L  4301.06,   153.41  L  4300.55,   153.22  L  4300.01,   153.22  L  4299.50,   153.41  L  4299.09,   153.76  L  4299.48,   154.47  L  4299.48,   155.05  L  4299.85,   155.50  L  4300.43,   155.60  L  4300.93,   155.31  L  4301.13,   154.76  L  4300.93,   154.21  L  4300.43,   153.92  L  4299.85,   154.02  L  4300.28,   154.76  " /><path style="stroke-width: 0.85 ;&st7;  " d=" M  4299.09,   187.75  L  4298.82,   188.22  L  4298.72,   188.75  L  4298.82,   189.29  L  4299.09,   189.76  L  4299.50,   190.10  L  4300.01,   190.29  L  4300.55,   190.29  L  4301.06,   190.10  L  4301.47,   189.76  L  4301.74,   189.29  L  4301.84,   188.75  L  4301.74,   188.22  L  4301.47,   187.75  L  4301.06,   187.41  L  4300.55,   187.22  L  4300.01,   187.22  L  4299.50,   187.41  L  4299.09,   187.75  L  4299.48,   188.46  L  4299.48,   189.05  L  4299.85,   189.49  L  4300.43,   189.59  L  4300.93,   189.30  L  4301.13,   188.75  L  4300.93,   188.21  L  4300.43,   187.92  L  4299.85,   188.02  L  4300.28,   188.75  " /><g ewd:code="" ewd:figID="184" ewd:comment=" " ewd:figtype="commref"><text style="&st18;" transform="matrix(&st17;  4169.11  183.99 )" ewd:textID="2">(Shielded)</text></g></g><g ewd:code=" " ewd:figID="277" ewd:comment=" " ewd:figtype="sh"><path style="stroke-width: 0.85 ;&st7; stroke-dasharray:3, 1.5;" d=" M  4300.28,   282.24  L  4300.28,   316.23  L  4172.80,   316.23  L  4172.80,   282.24  L  4300.28,   282.24  " /><path style="stroke-width: 0.85 ;&st7;  " d=" M  4299.09,   281.24  L  4298.82,   281.71  L  4298.72,   282.24  L  4298.82,   282.77  L  4299.09,   283.24  L  4299.50,   283.59  L  4300.01,   283.77  L  4300.55,   283.77  L  4301.06,   283.59  L  4301.47,   283.24  L  4301.74,   282.77  L  4301.84,   282.24  L  4301.74,   281.71  L  4301.47,   281.24  L  4301.06,   280.89  L  4300.55,   280.70  L  4300.01,   280.70  L  4299.50,   280.89  L  4299.09,   281.24  L  4299.48,   281.95  L  4299.48,   282.53  L  4299.85,   282.97  L  4300.43,   283.07  L  4300.93,   282.79  L  4301.13,   282.24  L  4300.93,   281.69  L  4300.43,   281.40  L  4299.85,   281.50  L  4300.28,   282.24  " /><g ewd:code="" ewd:figID="183" ewd:comment=" " ewd:figtype="commref"><text style="&st18;" transform="matrix(&st17;  4169.11  311.47 )" ewd:textID="2">(Shielded)</text></g></g><g ewd:code="2" ewd:figID="241" ewd:comment="" ewd:figtype="comment"><text style="&st18;" transform="matrix(&st16;  4177.9  462.68 )" ewd:textID="4">* 2 :Navigation Receiver Type</text></g><g ewd:code="12" ewd:figID="188" ewd:comment="" ewd:figtype="comment"><text style="&st18;" transform="matrix(&st16;  4177.9  488.17 )" ewd:textID="10">*12 :w/ Back Guide Monitor</text></g><g ewd:code="24" ewd:figID="215" ewd:comment="12,13" ewd:figtype="comment"><text style="&st18;" transform="matrix(&st16;  4177.9  513.67 )">*24 :*12. *13</text></g><g ewd:code="19" ewd:figID="272" ewd:comment="" ewd:figtype="comment"><text style="&st18;" transform="matrix(&st16;  4177.9  505.17 )" ewd:textID="14">*19 :w/ Network Gateway ECU</text></g><g ewd:code="13" ewd:figID="187" ewd:comment="" ewd:figtype="comment"><text style="&st18;" transform="matrix(&st16;  4177.9  496.67 )" ewd:textID="11">*13 :w/ Rear View Monitor</text></g><g ewd:code="3" ewd:figID="242" ewd:comment="" ewd:figtype="comment"><text style="&st18;" transform="matrix(&st16;  4177.9  471.18 )" ewd:textID="5">* 3 :Radio &amp; Display Receiver Type</text></g><g ewd:code="11" ewd:figID="210" ewd:comment="" ewd:figtype="comment"><text style="&st18;" transform="matrix(&st16;  4177.9  479.67 )" ewd:textID="9">*11 :w/ Digital Audio Broadcasting Antenna</text></g></svg>