﻿<?xml version="1.0" encoding="utf-8"?>
<!DOCTYPE svg PUBLIC "-//W3C//DTD SVG 1.0//EN" "http://www.w3.org/TR/2001/REC-SVG-20010904/DTD/svg10.dtd"[
	<!ENTITY ns_flows "http://ns.adobe.com/Flows/1.0/">
	<!ENTITY ns_svg "http://www.w3.org/2000/svg">
	<!ENTITY ns_xlink "http://www.w3.org/1999/xlink">
	<!ENTITY st0 "font-size:7px;font-family:'MS-PGothic';adobe-font-script:japanese;">
	<!ENTITY st1 "font-size:6px;font-family:'ArialMT';">
	<!-- White fill  -->
	<!ENTITY st2 "fill:#FFFFFF;stroke:#000000; stroke-width:1.41;stroke-linecap:round;stroke-linejoin:round;">
	<!-- Yellow fill  -->
	<!ENTITY st3 "fill:#FFFFCC;stroke:#FFFFCC; stroke-width:0.1;stroke-linecap:round;stroke-linejoin:round;">
	<!-- Gray fill  -->
	<!ENTITY st4 "fill:#CCCCCC;stroke:#CCCCCC; stroke-width:0.1;stroke-linecap:round;stroke-linejoin:round;">
	<!-- Light-blue fill -->
	<!ENTITY st5 "fill:#CCECF4;stroke:#000000; stroke-width:1.133;stroke-linecap:round;stroke-linejoin:round;">
	<!ENTITY st6 "fill:none;stroke-linecap:butt; stroke-linejoin:round;">
	<!ENTITY st7 "fill:none;stroke:#000000;stroke-linecap:round;stroke-linejoin:round;">
	<!ENTITY st8 "enable-background:new    ;">
	<!-- Black fill -->
	<!ENTITY st9 "fill:#000000;stroke:#000000; stroke-linecap:round;stroke-linejoin:round;">
	<!-- SRS note   -->
	<!ENTITY st10 "font-size:9px;font-family:'ArialMT';">
	<!ENTITY st11 "font-size:9px;font-family:'Svg Symbol';">
	<!ENTITY st12 "font-size:6px;font-family:'Svg Symbol';">
	<!ENTITY st13 "fill:none;stroke:#ff0000;stroke-linecap:round;stroke-linejoin:round;">
	<!-- Yellow fill  -->
	<!ENTITY st14 "fill:#FFFF00;stroke:#FFFF00; stroke-width:0.1;stroke-linecap:round;stroke-linejoin:round;">
	<!ENTITY st15 "font-size:6px;font-family:'MS-PGothic';adobe-font-script:japanese;">
	<!ENTITY st16 "1.00 0.00 0.00 1.00">
	<!ENTITY st17 "0.00 -1.00 1.00 0.00">
	<!ENTITY st18 "font-size:6px;font-family:'Arial';">
	<!ENTITY st19 "font-size:9px;font-family:'Arial';">
	<!ENTITY st20 "font-size:6px;font-family:'MS-PGothic','MS PGothic';adobe-font-script:japanese;">
	<!ENTITY st21 "font-size:7px;font-family:'MS-PGothic','MS PGothic';adobe-font-script:japanese;">
	<!ATTLIST svg
		xmlns:ewd CDATA #FIXED "http://shcl.co.jp/ewd"
		xmlns:a CDATA #FIXED "http://ns.adobe.com/AdobeSVGViewerExtensions/3.0/"
		ewd:ver CDATA #IMPLIED
	>
	<!ATTLIST a
		ewd:lineID CDATA #IMPLIED
		ewd:groupID CDATA #IMPLIED
		ewd:figtype CDATA #IMPLIED
		ewd:code CDATA #IMPLIED
		ewd:figID CDATA #IMPLIED
		ewd:pinNo CDATA #IMPLIED
		ewd:comment CDATA #IMPLIED >
	<!ATTLIST g
		ewd:lineID CDATA #IMPLIED
		ewd:groupID CDATA #IMPLIED
		ewd:figtype CDATA #IMPLIED
		ewd:code CDATA #IMPLIED
		ewd:figID CDATA #IMPLIED
		ewd:pinNo CDATA #IMPLIED
		ewd:comment CDATA #IMPLIED >
	<!ATTLIST text
		ewd:textID CDATA #IMPLIED >
	<!ATTLIST title
		ewd:textID CDATA #IMPLIED >
]>
<!-- Generator: Shintec Hozumi YS   -->
<svg onload="call_execInitLoadProc_svg('system')" style="overflow:visible;  enable-background:new 0 0 7771.804 710.000" viewBox="0 0 7771.804 710.000" height="710.000" width="7771.804" xml:space="preserve" ewd:ver="2.1.2.9" xmlns="&ns_svg;" xmlns:a="http://ns.adobe.com/AdobeSVGViewerExtensions/3.0/" xmlns:ewd="http://shcl.co.jp/ewd" xmlns:xlink="&ns_xlink;">
<path style="stroke-width: 1.42 ;&st7;  " d=" M  3395.91,   469.21  L  3390.93,   474.18  " /><path style="stroke-width: 1.42 ;&st7;  " d=" M  3402.96,   486.20  L  3407.93,   481.24  " /><path style="stroke-width: 1.42 ;&st7;  " d=" M  3390.93,   481.24  L  3395.91,   486.20  " /><path style="stroke-width: 1.42 ;&st7;  " d=" M  3407.93,   474.18  L  3402.96,   469.21  " /><text style="&st18;" transform="matrix(&st17;  3353.24  517.65 )">W-B</text><text style="&st18;" transform="matrix(&st17;  3446.73  517.65 )">W-B</text><text style="&st18;" transform="matrix(&st17;  3407.07  519.55 )">(RHD)</text><text style="&st18;" transform="matrix(&st17;  3395.74  517.65 )">W-B</text><text style="&st18;" transform="matrix(&st17;  3364.58  519.52 )">(LHD)</text><text style="&st18;" transform="matrix(&st16;  3336.54  168.06 )" ewd:textID="45">Combination Meter Assembly</text><text style="&st18;" transform="matrix(&st16;  3336.53  160.95 )">G16(A),G17(B)</text><text style="&st18;" transform="matrix(&st16;  3133.52  643.98 )">G</text><text style="&st18;" transform="matrix(&st16;  3082.52  643.98 )">G</text><text style="&st18;" transform="matrix(&st16;  3133.01  626.98 )">W</text><text style="&st18;" transform="matrix(&st16;  3082.02  626.98 )">W</text><text style="&st18;" transform="matrix(&st17;  3157.78  488.16 )">G</text><text style="&st18;" transform="matrix(&st17;  3200.27  490.03 )">GR</text><text style="&st18;" transform="matrix(&st17;  3242.76  488.01 )">V</text><text style="&st18;" transform="matrix(&st17;  3285.25  487.7 )">P</text><text style="&st18;" transform="matrix(&st16;  3119.6  609.99 )">LG(*32 *24)</text><text style="&st18;" transform="matrix(&st16;  3068.6  609.99 )">LG(*32 *24)</text><text style="&st18;" transform="matrix(&st17;  3169.11  492.47 )">(*21)</text><text style="&st18;" transform="matrix(&st17;  3211.6  492.47 )">(*21)</text><text style="&st18;" transform="matrix(&st17;  3254.09  492.47 )">(*21)</text><text style="&st18;" transform="matrix(&st17;  3296.59  492.47 )">(*21)</text><g ewd:figtype="conn" ewd:figID="20" ewd:code="A9"><path style="stroke-width: 0.85 ;&st7;  " d=" M  3450.42,   571.19  L  3450.42,   566.94  " /><path style="stroke-width: 0.85 ;&st7;  " d=" M  3450.42,   541.44  L  3450.42,   537.20  " /><path style="stroke-width: 1.42 ;&st7;  " d=" M  3450.42,   544.28  L  3456.09,   566.94  " /><path style="stroke-width: 0.85 ;&st7;   " d=" M  3451.84,   565.52  C  3451.84    564.74   3451.21    564.11   3450.42    564.11  " /><path style="stroke-width: 0.85 ;&st7;   " d=" M  3450.42,   564.11  C  3449.64    564.11   3449.01    564.74   3449.01    565.52  " /><path style="stroke-width: 0.85 ;&st7;   " d=" M  3449.01,   565.52  C  3449.01    566.31   3449.64    566.94   3450.42    566.94  " /><path style="stroke-width: 0.85 ;&st7;   " d=" M  3450.42,   566.94  C  3451.21    566.94   3451.84    566.31   3451.84    565.52  " /><path style="stroke-width: 0.85 ;&st7;   " d=" M  3451.84,   542.86  C  3451.84    542.08   3451.21    541.44   3450.42    541.44  " /><path style="stroke-width: 0.85 ;&st7;   " d=" M  3450.42,   541.44  C  3449.64    541.44   3449.01    542.08   3449.01    542.86  " /><path style="stroke-width: 0.85 ;&st7;   " d=" M  3449.01,   542.86  C  3449.01    543.64   3449.64    544.28   3450.42    544.28  " /><path style="stroke-width: 0.85 ;&st7;   " d=" M  3450.42,   544.28  C  3451.21    544.28   3451.84    543.64   3451.84    542.86  " /><path style="stroke-width: 1.42 ;&st7;  " d=" M  3458.92,   571.19  L  3458.92,   537.20  L  3441.92,   537.20  L  3441.92,   571.19  L  3458.92,   571.19  " /><text style="&st18;" transform="matrix(&st16;  3444.24  579.38 )">1</text><text style="&st18;" transform="matrix(&st16;  3444.24  533.51 )">2</text><g ewd:figtype="title"><text style="&st18;" transform="matrix(&st17;  3466.53  574.09 )">A9</text><text style="&st18;" transform="matrix(&st17;  3473.64  574.1 )" ewd:textID="39">Brake Fluid Level <tspan x="0 " dy="6.0">Warning Switch </tspan><tspan x="0 " dy="6.0">(Brake Master Cylinder </tspan><tspan x="0 " dy="6.0"> Reservoir Sub-Assembly)</tspan></text></g></g><g ewd:figtype="conn" ewd:figID="31" ewd:code="G3"><path style="stroke-width: 0.85 ;&st7;  " d=" M  3161.47,   532.95  L  3161.47,   520.20  " /><path style="stroke-width: 0.85 ;&st7;  " d=" M  3161.47,   562.69  L  3161.47,   558.44  " /><path style="stroke-width: 1.42 ;&st7;  " d=" M  3161.47,   555.61  L  3159.78,   531.49  " /><path style="stroke-width: 0.85 ;&st7;   " d=" M  3162.89,   534.36  C  3162.89    533.58   3162.25    532.95   3161.47    532.95  " /><path style="stroke-width: 0.85 ;&st7;   " d=" M  3161.47,   532.95  C  3160.69    532.95   3160.06    533.58   3160.06    534.36  " /><path style="stroke-width: 0.85 ;&st7;   " d=" M  3160.06,   534.36  C  3160.06    535.14   3160.69    535.78   3161.47    535.78  " /><path style="stroke-width: 0.85 ;&st7;   " d=" M  3161.47,   535.78  C  3162.25    535.78   3162.89    535.14   3162.89    534.36  " /><path style="stroke-width: 0.85 ;&st7;   " d=" M  3162.89,   557.03  C  3162.89    556.24   3162.25    555.61   3161.47    555.61  " /><path style="stroke-width: 0.85 ;&st7;   " d=" M  3161.47,   555.61  C  3160.69    555.61   3160.06    556.24   3160.06    557.03  " /><path style="stroke-width: 0.85 ;&st7;   " d=" M  3160.06,   557.03  C  3160.06    557.81   3160.69    558.44   3161.47    558.44  " /><path style="stroke-width: 0.85 ;&st7;   " d=" M  3161.47,   558.44  C  3162.25    558.44   3162.89    557.81   3162.89    557.03  " /><path style="stroke-width: 0.85 ;&st7;  " d=" M  3222.38,   562.69  L  3288.95,   562.69  L  3288.95,   520.20  " /><path style="stroke-width: 0.85 ;&st7;  " d=" M  3188.38,   562.69  L  3161.47,   562.69  " /><path style="stroke-width: 0.85 ;&st7;  " d=" M  3203.96,   520.20  L  3203.96,   537.20  " /><path style="stroke-width: 0.85 ;&st7;  " d=" M  3203.96,   559.86  L  3203.96,   537.20  " /><path style="stroke-width: 0.85 ;&st7;  " d=" M  3203.96,   559.86  L  3205.43,   556.32  L  3202.50,   556.32  L  3203.96,   559.86  L  3203.96,   558.38  L  3204.58,   556.88  L  3203.34,   556.88  L  3203.96,   558.38  L  3203.96,   557.64  L  3204.16,   557.17  L  3203.77,   557.17  L  3203.96,   557.64  " /><path style="stroke-width: 0.85 ;&st7;  " d=" M  3177.27,   561.69  L  3177.00,   562.16  L  3176.91,   562.69  L  3177.00,   563.22  L  3177.27,   563.69  L  3177.69,   564.04  L  3178.20,   564.23  L  3178.74,   564.23  L  3179.25,   564.04  L  3179.66,   563.69  L  3179.93,   563.22  L  3180.03,   562.69  L  3179.93,   562.16  L  3179.66,   561.69  L  3179.25,   561.34  L  3178.74,   561.16  L  3178.20,   561.16  L  3177.69,   561.34  L  3177.27,   561.69  L  3177.67,   562.40  L  3177.67,   562.98  L  3178.04,   563.43  L  3178.61,   563.53  L  3179.12,   563.24  L  3179.32,   562.69  L  3179.12,   562.14  L  3178.61,   561.86  L  3178.04,   561.95  L  3178.47,   562.69  " /><path style="stroke-width: 0.85 ;&st7;  " d=" M  3178.47,   562.69  L  3178.47,   537.20  L  3246.46,   537.20  L  3246.46,   520.20  " /><path style="stroke-width: 0.85 ;&st7;  " d=" M  3188.38,   562.69  L  3196.88,   562.69  L  3198.30,   559.86  L  3201.13,   565.52  L  3203.96,   559.86  L  3206.80,   565.52  L  3209.63,   559.86  L  3212.46,   565.52  L  3213.88,   562.69  L  3222.38,   562.69  " /><path style="stroke-width: 1.42 ;&st7;  " d=" M  3135.97,   520.20  L  3135.97,   579.69  L  3305.95,   579.69  L  3305.95,   520.20  L  3135.97,   520.20  " /><text style="&st18;" transform="matrix(&st16;  3282.15  528.39 )">E</text><text style="&st18;" transform="matrix(&st16;  3239.5  528.39 )">T</text><text style="&st18;" transform="matrix(&st16;  3193.28  528.39 )">TR</text><text style="&st18;" transform="matrix(&st16;  3150.17  528.39 )">TC</text><text style="&st18;" transform="matrix(&st17;  3149.01  554.21 )" ewd:textID="132">Tail <tspan x="0 " dy="6.0">Cancel</tspan></text><text style="&st18;" transform="matrix(&st16;  3155.29  516.51 )">8</text><text style="&st18;" transform="matrix(&st16;  3197.78  516.51 )">7</text><text style="&st18;" transform="matrix(&st16;  3240.27  516.51 )">9</text><text style="&st18;" transform="matrix(&st16;  3282.77  516.51 )">6</text><g ewd:figtype="title"><text style="&st18;" transform="matrix(&st16;  3149.57  594.41 )" ewd:textID="90">Light Control Rheostat</text><text style="&st18;" transform="matrix(&st16;  3149.56  587.3 )">G3</text></g></g><g ewd:figtype="gp" ewd:figID="136" ewd:code="AB"><path style="stroke-width: 0.85 ;&st7;  " d=" M  3356.94,   697.25  L  3356.94,   701.50  " /><path style="stroke-width: 0.85 ;&st7;  " d=" M  3348.44,   701.50  L  3365.44,   701.50  " /><path style="stroke-width: 0.85 ;&st7;  " d=" M  3352.69,   704.33  L  3361.19,   704.33  " /><path style="stroke-width: 0.85 ;&st7;  " d=" M  3354.10,   707.17  L  3359.77,   707.17  " /><path style="stroke-width: 0.85 ;&st7;  " d=" M  3355.52,   710.00  L  3358.35,   710.00  " /></g><g ewd:figtype="gp" ewd:figID="137" ewd:code="AD"><path style="stroke-width: 0.85 ;&st7;  " d=" M  3399.43,   697.25  L  3399.43,   701.50  " /><path style="stroke-width: 0.85 ;&st7;  " d=" M  3390.93,   701.50  L  3407.93,   701.50  " /><path style="stroke-width: 0.85 ;&st7;  " d=" M  3395.18,   704.33  L  3403.68,   704.33  " /><path style="stroke-width: 0.85 ;&st7;  " d=" M  3396.60,   707.17  L  3402.26,   707.17  " /><path style="stroke-width: 0.85 ;&st7;  " d=" M  3398.01,   710.00  L  3400.85,   710.00  " /></g><g ewd:code="43" ewd:figID="261" ewd:comment="32,41,28,39" ewd:figtype="comment"><text style="&st18;" transform="matrix(&st16;  3192.06  148.23 )" ewd:textID="34">*43 :*32 *41 Except LHD *28 *39</text></g><g ewd:code="17" ewd:figID="195" ewd:comment="" ewd:figtype="comment"><text style="&st18;" transform="matrix(&st16;  3192.06  46.25 )" ewd:textID="15">*17 :Except 3ZR-FAE, 1AD-FTV</text></g><g ewd:code="24" ewd:figID="209" ewd:comment="" ewd:figtype="comment"><text style="&st18;" transform="matrix(&st16;  3192.06  80.24 )" ewd:textID="22">*24 :Except Korea</text></g><g ewd:code="21" ewd:figID="210" ewd:comment="" ewd:figtype="comment"><text style="&st18;" transform="matrix(&st16;  3192.06  71.74 )" ewd:textID="19">*21 :Korea</text></g><g ewd:code="30" ewd:figID="225" ewd:comment="" ewd:figtype="comment"><text style="&st18;" transform="matrix(&st16;  3192.06  97.24 )" ewd:textID="25">*30 :Except Europe, Australia, Korea</text></g><g ewd:code="39" ewd:figID="259" ewd:comment="" ewd:figtype="comment"><text style="&st18;" transform="matrix(&st16;  3192.06  114.24 )" ewd:textID="31">*39 :Halogen Type</text></g><g ewd:code="42" ewd:figID="260" ewd:comment="28,32,39,32,40" ewd:figtype="comment"><text style="&st18;" transform="matrix(&st16;  3192.06  139.73 )">*42 :LHD *28 *32 *39, *32 *40</text></g><g ewd:code="32" ewd:figID="254" ewd:comment="" ewd:figtype="comment"><text style="&st18;" transform="matrix(&st16;  3192.06  105.74 )" ewd:textID="27">*32 :w/ Washer Level Warning</text></g><g ewd:code="41" ewd:figID="170" ewd:comment="" ewd:figtype="comment"><text style="&st18;" transform="matrix(&st16;  3192.06  131.23 )" ewd:textID="33">*41 :w/o Hood Courtesy Switch</text></g><g ewd:code="10" ewd:figID="179" ewd:comment="" ewd:figtype="comment"><text style="&st18;" transform="matrix(&st16;  3192.06  29.25 )" ewd:textID="11">*10 :w/ Front Fog Light</text></g><g ewd:code="19" ewd:figID="208" ewd:comment="" ewd:figtype="comment"><text style="&st18;" transform="matrix(&st16;  3192.06  54.75 )" ewd:textID="17">*19 :Except Europe, Australia</text></g><g ewd:code="11" ewd:figID="178" ewd:comment="" ewd:figtype="comment"><text style="&st18;" transform="matrix(&st16;  3192.06  37.75 )" ewd:textID="12">*11 :w/ Rear Fog Light</text></g><g ewd:code="20" ewd:figID="207" ewd:comment="" ewd:figtype="comment"><text style="&st18;" transform="matrix(&st16;  3192.06  63.24 )" ewd:textID="18">*20 :w/ Headlight Beam Level Control (Automatic)</text></g><g ewd:code="28" ewd:figID="257" ewd:comment="" ewd:figtype="comment"><text style="&st18;" transform="matrix(&st16;  3192.06  88.74 )">*28 :3ZR-FAE</text></g><g ewd:code="40" ewd:figID="258" ewd:comment="" ewd:figtype="comment"><text style="&st18;" transform="matrix(&st16;  3192.06  122.73 )" ewd:textID="32">*40 :w/ Hood Courtesy Switch</text></g></svg>