﻿<?xml version="1.0" encoding="utf-8"?>
<!DOCTYPE svg PUBLIC "-//W3C//DTD SVG 1.0//EN" "http://www.w3.org/TR/2001/REC-SVG-20010904/DTD/svg10.dtd"[
	<!ENTITY ns_flows "http://ns.adobe.com/Flows/1.0/">
	<!ENTITY ns_svg "http://www.w3.org/2000/svg">
	<!ENTITY ns_xlink "http://www.w3.org/1999/xlink">
	<!ENTITY st0 "font-size:7px;font-family:'MS-PGothic';adobe-font-script:japanese;">
	<!ENTITY st1 "font-size:6px;font-family:'ArialMT';">
	<!-- White fill  -->
	<!ENTITY st2 "fill:#FFFFFF;stroke:#000000; stroke-width:1.41;stroke-linecap:round;stroke-linejoin:round;">
	<!-- Yellow fill  -->
	<!ENTITY st3 "fill:#FFFFCC;stroke:#FFFFCC; stroke-width:0.1;stroke-linecap:round;stroke-linejoin:round;">
	<!-- Gray fill  -->
	<!ENTITY st4 "fill:#CCCCCC;stroke:#CCCCCC; stroke-width:0.1;stroke-linecap:round;stroke-linejoin:round;">
	<!-- Light-blue fill -->
	<!ENTITY st5 "fill:#CCECF4;stroke:#000000; stroke-width:1.133;stroke-linecap:round;stroke-linejoin:round;">
	<!ENTITY st6 "fill:none;stroke-linecap:butt; stroke-linejoin:round;">
	<!ENTITY st7 "fill:none;stroke:#000000;stroke-linecap:round;stroke-linejoin:round;">
	<!ENTITY st8 "enable-background:new    ;">
	<!-- Black fill -->
	<!ENTITY st9 "fill:#000000;stroke:#000000; stroke-linecap:round;stroke-linejoin:round;">
	<!-- SRS note   -->
	<!ENTITY st10 "font-size:9px;font-family:'ArialMT';">
	<!ENTITY st11 "font-size:9px;font-family:'Svg Symbol';">
	<!ENTITY st12 "font-size:6px;font-family:'Svg Symbol';">
	<!ENTITY st13 "fill:none;stroke:#ff0000;stroke-linecap:round;stroke-linejoin:round;">
	<!-- Yellow fill  -->
	<!ENTITY st14 "fill:#FFFF00;stroke:#FFFF00; stroke-width:0.1;stroke-linecap:round;stroke-linejoin:round;">
	<!ENTITY st15 "font-size:6px;font-family:'MS-PGothic';adobe-font-script:japanese;">
	<!ENTITY st16 "1.00 0.00 0.00 1.00">
	<!ENTITY st17 "0.00 -1.00 1.00 0.00">
	<!ENTITY st18 "font-size:6px;font-family:'Arial';">
	<!ENTITY st19 "font-size:9px;font-family:'Arial';">
	<!ENTITY st20 "font-size:6px;font-family:'MS-PGothic','MS PGothic';adobe-font-script:japanese;">
	<!ENTITY st21 "font-size:7px;font-family:'MS-PGothic','MS PGothic';adobe-font-script:japanese;">
	<!ATTLIST svg
		xmlns:ewd CDATA #FIXED "http://shcl.co.jp/ewd"
		xmlns:a CDATA #FIXED "http://ns.adobe.com/AdobeSVGViewerExtensions/3.0/"
		ewd:ver CDATA #IMPLIED
	>
	<!ATTLIST a
		ewd:lineID CDATA #IMPLIED
		ewd:groupID CDATA #IMPLIED
		ewd:figtype CDATA #IMPLIED
		ewd:code CDATA #IMPLIED
		ewd:figID CDATA #IMPLIED
		ewd:pinNo CDATA #IMPLIED
		ewd:comment CDATA #IMPLIED >
	<!ATTLIST g
		ewd:lineID CDATA #IMPLIED
		ewd:groupID CDATA #IMPLIED
		ewd:figtype CDATA #IMPLIED
		ewd:code CDATA #IMPLIED
		ewd:figID CDATA #IMPLIED
		ewd:pinNo CDATA #IMPLIED
		ewd:comment CDATA #IMPLIED >
	<!ATTLIST text
		ewd:textID CDATA #IMPLIED >
	<!ATTLIST title
		ewd:textID CDATA #IMPLIED >
]>
<!-- Generator: Shintec Hozumi YS   -->
<svg onload="call_execInitLoadProc_svg('system')" style="overflow:visible;  enable-background:new 0 0 1524.618 710.000" viewBox="0 0 1524.618 710.000" height="710.000" width="1524.618" xml:space="preserve" ewd:ver="2.1.2.9" xmlns="&ns_svg;" xmlns:a="http://ns.adobe.com/AdobeSVGViewerExtensions/3.0/" xmlns:ewd="http://shcl.co.jp/ewd" xmlns:xlink="&ns_xlink;">
<path style="stroke-width: 1.42 ;&st7;  " d=" M  1359.77,   146.26  L  1351.27,   146.26  " /><text style="&st18;" transform="matrix(&st17;  1347.58  122.38 )">R</text><text style="&st18;" transform="matrix(&st17;  1347.58  249.93 )">Y</text><text style="&st18;" transform="matrix(&st17;  1262.59  181.94 )">B</text><text style="&st18;" transform="matrix(&st17;  1347.58  181.87 )">R</text><text style="&st18;" transform="matrix(&st16;  1176.09  519.33 )">(*1)</text><text style="&st18;" transform="matrix(&st16;  1179.23  508.0 )">L</text><text style="&st18;" transform="matrix(&st17;  1475.06  566.24 )">BR</text><text style="&st18;" transform="matrix(&st17;  1347.58  514.16 )">W</text><text style="&st18;" transform="matrix(&st17;  1381.57  513.66 )">G</text><text style="&st18;" transform="matrix(&st16;  1059.36  652.48 )">W</text><text style="&st18;" transform="matrix(&st16;  1008.37  652.48 )">W</text><text style="&st18;" transform="matrix(&st16;  1059.86  669.48 )">G</text><text style="&st18;" transform="matrix(&st16;  1008.87  669.48 )">G</text><text style="&st18;" transform="matrix(&st16;  1009.26  15.09 )">L</text><text style="&st18;" transform="matrix(&st16;  1006.12  26.42 )">(*1)</text><text style="&st18;" transform="matrix(&st16;  1060.25  15.09 )">L</text><text style="&st18;" transform="matrix(&st16;  1057.11  26.42 )">(*1)</text><g ewd:figtype="conn" ewd:figID="2" ewd:code="G16"><path style="stroke-width: 0.85 ;&st7;  " d=" M  1283.29,   320.48  L  1283.29,   311.98  " /><path style="stroke-width: 0.85 ;&st7;  " d=" M  1334.28,   311.98  L  1334.28,   320.48  " /><path style="stroke-width: 0.85 ;&st7;  " d=" M  1249.29,   320.48  L  1249.29,   311.98  " /><path style="stroke-width: 0.85 ;&st7;  " d=" M  1236.54,   367.22  L  1228.04,   367.22  " /><path style="stroke-width: 0.85 ;&st7;  " d=" M  1245.02,   357.56  L  1237.67,   361.81  " /><path style="stroke-width: 0.85 ;&st7;  " d=" M  1239.67,   365.28  L  1247.03,   361.03  " /><path style="stroke-width: 0.85 ;&st7;  " d=" M  1257.79,   413.97  L  1257.79,   422.46  " /><path style="stroke-width: 0.85 ;&st7;  " d=" M  1236.54,   452.21  L  1228.04,   452.21  " /><path style="stroke-width: 0.85 ;&st7;  " d=" M  1274.79,   401.22  L  1274.79,   409.72  " /><path style="stroke-width: 0.85 ;&st7;  " d=" M  1308.78,   375.72  L  1308.78,   350.23  " /><path style="stroke-width: 1.42 ;&st7;  " d=" M  1266.29,   409.72  L  1266.29,   426.71  L  1317.28,   426.71  L  1317.28,   409.72  L  1266.29,   409.72  " /><path style="stroke-width: 0.85 ;&st7;  " d=" M  1308.78,   401.22  L  1308.78,   409.72  " /><path style="stroke-width: 1.42 ;&st7;  " d=" M  1198.30,   290.74  L  1198.30,   477.71  L  1504.25,   477.71  L  1504.25,   290.74  L  1198.30,   290.74  " /><path style="stroke-width: 1.42 ;&st7;  " d=" M  1266.29,   375.72  L  1266.29,   401.22  L  1487.25,   401.22  L  1487.25,   375.72  L  1266.29,   375.72  " /><path style="stroke-width: 0.85 ;&st7;  " d=" M  1478.75,   401.22  L  1478.75,   477.71  " /><path style="stroke-width: 1.42 ;&st7;  " d=" M  1291.78,   333.23  L  1291.78,   350.23  L  1325.78,   350.23  L  1325.78,   333.23  L  1291.78,   333.23  " /><path style="stroke-width: 0.85 ;&st7;  " d=" M  1308.78,   333.23  L  1308.78,   316.23  " /><path style="stroke-width: 0.85 ;&st7;  " d=" M  1307.59,   315.23  L  1307.32,   315.70  L  1307.22,   316.23  L  1307.32,   316.77  L  1307.59,   317.24  L  1308.00,   317.58  L  1308.51,   317.77  L  1309.05,   317.77  L  1309.56,   317.58  L  1309.97,   317.24  L  1310.25,   316.77  L  1310.34,   316.23  L  1310.25,   315.70  L  1309.97,   315.23  L  1309.56,   314.88  L  1309.05,   314.70  L  1308.51,   314.70  L  1308.00,   314.88  L  1307.59,   315.23  L  1307.98,   315.94  L  1307.98,   316.52  L  1308.36,   316.97  L  1308.93,   317.07  L  1309.43,   316.78  L  1309.63,   316.23  L  1309.43,   315.69  L  1308.93,   315.40  L  1308.36,   315.50  L  1308.78,   316.23  " /><path style="stroke-width: 0.28 ;&st9;  " d=" M  1283.29,   316.23  L  1291.78,   310.57  L  1291.78,   321.90  L  1283.29,   316.23  " /><path style="stroke-width: 0.28 ;&st9;  " d=" M  1334.28,   316.23  L  1325.78,   321.90  L  1325.78,   310.57  L  1334.28,   316.23  " /><path style="stroke-width: 0.85 ;&st7;  " d=" M  1308.78,   316.23  L  1351.27,   316.23  L  1351.27,   290.74  " /><path style="stroke-width: 0.28 ;&st9;  " d=" M  1249.29,   316.23  L  1257.79,   310.57  L  1257.79,   321.90  L  1249.29,   316.23  " /><path style="stroke-width: 0.85 ;&st7;  " d=" M  1308.78,   316.23  L  1232.29,   316.23  " /><path style="stroke-width: 0.85 ;&st7;  " d=" M  1265.10,   315.23  L  1264.82,   315.70  L  1264.73,   316.23  L  1264.82,   316.77  L  1265.10,   317.24  L  1265.51,   317.58  L  1266.02,   317.77  L  1266.56,   317.77  L  1267.07,   317.58  L  1267.48,   317.24  L  1267.75,   316.77  L  1267.85,   316.23  L  1267.75,   315.70  L  1267.48,   315.23  L  1267.07,   314.88  L  1266.56,   314.70  L  1266.02,   314.70  L  1265.51,   314.88  L  1265.10,   315.23  L  1265.49,   315.94  L  1265.49,   316.52  L  1265.86,   316.97  L  1266.44,   317.07  L  1266.94,   316.78  L  1267.14,   316.23  L  1266.94,   315.69  L  1266.44,   315.40  L  1265.86,   315.50  L  1266.29,   316.23  " /><path style="stroke-width: 0.85 ;&st7;  " d=" M  1266.29,   316.23  L  1266.29,   290.74  " /><path style="stroke-width: 0.85 ;&st7;  " d=" M  1232.29,   477.71  L  1232.29,   341.73  L  1229.46,   340.31  L  1235.13,   337.48  L  1229.46,   334.65  L  1235.13,   331.81  L  1229.46,   328.98  L  1235.13,   326.15  L  1232.29,   324.73  L  1232.29,   316.23  " /><path style="stroke-width: 0.28 ;&st9;  " d=" M  1232.29,   367.22  L  1226.63,   358.73  L  1237.96,   358.73  L  1232.29,   367.22  " /><path style="stroke-width: 0.85 ;&st7;  " d=" M  1245.03,   357.56  L  1242.69,   360.60  L  1241.23,   358.06  L  1245.03,   357.56  L  1243.74,   358.30  L  1242.76,   359.58  L  1242.14,   358.51  L  1243.74,   358.30  L  1243.10,   358.67  L  1242.79,   359.07  L  1242.60,   358.74  L  1243.10,   358.67  " /><path style="stroke-width: 0.85 ;&st7;  " d=" M  1247.03,   361.03  L  1244.70,   364.07  L  1243.23,   361.53  L  1247.03,   361.03  L  1245.75,   361.77  L  1244.76,   363.05  L  1244.14,   361.98  L  1245.75,   361.77  L  1245.11,   362.14  L  1244.79,   362.54  L  1244.60,   362.21  L  1245.11,   362.14  " /><path style="stroke-width: 0.28 ;&st9;  " d=" M  1257.79,   418.22  L  1249.29,   423.88  L  1249.29,   412.55  L  1257.79,   418.22  " /><path style="stroke-width: 0.85 ;&st7;  " d=" M  1266.29,   418.22  L  1232.29,   418.22  " /><path style="stroke-width: 0.85 ;&st7;  " d=" M  1231.10,   417.21  L  1230.83,   417.68  L  1230.74,   418.22  L  1230.83,   418.75  L  1231.10,   419.22  L  1231.51,   419.56  L  1232.02,   419.75  L  1232.57,   419.75  L  1233.07,   419.56  L  1233.49,   419.22  L  1233.76,   418.75  L  1233.85,   418.22  L  1233.76,   417.68  L  1233.49,   417.21  L  1233.07,   416.87  L  1232.57,   416.68  L  1232.02,   416.68  L  1231.51,   416.87  L  1231.10,   417.21  L  1231.49,   417.92  L  1231.49,   418.51  L  1231.87,   418.95  L  1232.44,   419.05  L  1232.95,   418.76  L  1233.14,   418.22  L  1232.95,   417.67  L  1232.44,   417.38  L  1231.87,   417.48  L  1232.29,   418.22  " /><path style="stroke-width: 0.28 ;&st9;  " d=" M  1232.29,   452.21  L  1226.63,   443.71  L  1237.96,   443.71  L  1232.29,   452.21  " /><path style="stroke-width: 0.85 ;&st7;  " d=" M  1274.79,   350.23  L  1274.79,   358.73  " /><path style="stroke-width: 0.85 ;&st7;  " d=" M  1266.29,   358.73  L  1283.29,   358.73  " /><path style="stroke-width: 0.85 ;&st7;  " d=" M  1270.54,   361.56  L  1279.04,   361.56  " /><path style="stroke-width: 0.85 ;&st7;  " d=" M  1271.95,   364.39  L  1277.62,   364.39  " /><path style="stroke-width: 0.85 ;&st7;  " d=" M  1273.37,   367.22  L  1276.20,   367.22  " /><path style="stroke-width: 0.85 ;&st7;  " d=" M  1291.78,   341.73  L  1274.79,   341.73  L  1274.79,   350.23  " /><text style="&st18;" transform="matrix(&st16;  1276.72  420.18 )" ewd:textID="9">LED Driver</text><text style="&st18;" transform="matrix(&st16;  1302.48  390.44 )">CPU</text><text style="&st18;" transform="matrix(&st16;  1300.93  343.7 )">5V IC</text><text style="&st18;" transform="matrix(&st16;  1291.51  358.42 )">5V+B</text><text style="&st18;" transform="matrix(&st17;  1224.63  371.91 )" ewd:textID="5">Charge</text><text style="&st18;" transform="matrix(&st16;  1268.87  298.93 )">IG+</text><text style="&st18;" transform="matrix(&st16;  1353.86  298.93 )">B</text><text style="&st18;" transform="matrix(&st16;  1234.88  474.02 )">CHG-</text><text style="&st18;" transform="matrix(&st16;  1481.34  474.02 )">ET</text><path style="stroke-width: 0.85 ;&st7;  " d=" M  1477.56,   451.21  L  1477.29,   451.68  L  1477.19,   452.21  L  1477.29,   452.74  L  1477.56,   453.21  L  1477.97,   453.56  L  1478.48,   453.75  L  1479.02,   453.75  L  1479.53,   453.56  L  1479.94,   453.21  L  1480.22,   452.74  L  1480.31,   452.21  L  1480.22,   451.68  L  1479.94,   451.21  L  1479.53,   450.86  L  1479.02,   450.67  L  1478.48,   450.67  L  1477.97,   450.86  L  1477.56,   451.21  L  1477.95,   451.92  L  1477.95,   452.50  L  1478.33,   452.95  L  1478.90,   453.05  L  1479.40,   452.76  L  1479.60,   452.21  L  1479.40,   451.66  L  1478.90,   451.37  L  1478.33,   451.47  L  1478.75,   452.21  " /><path style="stroke-width: 1.42 ;&st7;  " d=" M  1342.78,   401.22  L  1342.78,   384.22  L  1410.76,   384.22  L  1410.76,   401.22  " /><path style="stroke-width: 0.85 ;&st7;  " d=" M  1351.27,   401.22  L  1351.27,   426.71  " /><text style="&st18;" transform="matrix(&st16;  1356.2  394.69 )" ewd:textID="4">CAN Controller</text><path style="stroke-width: 0.85 ;&st7;  " d=" M  1385.27,   401.22  L  1385.27,   426.71  " /><path style="stroke-width: 1.42 ;&st7;  " d=" M  1342.78,   426.71  L  1342.78,   443.71  L  1410.76,   443.71  L  1410.76,   426.71  L  1342.78,   426.71  " /><text style="&st18;" transform="matrix(&st16;  1365.0  437.18 )">CAN I/F</text><path style="stroke-width: 0.85 ;&st7;  " d=" M  1351.27,   443.71  L  1351.27,   477.71  " /><path style="stroke-width: 0.85 ;&st7;  " d=" M  1385.27,   443.71  L  1385.27,   477.71  " /><text style="&st18;" transform="matrix(&st16;  1387.85  474.02 )">CANH</text><text style="&st18;" transform="matrix(&st16;  1353.86  474.02 )">CANL</text><path style="stroke-width: 0.85 ;&st7;  " d=" M  1402.27,   443.71  L  1402.27,   452.21  L  1478.75,   452.21  " /><path style="stroke-width: 0.85 ;&st7;  " d=" M  1410.76,   435.21  L  1427.76,   435.21  L  1427.76,   418.22  " /><path style="stroke-width: 0.85 ;&st7;  " d=" M  1419.26,   418.22  L  1436.26,   418.22  " /><path style="stroke-width: 0.85 ;&st7;  " d=" M  1426.57,   417.21  L  1426.30,   417.68  L  1426.20,   418.22  L  1426.30,   418.75  L  1426.57,   419.22  L  1426.98,   419.56  L  1427.49,   419.75  L  1428.03,   419.75  L  1428.54,   419.56  L  1428.95,   419.22  L  1429.23,   418.75  L  1429.32,   418.22  L  1429.23,   417.68  L  1428.95,   417.21  L  1428.54,   416.87  L  1428.03,   416.68  L  1427.49,   416.68  L  1426.98,   416.87  L  1426.57,   417.21  L  1426.96,   417.92  L  1426.96,   418.51  L  1427.34,   418.95  L  1427.91,   419.05  L  1428.41,   418.76  L  1428.61,   418.22  L  1428.41,   417.67  L  1427.91,   417.38  L  1427.34,   417.48  L  1427.76,   418.22  " /><text style="&st18;" transform="matrix(&st16;  1420.42  414.52 )">5V+B</text><text style="&st18;" transform="matrix(&st16;  1373.47  484.21 )">32</text><path style="stroke-width: 1.42 ;&st7;   " d=" M  1389.80,   482.24  C  1389.80    479.73   1387.77    477.71   1385.27    477.71  " /><path style="stroke-width: 1.42 ;&st7;   " d=" M  1385.27,   477.71  C  1382.77    477.71   1380.74    479.73   1380.74    482.24  " /><path style="stroke-width: 1.42 ;&st7;   " d=" M  1380.74,   482.24  C  1380.74    484.74   1382.77    486.77   1385.27    486.77  " /><path style="stroke-width: 1.42 ;&st7;   " d=" M  1385.27,   486.77  C  1387.77    486.77   1389.80    484.74   1389.80    482.24  " /><text style="&st18;" transform="matrix(&st16;  1382.96  484.21 )">A</text><text style="&st18;" transform="matrix(&st16;  1339.48  484.21 )">31</text><text style="&st18;" transform="matrix(&st16;  1348.97  484.21 )">A</text><path style="stroke-width: 1.42 ;&st7;   " d=" M  1355.81,   482.24  C  1355.81    479.73   1353.78    477.71   1351.27    477.71  " /><path style="stroke-width: 1.42 ;&st7;   " d=" M  1351.27,   477.71  C  1348.77    477.71   1346.74    479.73   1346.74    482.24  " /><path style="stroke-width: 1.42 ;&st7;   " d=" M  1346.74,   482.24  C  1346.74    484.74   1348.77    486.77   1351.27    486.77  " /><path style="stroke-width: 1.42 ;&st7;   " d=" M  1351.27,   486.77  C  1353.78    486.77   1355.81    484.74   1355.81    482.24  " /><text style="&st18;" transform="matrix(&st16;  1220.5  484.21 )">13</text><text style="&st18;" transform="matrix(&st16;  1229.99  484.21 )">A</text><path style="stroke-width: 1.42 ;&st7;   " d=" M  1236.83,   482.24  C  1236.83    479.73   1234.80    477.71   1232.29    477.71  " /><path style="stroke-width: 1.42 ;&st7;   " d=" M  1232.29,   477.71  C  1229.79    477.71   1227.76    479.73   1227.76    482.24  " /><path style="stroke-width: 1.42 ;&st7;   " d=" M  1227.76,   482.24  C  1227.76    484.74   1229.79    486.77   1232.29    486.77  " /><path style="stroke-width: 1.42 ;&st7;   " d=" M  1232.29,   486.77  C  1234.80    486.77   1236.83    484.74   1236.83    482.24  " /><text style="&st18;" transform="matrix(&st16;  1254.49  288.17 )">39</text><text style="&st18;" transform="matrix(&st16;  1263.98  288.17 )">A</text><path style="stroke-width: 1.42 ;&st7;   " d=" M  1270.82,   286.20  C  1270.82    283.70   1268.79    281.67   1266.29    281.67  " /><path style="stroke-width: 1.42 ;&st7;   " d=" M  1266.29,   281.67  C  1263.79    281.67   1261.76    283.70   1261.76    286.20  " /><path style="stroke-width: 1.42 ;&st7;   " d=" M  1261.76,   286.20  C  1261.76    288.71   1263.79    290.74   1266.29    290.74  " /><path style="stroke-width: 1.42 ;&st7;   " d=" M  1266.29,   290.74  C  1268.79    290.74   1270.82    288.71   1270.82    286.20  " /><text style="&st18;" transform="matrix(&st16;  1339.48  288.17 )">40</text><text style="&st18;" transform="matrix(&st16;  1348.97  288.17 )">A</text><path style="stroke-width: 1.42 ;&st7;   " d=" M  1355.81,   286.20  C  1355.81    283.70   1353.78    281.67   1351.27    281.67  " /><path style="stroke-width: 1.42 ;&st7;   " d=" M  1351.27,   281.67  C  1348.77    281.67   1346.74    283.70   1346.74    286.20  " /><path style="stroke-width: 1.42 ;&st7;   " d=" M  1346.74,   286.20  C  1346.74    288.71   1348.77    290.74   1351.27    290.74  " /><path style="stroke-width: 1.42 ;&st7;   " d=" M  1351.27,   290.74  C  1353.78    290.74   1355.81    288.71   1355.81    286.20  " /><text style="&st18;" transform="matrix(&st16;  1466.96  484.21 )">21</text><path style="stroke-width: 1.42 ;&st7;   " d=" M  1483.29,   482.24  C  1483.29    479.73   1481.26    477.71   1478.75    477.71  " /><path style="stroke-width: 1.42 ;&st7;   " d=" M  1478.75,   477.71  C  1476.25    477.71   1474.22    479.73   1474.22    482.24  " /><path style="stroke-width: 1.42 ;&st7;   " d=" M  1474.22,   482.24  C  1474.22    484.74   1476.25    486.77   1478.75    486.77  " /><path style="stroke-width: 1.42 ;&st7;   " d=" M  1478.75,   486.77  C  1481.26    486.77   1483.29    484.74   1483.29    482.24  " /><text style="&st18;" transform="matrix(&st16;  1476.45  484.21 )">A</text><g ewd:figtype="title"><text style="&st18;" transform="matrix(&st17;  1511.86  480.6 )">G16(A)</text><text style="&st18;" transform="matrix(&st17;  1518.97  480.61 )" ewd:textID="6">Combination Meter Assembly</text></g></g><g ewd:figtype="rb" ewd:figID="11" ewd:code="FUSE11"><path style="stroke-width: 1.42 ;&st7;  " d=" M  1353.40,    95.27  L  1349.15,    95.27  " /><path style="stroke-width: 1.42 ;&st7;  " d=" M  1353.40,   103.77  L  1349.15,   103.77  " /><path style="stroke-width: 0.85 ;&st7;  " d=" M  1351.27,    78.27  L  1351.27,    95.27  " /><path style="stroke-width: 1.42 ;&st7;   " d=" M  1349.15,    95.27  C  1346.80     95.27   1344.90     97.17   1344.90     99.52  " /><path style="stroke-width: 1.42 ;&st7;   " d=" M  1344.90,    99.52  C  1344.90    101.87   1346.80    103.77   1349.15    103.77  " /><path style="stroke-width: 1.42 ;&st7;   " d=" M  1353.40,   103.77  C  1355.75    103.77   1357.65    101.87   1357.65     99.52  " /><path style="stroke-width: 1.42 ;&st7;   " d=" M  1357.65,    99.52  C  1357.65     97.17   1355.75     95.27   1353.40     95.27  " /><path style="stroke-width: 0.28 ;&st9;  " d=" M  1351.27,    90.37  L  1348.44,    87.54  L  1348.44,    91.79  L  1351.27,    94.62  L  1354.11,    91.79  L  1354.11,    87.54  L  1351.27,    90.37  " /><text style="&st18;" transform="matrix(&st16;  1367.7  53.34 )">10A <tspan x="0 " dy="6.0">ECU-B </tspan><tspan x="0 " dy="6.0">NO.2</tspan></text><text style="&st18;" transform="matrix(&st16;  1349.47  101.49 )">1</text><text style="&st18;" transform="matrix(&st16;  1345.09  86.47 )">2</text><text style="&st18;" transform="matrix(&st16;  1343.23  32.08 )">(BAT)</text><path style="stroke-width: 0.85 ;&st7;  " d=" M  1351.27,    69.77  L  1351.27,    78.27  " /><path style="stroke-width: 1.42 ;&st7;   " d=" M  1351.27,    47.11  C  1348.54     48.72   1347.62     52.25   1349.24     54.99  " /><path style="stroke-width: 1.42 ;&st7;   " d=" M  1349.24,    54.99  C  1349.76     55.87   1350.39     56.51   1351.27     57.03  " /><path style="stroke-width: 1.42 ;&st7;   " d=" M  1351.27,    66.94  C  1354.01     65.33   1354.92     61.80   1353.31     59.06  " /><path style="stroke-width: 1.42 ;&st7;   " d=" M  1353.31,    59.06  C  1352.79     58.18   1352.16     57.55   1351.27     57.03  " /><path style="stroke-width: 0.85 ;&st7;   " d=" M  1352.69,    45.69  C  1352.69     44.91   1352.06     44.28   1351.27     44.28  " /><path style="stroke-width: 0.85 ;&st7;   " d=" M  1351.27,    44.28  C  1350.49     44.28   1349.86     44.91   1349.86     45.69  " /><path style="stroke-width: 0.85 ;&st7;   " d=" M  1349.86,    45.69  C  1349.86     46.48   1350.49     47.11   1351.27     47.11  " /><path style="stroke-width: 0.85 ;&st7;   " d=" M  1351.27,    47.11  C  1352.06     47.11   1352.69     46.48   1352.69     45.69  " /><path style="stroke-width: 0.85 ;&st7;   " d=" M  1352.69,    68.36  C  1352.69     67.57   1352.06     66.94   1351.27     66.94  " /><path style="stroke-width: 0.85 ;&st7;   " d=" M  1351.27,    66.94  C  1350.49     66.94   1349.86     67.57   1349.86     68.36  " /><path style="stroke-width: 0.85 ;&st7;   " d=" M  1349.86,    68.36  C  1349.86     69.14   1350.49     69.77   1351.27     69.77  " /><path style="stroke-width: 0.85 ;&st7;   " d=" M  1351.27,    69.77  C  1352.06     69.77   1352.69     69.14   1352.69     68.36  " /><path style="stroke-width: 1.42 ;&st7;  " d=" M  1338.53,    35.78  L  1338.53,    78.27  L  1364.02,    78.27  L  1364.02,    35.78  L  1338.53,    35.78  " /></g><g ewd:figtype="conn" ewd:figID="12" ewd:code="G101"><path style="stroke-width: 1.42 ;&st7;  " d=" M  1342.78,   205.75  L  1359.77,   205.75  L  1359.77,   222.75  L  1342.78,   222.75  L  1342.78,   205.75  " /><path style="stroke-width: 0.85 ;&st7;  " d=" M  1351.27,   205.75  L  1351.27,   222.75  " /><text style="&st18;" transform="matrix(&st16;  1341.99  230.94 )">22</text><text style="&st18;" transform="matrix(&st16;  1341.99  202.06 )">19</text><g ewd:figtype="title"><text style="&st18;" transform="matrix(&st17;  1367.38  225.65 )">G101</text><text style="&st18;" transform="matrix(&st17;  1374.49  225.65 )" ewd:textID="13">No. 14 <tspan x="0 " dy="6.0">Junction Connector</tspan></text></g></g><g ewd:figtype="jb" ewd:figID="16" ewd:code="3"><path style="stroke-width: 0.85 ;&st7;  " d=" M  1266.29,    69.77  L  1266.29,    78.27  " /><path style="stroke-width: 1.42 ;&st7;  " d=" M  1268.41,    95.27  L  1264.16,    95.27  " /><path style="stroke-width: 1.42 ;&st7;  " d=" M  1268.41,   103.77  L  1264.16,   103.77  " /><path style="stroke-width: 0.85 ;&st7;  " d=" M  1266.29,    78.27  L  1266.29,    95.27  " /><path style="stroke-width: 1.42 ;&st7;   " d=" M  1266.29,    47.11  C  1263.55     48.72   1262.64     52.25   1264.25     54.99  " /><path style="stroke-width: 1.42 ;&st7;   " d=" M  1264.25,    54.99  C  1264.77     55.87   1265.41     56.51   1266.29     57.03  " /><path style="stroke-width: 1.42 ;&st7;   " d=" M  1266.29,    66.94  C  1269.03     65.33   1269.94     61.80   1268.33     59.06  " /><path style="stroke-width: 1.42 ;&st7;   " d=" M  1268.33,    59.06  C  1267.81     58.18   1267.17     57.55   1266.29     57.03  " /><path style="stroke-width: 0.85 ;&st7;   " d=" M  1267.70,    45.69  C  1267.70     44.91   1267.07     44.28   1266.29     44.28  " /><path style="stroke-width: 0.85 ;&st7;   " d=" M  1266.29,    44.28  C  1265.51     44.28   1264.87     44.91   1264.87     45.69  " /><path style="stroke-width: 0.85 ;&st7;   " d=" M  1264.87,    45.69  C  1264.87     46.48   1265.51     47.11   1266.29     47.11  " /><path style="stroke-width: 0.85 ;&st7;   " d=" M  1266.29,    47.11  C  1267.07     47.11   1267.70     46.48   1267.70     45.69  " /><path style="stroke-width: 0.85 ;&st7;   " d=" M  1267.70,    68.36  C  1267.70     67.57   1267.07     66.94   1266.29     66.94  " /><path style="stroke-width: 0.85 ;&st7;   " d=" M  1266.29,    66.94  C  1265.51     66.94   1264.87     67.57   1264.87     68.36  " /><path style="stroke-width: 0.85 ;&st7;   " d=" M  1264.87,    68.36  C  1264.87     69.14   1265.51     69.77   1266.29     69.77  " /><path style="stroke-width: 0.85 ;&st7;   " d=" M  1266.29,    69.77  C  1267.07     69.77   1267.70     69.14   1267.70     68.36  " /><path style="stroke-width: 1.42 ;&st7;   " d=" M  1264.16,    95.27  C  1261.82     95.27   1259.91     97.17   1259.91     99.52  " /><path style="stroke-width: 1.42 ;&st7;   " d=" M  1259.91,    99.52  C  1259.91    101.87   1261.82    103.77   1264.16    103.77  " /><path style="stroke-width: 1.42 ;&st7;   " d=" M  1268.41,   103.77  C  1270.76    103.77   1272.66    101.87   1272.66     99.52  " /><path style="stroke-width: 1.42 ;&st7;   " d=" M  1272.66,    99.52  C  1272.66     97.17   1270.76     95.27   1268.41     95.27  " /><path style="stroke-width: 0.28 ;&st9;  " d=" M  1266.29,    90.37  L  1263.46,    87.54  L  1263.46,    91.79  L  1266.29,    94.62  L  1269.12,    91.79  L  1269.12,    87.54  L  1266.29,    90.37  " /><path style="stroke-width: 1.42 ;&st7;  " d=" M  1253.54,    35.78  L  1253.54,    78.27  L  1279.04,    78.27  L  1279.04,    35.78  L  1253.54,    35.78  " /><text style="&st18;" transform="matrix(&st16;  1282.71  56.17 )">5A <tspan x="0 " dy="6.0">METER</tspan></text><text style="&st18;" transform="matrix(&st16;  1262.36  101.49 )">3D</text><text style="&st18;" transform="matrix(&st16;  1252.68  101.49 )">36</text><text style="&st18;" transform="matrix(&st16;  1260.1  86.47 )">2</text><text style="&st18;" transform="matrix(&st16;  1261.08  32.08 )">(IG)</text></g><g ewd:figtype="w2w" ewd:figID="30" ewd:code="AG1"><path style="stroke-width: 1.42 ;&st7;  " d=" M  1355.52,   155.33  L  1351.27,   151.08  L  1347.02,   155.33  " /><path style="stroke-width: 1.42 ;&st7;  " d=" M  1355.52,   151.93  L  1351.27,   147.68  L  1347.02,   151.93  " /><text style="&st18;" transform="matrix(&st16;  1335.54  143.98 )">17</text></g><g ewd:figtype="gp" ewd:figID="33" ewd:code="GA"><path style="stroke-width: 0.85 ;&st7;  " d=" M  1478.75,   697.25  L  1478.75,   701.50  " /><path style="stroke-width: 0.85 ;&st7;  " d=" M  1470.25,   701.50  L  1487.25,   701.50  " /><path style="stroke-width: 0.85 ;&st7;  " d=" M  1474.50,   704.33  L  1483.00,   704.33  " /><path style="stroke-width: 0.85 ;&st7;  " d=" M  1475.92,   707.17  L  1481.59,   707.17  " /><path style="stroke-width: 0.85 ;&st7;  " d=" M  1477.34,   710.00  L  1480.17,   710.00  " /></g><g ewd:code="1" ewd:figID="42" ewd:comment="" ewd:figtype="comment"><text style="&st18;" transform="matrix(&st16;  1101.41  547.66 )">* 1 :4WD</text></g></svg>