﻿<?xml version="1.0" encoding="utf-8"?>
<!DOCTYPE svg PUBLIC "-//W3C//DTD SVG 1.0//EN" "http://www.w3.org/TR/2001/REC-SVG-20010904/DTD/svg10.dtd"[
	<!ENTITY ns_flows "http://ns.adobe.com/Flows/1.0/">
	<!ENTITY ns_svg "http://www.w3.org/2000/svg">
	<!ENTITY ns_xlink "http://www.w3.org/1999/xlink">
	<!ENTITY st0 "font-size:7px;font-family:'MS-PGothic';adobe-font-script:japanese;">
	<!ENTITY st1 "font-size:6px;font-family:'ArialMT';">
	<!-- White fill  -->
	<!ENTITY st2 "fill:#FFFFFF;stroke:#000000; stroke-width:1.41;stroke-linecap:round;stroke-linejoin:round;">
	<!-- Yellow fill  -->
	<!ENTITY st3 "fill:#FFFFCC;stroke:#FFFFCC; stroke-width:0.1;stroke-linecap:round;stroke-linejoin:round;">
	<!-- Gray fill  -->
	<!ENTITY st4 "fill:#CCCCCC;stroke:#CCCCCC; stroke-width:0.1;stroke-linecap:round;stroke-linejoin:round;">
	<!-- Light-blue fill -->
	<!ENTITY st5 "fill:#CCECF4;stroke:#000000; stroke-width:1.133;stroke-linecap:round;stroke-linejoin:round;">
	<!ENTITY st6 "fill:none;stroke-linecap:butt; stroke-linejoin:round;">
	<!ENTITY st7 "fill:none;stroke:#000000;stroke-linecap:round;stroke-linejoin:round;">
	<!ENTITY st8 "enable-background:new    ;">
	<!-- Black fill -->
	<!ENTITY st9 "fill:#000000;stroke:#000000; stroke-linecap:round;stroke-linejoin:round;">
	<!-- SRS note   -->
	<!ENTITY st10 "font-size:9px;font-family:'ArialMT';">
	<!ENTITY st11 "font-size:9px;font-family:'Svg Symbol';">
	<!ENTITY st12 "font-size:6px;font-family:'Svg Symbol';">
	<!ENTITY st13 "fill:none;stroke:#ff0000;stroke-linecap:round;stroke-linejoin:round;">
	<!-- Yellow fill  -->
	<!ENTITY st14 "fill:#FFFF00;stroke:#FFFF00; stroke-width:0.1;stroke-linecap:round;stroke-linejoin:round;">
	<!ENTITY st15 "font-size:6px;font-family:'MS-PGothic';adobe-font-script:japanese;">
	<!ENTITY st16 "1.00 0.00 0.00 1.00">
	<!ENTITY st17 "0.00 -1.00 1.00 0.00">
	<!ENTITY st18 "font-size:6px;font-family:'Arial';">
	<!ENTITY st19 "font-size:9px;font-family:'Arial';">
	<!ENTITY st20 "font-size:6px;font-family:'MS-PGothic','MS PGothic';adobe-font-script:japanese;">
	<!ENTITY st21 "font-size:7px;font-family:'MS-PGothic','MS PGothic';adobe-font-script:japanese;">
	<!ATTLIST svg
		xmlns:ewd CDATA #FIXED "http://shcl.co.jp/ewd"
		xmlns:a CDATA #FIXED "http://ns.adobe.com/AdobeSVGViewerExtensions/3.0/"
		ewd:ver CDATA #IMPLIED
	>
	<!ATTLIST a
		ewd:lineID CDATA #IMPLIED
		ewd:groupID CDATA #IMPLIED
		ewd:figtype CDATA #IMPLIED
		ewd:code CDATA #IMPLIED
		ewd:figID CDATA #IMPLIED
		ewd:pinNo CDATA #IMPLIED
		ewd:comment CDATA #IMPLIED >
	<!ATTLIST g
		ewd:lineID CDATA #IMPLIED
		ewd:groupID CDATA #IMPLIED
		ewd:figtype CDATA #IMPLIED
		ewd:code CDATA #IMPLIED
		ewd:figID CDATA #IMPLIED
		ewd:pinNo CDATA #IMPLIED
		ewd:comment CDATA #IMPLIED >
	<!ATTLIST text
		ewd:textID CDATA #IMPLIED >
	<!ATTLIST title
		ewd:textID CDATA #IMPLIED >
]>
<!-- Generator: Shintec Hozumi YS   -->
<svg onload="call_execInitLoadProc_svg('system')" style="overflow:visible;  enable-background:new 0 0 7734.416 710.000" viewBox="0 0 7734.416 710.000" height="710.000" width="7734.416" xml:space="preserve" ewd:ver="2.1.2.9" xmlns="&ns_svg;" xmlns:a="http://ns.adobe.com/AdobeSVGViewerExtensions/3.0/" xmlns:ewd="http://shcl.co.jp/ewd" xmlns:xlink="&ns_xlink;">
<path style="stroke-width: 1.42 ;&st7;  " d=" M   679.89,   477.71  L   688.38,   477.71  " /><path style="stroke-width: 1.42 ;&st7;  " d=" M   696.88,   550.67  L   691.91,   545.69  " /><path style="stroke-width: 1.42 ;&st7;  " d=" M   684.86,   545.69  L   679.89,   550.67  " /><path style="stroke-width: 1.42 ;&st7;  " d=" M   691.91,   562.69  L   696.88,   557.72  " /><path style="stroke-width: 1.42 ;&st7;  " d=" M   679.89,   557.72  L   684.86,   562.69  " /><text style="&st18;" transform="matrix(&st17;  812.17  453.9 )">B</text><text style="&st18;" transform="matrix(&st17;  778.17  455.99 )">LG</text><text style="&st18;" transform="matrix(&st17;  684.69  519.5 )">BR</text><text style="&st18;" transform="matrix(&st16;  541.45  626.98 )">G</text><text style="&st18;" transform="matrix(&st17;  684.69  585.64 )">W-B</text><text style="&st18;" transform="matrix(&st17;  684.69  455.76 )">BR</text><text style="&st18;" transform="matrix(&st16;  710.47  25.26 )">G168</text><text style="&st18;" transform="matrix(&st16;  710.48  32.08 )" ewd:textID="15">Driving Support ECU Assembly</text><text style="&st18;" transform="matrix(&st17;  880.16  455.45 )">SB</text><text style="&st18;" transform="matrix(&st17;  846.16  454.67 )">W</text><text style="&st18;" transform="matrix(&st16;  539.63  643.98 )">LG</text><text style="&st18;" transform="matrix(&st16;  540.95  609.99 )">W</text><text style="&st18;" transform="matrix(&st16;  541.84  592.99 )">L</text><path style="stroke-width: 1.42 ;&st7;  " d=" M   790.37,   350.23  L   781.87,   350.23  " /><text style="&st18;" transform="matrix(&st17;  693.19  203.07 )">L</text><text style="&st18;" transform="matrix(&st16;  720.19  270.04 )">B</text><text style="&st18;" transform="matrix(&st17;  778.17  301.04 )">V</text><text style="&st18;" transform="matrix(&st17;  778.17  377.3 )">L</text><g ewd:figtype="conn" ewd:figID="17" ewd:code="Z6"><path style="stroke-width: 1.42 ;&st7;  " d=" M   671.39,   392.72  L   671.39,   426.71  L   900.85,   426.71  L   900.85,   392.72  L   671.39,   392.72  " /><g ewd:lineID="17"><text style="&st18;" transform="matrix(&st16;  682.2  434.91 )">1</text><text style="&st18;" transform="matrix(&st16;  680.19  423.02 )">SGND</text></g><g ewd:lineID="20"><text style="&st18;" transform="matrix(&st16;  775.69  434.91 )">2</text><text style="&st18;" transform="matrix(&st16;  774.02  423.02 )">CA2L</text></g><g ewd:lineID="21"><text style="&st18;" transform="matrix(&st16;  775.69  389.03 )">8</text><text style="&st18;" transform="matrix(&st16;  776.58  400.35 )">IGB</text></g><g ewd:lineID="23"><text style="&st18;" transform="matrix(&st16;  809.68  434.91 )">3</text><text style="&st18;" transform="matrix(&st16;  807.59  423.02 )">CA2H</text></g><g ewd:lineID="24"><text style="&st18;" transform="matrix(&st16;  843.67  434.91 )">6</text><text style="&st18;" transform="matrix(&st16;  841.78  423.02 )">CA1N</text></g><g ewd:lineID="25"><text style="&st18;" transform="matrix(&st16;  877.67  434.91 )">5</text><text style="&st18;" transform="matrix(&st16;  876.08  423.02 )">CA1P</text></g><g ewd:figtype="title"><text style="&st18;" transform="matrix(&st17;  908.74  429.61 )">Z6</text><text style="&st18;" transform="matrix(&st17;  915.57  429.62 )" ewd:textID="22">Millimeter Wave Radar <tspan x="0 " dy="6.0">Sensor Assembly</tspan></text></g></g><g ewd:figtype="conn" ewd:figID="18" ewd:code="A70"><path style="stroke-width: 0.85 ;&st7;  " d=" M   696.88,   231.25  L   696.88,   248.24  " /><path style="stroke-width: 1.42 ;&st7;  " d=" M   688.38,   231.25  L   790.37,   231.25  L   790.37,   248.24  L   688.38,   248.24  L   688.38,   231.25  " /><path style="stroke-width: 0.85 ;&st7;  " d=" M   747.87,   248.24  L   747.87,   239.75  L   781.87,   239.75  L   781.87,   248.24  " /><text style="&st18;" transform="matrix(&st16;  687.6  256.44 )">22</text><text style="&st18;" transform="matrix(&st16;  738.59  256.44 )">12</text><text style="&st18;" transform="matrix(&st16;  687.6  227.56 )">21</text><text style="&st18;" transform="matrix(&st16;  772.58  256.44 )">15</text><g ewd:figtype="title"><text style="&st18;" transform="matrix(&st17;  805.09  251.15 )" ewd:textID="24">No. 1 Junction <tspan x="0 " dy="6.0">Connector</tspan></text><text style="&st18;" transform="matrix(&st17;  798.26  251.14 )">A70</text></g></g><g ewd:figtype="jb" ewd:figID="55" ewd:code="3"><path style="stroke-width: 0.85 ;&st7;  " d=" M   696.88,   146.26  L   696.88,   154.76  " /><path style="stroke-width: 1.42 ;&st7;  " d=" M   699.01,   171.76  L   694.76,   171.76  " /><path style="stroke-width: 1.42 ;&st7;  " d=" M   699.01,   180.26  L   694.76,   180.26  " /><path style="stroke-width: 0.85 ;&st7;  " d=" M   696.88,   154.76  L   696.88,   171.76  " /><path style="stroke-width: 1.42 ;&st7;   " d=" M   696.88,   123.60  C   694.15    125.21    693.23    128.74    694.85    131.48  " /><path style="stroke-width: 1.42 ;&st7;   " d=" M   694.85,   131.48  C   695.37    132.36    696.00    132.99    696.88    133.51  " /><path style="stroke-width: 1.42 ;&st7;   " d=" M   696.88,   143.43  C   699.62    141.81    700.53    138.29    698.92    135.55  " /><path style="stroke-width: 1.42 ;&st7;   " d=" M   698.92,   135.55  C   698.40    134.67    697.77    134.03    696.88    133.51  " /><path style="stroke-width: 0.85 ;&st7;   " d=" M   698.30,   122.18  C   698.30    121.40    697.67    120.77    696.88    120.77  " /><path style="stroke-width: 0.85 ;&st7;   " d=" M   696.88,   120.77  C   696.10    120.77    695.47    121.40    695.47    122.18  " /><path style="stroke-width: 0.85 ;&st7;   " d=" M   695.47,   122.18  C   695.47    122.96    696.10    123.60    696.88    123.60  " /><path style="stroke-width: 0.85 ;&st7;   " d=" M   696.88,   123.60  C   697.67    123.60    698.30    122.96    698.30    122.18  " /><path style="stroke-width: 0.85 ;&st7;   " d=" M   698.30,   144.84  C   698.30    144.06    697.67    143.43    696.88    143.43  " /><path style="stroke-width: 0.85 ;&st7;   " d=" M   696.88,   143.43  C   696.10    143.43    695.47    144.06    695.47    144.84  " /><path style="stroke-width: 0.85 ;&st7;   " d=" M   695.47,   144.84  C   695.47    145.63    696.10    146.26    696.88    146.26  " /><path style="stroke-width: 0.85 ;&st7;   " d=" M   696.88,   146.26  C   697.67    146.26    698.30    145.63    698.30    144.84  " /><path style="stroke-width: 1.42 ;&st7;   " d=" M   694.76,   171.76  C   692.41    171.76    690.51    173.66    690.51    176.01  " /><path style="stroke-width: 1.42 ;&st7;   " d=" M   690.51,   176.01  C   690.51    178.35    692.41    180.26    694.76    180.26  " /><path style="stroke-width: 1.42 ;&st7;   " d=" M   699.01,   180.26  C   701.35    180.26    703.26    178.35    703.26    176.01  " /><path style="stroke-width: 1.42 ;&st7;   " d=" M   703.26,   176.01  C   703.26    173.66    701.35    171.76    699.01    171.76  " /><path style="stroke-width: 0.28 ;&st9;  " d=" M   696.88,   166.86  L   694.05,   164.03  L   694.05,   168.28  L   696.88,   171.11  L   699.72,   168.28  L   699.72,   164.03  L   696.88,   166.86  " /><path style="stroke-width: 1.42 ;&st7;  " d=" M   684.14,   112.27  L   684.14,   154.76  L   709.63,   154.76  L   709.63,   112.27  L   684.14,   112.27  " /><text style="&st18;" transform="matrix(&st16;  691.67  108.57 )">(IG)</text><text style="&st18;" transform="matrix(&st16;  690.7  162.95 )">2</text><text style="&st18;" transform="matrix(&st16;  683.27  177.98 )">25</text><text style="&st18;" transform="matrix(&st16;  693.14  177.98 )">3B</text><text style="&st18;" transform="matrix(&st16;  713.31  129.83 )">7.5A <tspan x="0 " dy="6.0">ECU-IG </tspan><tspan x="0 " dy="6.0">NO.3</tspan></text></g><g ewd:figtype="w2w" ewd:figID="60" ewd:code="AZ1"><path style="stroke-width: 1.42 ;&st7;  " d=" M   692.63,   472.04  L   688.38,   476.29  L   684.14,   472.04  " /><path style="stroke-width: 1.42 ;&st7;  " d=" M   684.14,   468.64  L   688.38,   472.89  L   692.63,   468.64  " /><text style="&st18;" transform="matrix(&st16;  675.75  483.92 )">9</text></g><g ewd:figtype="w2w" ewd:figID="61" ewd:code="AZ1"><path style="stroke-width: 1.42 ;&st7;  " d=" M   786.12,   359.29  L   781.87,   355.04  L   777.62,   359.29  " /><path style="stroke-width: 1.42 ;&st7;  " d=" M   786.12,   355.89  L   781.87,   351.64  L   777.62,   355.89  " /><text style="&st18;" transform="matrix(&st16;  769.24  347.95 )">3</text></g><g ewd:figtype="gp" ewd:figID="91" ewd:code="AA"><path style="stroke-width: 0.85 ;&st7;  " d=" M   686.97,   710.00  L   689.80,   710.00  " /><path style="stroke-width: 0.85 ;&st7;  " d=" M   685.55,   707.17  L   691.22,   707.17  " /><path style="stroke-width: 0.85 ;&st7;  " d=" M   684.14,   704.33  L   692.63,   704.33  " /><path style="stroke-width: 0.85 ;&st7;  " d=" M   679.89,   701.50  L   696.88,   701.50  " /><path style="stroke-width: 0.85 ;&st7;  " d=" M   688.38,   697.25  L   688.38,   701.50  " /></g></svg>