﻿<?xml version="1.0" encoding="utf-8"?>
<!DOCTYPE svg PUBLIC "-//W3C//DTD SVG 1.0//EN" "http://www.w3.org/TR/2001/REC-SVG-20010904/DTD/svg10.dtd"[
	<!ENTITY ns_flows "http://ns.adobe.com/Flows/1.0/">
	<!ENTITY ns_svg "http://www.w3.org/2000/svg">
	<!ENTITY ns_xlink "http://www.w3.org/1999/xlink">
	<!ENTITY st0 "font-size:7px;font-family:'MS-PGothic';adobe-font-script:japanese;">
	<!ENTITY st1 "font-size:6px;font-family:'ArialMT';">
	<!-- White fill  -->
	<!ENTITY st2 "fill:#FFFFFF;stroke:#000000; stroke-width:1.41;stroke-linecap:round;stroke-linejoin:round;">
	<!-- Yellow fill  -->
	<!ENTITY st3 "fill:#FFFFCC;stroke:#FFFFCC; stroke-width:0.1;stroke-linecap:round;stroke-linejoin:round;">
	<!-- Gray fill  -->
	<!ENTITY st4 "fill:#CCCCCC;stroke:#CCCCCC; stroke-width:0.1;stroke-linecap:round;stroke-linejoin:round;">
	<!-- Light-blue fill -->
	<!ENTITY st5 "fill:#CCECF4;stroke:#000000; stroke-width:1.133;stroke-linecap:round;stroke-linejoin:round;">
	<!ENTITY st6 "fill:none;stroke-linecap:butt; stroke-linejoin:round;">
	<!ENTITY st7 "fill:none;stroke:#000000;stroke-linecap:round;stroke-linejoin:round;">
	<!ENTITY st8 "enable-background:new    ;">
	<!-- Black fill -->
	<!ENTITY st9 "fill:#000000;stroke:#000000; stroke-linecap:round;stroke-linejoin:round;">
	<!-- SRS note   -->
	<!ENTITY st10 "font-size:9px;font-family:'ArialMT';">
	<!ENTITY st11 "font-size:9px;font-family:'Svg Symbol';">
	<!ENTITY st12 "font-size:6px;font-family:'Svg Symbol';">
	<!ENTITY st13 "fill:none;stroke:#ff0000;stroke-linecap:round;stroke-linejoin:round;">
	<!-- Yellow fill  -->
	<!ENTITY st14 "fill:#FFFF00;stroke:#FFFF00; stroke-width:0.1;stroke-linecap:round;stroke-linejoin:round;">
	<!ENTITY st15 "font-size:6px;font-family:'MS-PGothic';adobe-font-script:japanese;">
	<!ENTITY st16 "1.00 0.00 0.00 1.00">
	<!ENTITY st17 "0.00 -1.00 1.00 0.00">
	<!ENTITY st18 "font-size:6px;font-family:'Arial';">
	<!ENTITY st19 "font-size:9px;font-family:'Arial';">
	<!ENTITY st20 "font-size:6px;font-family:'MS-PGothic','MS PGothic';adobe-font-script:japanese;">
	<!ENTITY st21 "font-size:7px;font-family:'MS-PGothic','MS PGothic';adobe-font-script:japanese;">
	<!ATTLIST svg
		xmlns:ewd CDATA #FIXED "http://shcl.co.jp/ewd"
		xmlns:a CDATA #FIXED "http://ns.adobe.com/AdobeSVGViewerExtensions/3.0/"
		ewd:ver CDATA #IMPLIED
	>
	<!ATTLIST a
		ewd:lineID CDATA #IMPLIED
		ewd:groupID CDATA #IMPLIED
		ewd:figtype CDATA #IMPLIED
		ewd:code CDATA #IMPLIED
		ewd:figID CDATA #IMPLIED
		ewd:pinNo CDATA #IMPLIED
		ewd:comment CDATA #IMPLIED >
	<!ATTLIST g
		ewd:lineID CDATA #IMPLIED
		ewd:groupID CDATA #IMPLIED
		ewd:figtype CDATA #IMPLIED
		ewd:code CDATA #IMPLIED
		ewd:figID CDATA #IMPLIED
		ewd:pinNo CDATA #IMPLIED
		ewd:comment CDATA #IMPLIED >
	<!ATTLIST text
		ewd:textID CDATA #IMPLIED >
	<!ATTLIST title
		ewd:textID CDATA #IMPLIED >
]>
<!-- Generator: Shintec Hozumi YS   -->
<svg onload="call_execInitLoadProc_svg('system')" style="overflow:visible;  enable-background:new 0 0 16445.809 710.000" viewBox="0 0 16445.809 710.000" height="710.000" width="16445.809" xml:space="preserve" ewd:ver="2.1.2.9" xmlns="&ns_svg;" xmlns:a="http://ns.adobe.com/AdobeSVGViewerExtensions/3.0/" xmlns:ewd="http://shcl.co.jp/ewd" xmlns:xlink="&ns_xlink;">
<path style="stroke-width: 1.42 ;&st7;  " d=" M 10980.17,   163.26  L 10971.67,   163.26  " /><text style="&st18;" transform="matrix(&st17;  10953.81  290.09 )">(RHD)</text><text style="&st18;" transform="matrix(&st17;  10942.48  284.04 )">V</text><text style="&st18;" transform="matrix(&st17;  10967.97  284.04 )">V</text><text style="&st18;" transform="matrix(&st17;  10967.97  148.07 )">V</text><text style="&st18;" transform="matrix(&st17;  10979.3  290.05 )">(LHD)</text><path style="stroke-width: 1.42 ;&st7;  " d=" M 10708.21,   137.76  L 10699.71,   137.76  " /><text style="&st18;" transform="matrix(&st17;  10696.02  124.59 )">GR</text><text style="&st18;" transform="matrix(&st17;  10738.51  122.73 )">G</text><text style="&st18;" transform="matrix(&st17;  10696.02  184.08 )">GR</text><text style="&st18;" transform="matrix(&st17;  10738.51  199.21 )">G</text><text style="&st18;" transform="matrix(&st17;  10696.02  284.7 )">W</text><text style="&st18;" transform="matrix(&st17;  10738.51  283.93 )">B</text><text style="&st18;" transform="matrix(&st17;  10696.02  365.44 )">W</text><text style="&st18;" transform="matrix(&st17;  10738.51  364.78 )">V</text><text style="&st18;" transform="matrix(&st17;  10611.03  454.67 )">W</text><text style="&st18;" transform="matrix(&st17;  10653.52  454.17 )">G</text><text style="&st18;" transform="matrix(&st17;  10696.02  454.67 )">W</text><text style="&st18;" transform="matrix(&st17;  10738.51  455.99 )">LG</text><text style="&st18;" transform="matrix(&st17;  10707.35  464.06 )">(LHD *6)</text><text style="&st18;" transform="matrix(&st17;  10749.84  464.06 )">(LHD *6)</text><text style="&st18;" transform="matrix(&st16;  10543.33  33.47 )">A61(A),B76(E)</text><text style="&st18;" transform="matrix(&st16;  10543.33  40.58 )">ECM</text><text style="&st18;" transform="matrix(&st16;  10903.67  516.5 )">P(*13)</text><text style="&st18;" transform="matrix(&st16;  10852.68  516.5 )">P(*13)</text><text style="&st18;" transform="matrix(&st16;  10854.23  533.5 )">P(*6)</text><text style="&st18;" transform="matrix(&st16;  10905.22  533.5 )">P(*6)</text><text style="&st18;" transform="matrix(&st16;  10909.72  550.5 )">G</text><text style="&st18;" transform="matrix(&st16;  10858.73  550.5 )">G</text><text style="&st18;" transform="matrix(&st16;  10909.21  567.49 )">W</text><text style="&st18;" transform="matrix(&st16;  10858.22  567.49 )">W</text><text style="&st18;" transform="matrix(&st16;  10909.87  652.48 )">V</text><text style="&st18;" transform="matrix(&st16;  10858.88  652.48 )">V</text><text style="&st18;" transform="matrix(&st16;  10903.59  686.47 )">L(*10)</text><text style="&st18;" transform="matrix(&st16;  10852.6  686.47 )">L(*10)</text><text style="&st18;" transform="matrix(&st17;  10568.54  366.76 )">LG</text><text style="&st18;" transform="matrix(&st17;  10526.04  365.44 )">W</text><text style="&st18;" transform="matrix(&st17;  10579.87  374.86 )">(RHD *6)</text><text style="&st18;" transform="matrix(&st17;  10537.38  374.86 )">(RHD *6)</text><text style="&st18;" transform="matrix(&st16;  10897.12  499.5 )">W(LHD *6)</text><text style="&st18;" transform="matrix(&st16;  10895.76  584.49 )">LG(RHD *6)</text><text style="&st18;" transform="matrix(&st16;  10844.81  482.51 )">LG(LHD *6)</text><text style="&st18;" transform="matrix(&st16;  10846.12  499.5 )">W(LHD *6)</text><text style="&st18;" transform="matrix(&st16;  10844.77  584.49 )">LG(RHD *6)</text><text style="&st18;" transform="matrix(&st16;  10846.09  601.49 )">W(RHD *6)</text><text style="&st18;" transform="matrix(&st16;  10895.8  482.51 )">LG(LHD *6)</text><text style="&st18;" transform="matrix(&st16;  10897.08  601.49 )">W(RHD *6)</text><g ewd:figtype="conn" ewd:figID="10" ewd:code="G14"><path style="stroke-width: 1.42 ;&st7;  " d=" M 10682.71,   214.25  L 10682.71,   256.74  L 10759.20,   256.74  L 10759.20,   214.25  L 10682.71,   214.25  " /><g ewd:lineID="275"><text style="&st18;" transform="matrix(&st16;  10690.43  264.94 )">14</text><text style="&st18;" transform="matrix(&st16;  10691.36  253.05 )">CANL</text></g><g ewd:lineID="276"><text style="&st18;" transform="matrix(&st16;  10693.53  210.56 )">9</text><text style="&st18;" transform="matrix(&st16;  10693.3  221.88 )">TAC</text></g><g ewd:lineID="280"><text style="&st18;" transform="matrix(&st16;  10736.02  264.94 )">6</text><text style="&st18;" transform="matrix(&st16;  10733.43  253.05 )">CANH</text></g><g ewd:lineID="281"><text style="&st18;" transform="matrix(&st16;  10732.92  210.56 )">13</text><text style="&st18;" transform="matrix(&st16;  10737.85  221.88 )">TC</text></g><g ewd:figtype="title"><text style="&st18;" transform="matrix(&st17;  10773.92  259.65 )">DLC3</text><text style="&st18;" transform="matrix(&st17;  10766.81  259.64 )">G14</text></g></g><g ewd:figtype="conn" ewd:figID="26" ewd:code="A61,B76"><g ewd:lineID="277"><text style="&st18;" transform="matrix(&st16;  10687.92  101.77 )">13</text><path style="stroke-width: 1.42 ;&st7;   " d=" M 10704.24,    99.80  C 10704.24     97.30  10702.22     95.27  10699.71     95.27  " /><path style="stroke-width: 1.42 ;&st7;   " d=" M 10699.71,    95.27  C 10697.21     95.27  10695.18     97.30  10695.18     99.80  " /><path style="stroke-width: 1.42 ;&st7;   " d=" M 10695.18,    99.80  C 10695.18    102.31  10697.21    104.33  10699.71    104.33  " /><path style="stroke-width: 1.42 ;&st7;   " d=" M 10699.71,   104.33  C 10702.22    104.33  10704.24    102.31  10704.24     99.80  " /><text style="&st18;" transform="matrix(&st16;  10697.41  101.77 )">A</text><text style="&st18;" transform="matrix(&st16;  10691.05  91.57 )">TACH</text></g><g ewd:lineID="282"><text style="&st18;" transform="matrix(&st16;  10730.41  101.77 )">26</text><path style="stroke-width: 1.42 ;&st7;   " d=" M 10746.74,    99.80  C 10746.74     97.30  10744.71     95.27  10742.21     95.27  " /><path style="stroke-width: 1.42 ;&st7;   " d=" M 10742.21,    95.27  C 10739.70     95.27  10737.67     97.30  10737.67     99.80  " /><path style="stroke-width: 1.42 ;&st7;   " d=" M 10737.67,    99.80  C 10737.67    102.31  10739.70    104.33  10742.21    104.33  " /><path style="stroke-width: 1.42 ;&st7;   " d=" M 10742.21,   104.33  C 10744.71    104.33  10746.74    102.31  10746.74     99.80  " /><text style="&st18;" transform="matrix(&st16;  10739.9  101.77 )">A</text><text style="&st18;" transform="matrix(&st16;  10737.85  91.57 )">TC</text></g><g ewd:lineID="285"><text style="&st18;" transform="matrix(&st16;  10959.87  101.77 )">14</text><text style="&st18;" transform="matrix(&st16;  10969.36  101.77 )">A</text><path style="stroke-width: 1.42 ;&st7;   " d=" M 10976.20,    99.80  C 10976.20     97.30  10974.17     95.27  10971.67     95.27  " /><path style="stroke-width: 1.42 ;&st7;   " d=" M 10971.67,    95.27  C 10969.16     95.27  10967.13     97.30  10967.13     99.80  " /><path style="stroke-width: 1.42 ;&st7;   " d=" M 10967.13,    99.80  C 10967.13    102.31  10969.16    104.33  10971.67    104.33  " /><path style="stroke-width: 1.42 ;&st7;   " d=" M 10971.67,   104.33  C 10974.17    104.33  10976.20    102.31  10976.20     99.80  " /><text style="&st18;" transform="matrix(&st16;  10965.99  91.57 )">SPD</text></g></g><g ewd:figtype="conn" ewd:figID="74" ewd:code="G128,G129,G154"><path style="stroke-width: 1.42 ;&st7;  " d=" M 10606.22,   392.72  L 10606.22,   418.22  L 10750.70,   418.22  L 10750.70,   392.72  L 10606.22,   392.72  " /><path style="stroke-width: 0.85 ;&st7;  " d=" M 10699.71,   392.72  L 10699.71,   418.22  " /><path style="stroke-width: 0.85 ;&st7;  " d=" M 10742.20,   418.22  L 10742.20,   392.72  " /><path style="stroke-width: 0.85 ;&st7;  " d=" M 10614.72,   418.22  L 10614.72,   401.22  L 10699.71,   401.22  " /><path style="stroke-width: 0.85 ;&st7;  " d=" M 10657.21,   418.22  L 10657.21,   409.72  L 10742.20,   409.72  " /><path style="stroke-width: 0.85 ;&st7;  " d=" M 10698.52,   400.22  L 10698.24,   400.69  L 10698.15,   401.22  L 10698.24,   401.75  L 10698.52,   402.22  L 10698.93,   402.57  L 10699.44,   402.75  L 10699.98,   402.75  L 10700.49,   402.57  L 10700.90,   402.22  L 10701.17,   401.75  L 10701.27,   401.22  L 10701.17,   400.69  L 10700.90,   400.22  L 10700.49,   399.87  L 10699.98,   399.68  L 10699.44,   399.68  L 10698.93,   399.87  L 10698.52,   400.22  L 10698.91,   400.93  L 10698.91,   401.51  L 10699.28,   401.95  L 10699.86,   402.05  L 10700.36,   401.77  L 10700.56,   401.22  L 10700.36,   400.67  L 10699.86,   400.38  L 10699.28,   400.48  L 10699.71,   401.22  " /><path style="stroke-width: 0.85 ;&st7;  " d=" M 10741.01,   408.71  L 10740.74,   409.18  L 10740.64,   409.72  L 10740.74,   410.25  L 10741.01,   410.72  L 10741.42,   411.07  L 10741.93,   411.25  L 10742.47,   411.25  L 10742.98,   411.07  L 10743.39,   410.72  L 10743.67,   410.25  L 10743.76,   409.72  L 10743.67,   409.18  L 10743.39,   408.71  L 10742.98,   408.37  L 10742.47,   408.18  L 10741.93,   408.18  L 10741.42,   408.37  L 10741.01,   408.71  L 10741.40,   409.43  L 10741.40,   410.01  L 10741.78,   410.45  L 10742.35,   410.55  L 10742.85,   410.26  L 10743.05,   409.72  L 10742.85,   409.17  L 10742.35,   408.88  L 10741.78,   408.98  L 10742.20,   409.72  " /><text style="&st18;" transform="matrix(&st16;  10606.03  424.72 )">2</text><path style="stroke-width: 1.42 ;&st7;   " d=" M 10619.26,   422.75  C 10619.26    420.24  10617.23    418.22  10614.73    418.22  " /><path style="stroke-width: 1.42 ;&st7;   " d=" M 10614.73,   418.22  C 10612.22    418.22  10610.19    420.24  10610.19    422.75  " /><path style="stroke-width: 1.42 ;&st7;   " d=" M 10610.19,   422.75  C 10610.19    425.25  10612.22    427.28  10614.73    427.28  " /><path style="stroke-width: 1.42 ;&st7;   " d=" M 10614.73,   427.28  C 10617.23    427.28  10619.26    425.25  10619.26    422.75  " /><text style="&st18;" transform="matrix(&st16;  10612.42  424.72 )">A</text><text style="&st18;" transform="matrix(&st16;  10648.53  424.72 )">1</text><path style="stroke-width: 1.42 ;&st7;   " d=" M 10661.75,   422.75  C 10661.75    420.24  10659.72    418.22  10657.22    418.22  " /><path style="stroke-width: 1.42 ;&st7;   " d=" M 10657.22,   418.22  C 10654.72    418.22  10652.69    420.24  10652.69    422.75  " /><path style="stroke-width: 1.42 ;&st7;   " d=" M 10652.69,   422.75  C 10652.69    425.25  10654.72    427.28  10657.22    427.28  " /><path style="stroke-width: 1.42 ;&st7;   " d=" M 10657.22,   427.28  C 10659.72    427.28  10661.75    425.25  10661.75    422.75  " /><text style="&st18;" transform="matrix(&st16;  10654.91  424.72 )">A</text><text style="&st18;" transform="matrix(&st16;  10691.02  424.72 )">2</text><path style="stroke-width: 1.42 ;&st7;   " d=" M 10704.24,   422.75  C 10704.24    420.24  10702.22    418.22  10699.71    418.22  " /><path style="stroke-width: 1.42 ;&st7;   " d=" M 10699.71,   418.22  C 10697.21    418.22  10695.18    420.24  10695.18    422.75  " /><path style="stroke-width: 1.42 ;&st7;   " d=" M 10695.18,   422.75  C 10695.18    425.25  10697.21    427.28  10699.71    427.28  " /><path style="stroke-width: 1.42 ;&st7;   " d=" M 10699.71,   427.28  C 10702.22    427.28  10704.24    425.25  10704.24    422.75  " /><text style="&st18;" transform="matrix(&st16;  10697.21  424.72 )">H</text><text style="&st18;" transform="matrix(&st16;  10691.02  390.16 )">2</text><path style="stroke-width: 1.42 ;&st7;   " d=" M 10704.24,   388.19  C 10704.24    385.68  10702.22    383.65  10699.71    383.65  " /><path style="stroke-width: 1.42 ;&st7;   " d=" M 10699.71,   383.65  C 10697.21    383.65  10695.18    385.68  10695.18    388.19  " /><path style="stroke-width: 1.42 ;&st7;   " d=" M 10695.18,   388.19  C 10695.18    390.69  10697.21    392.72  10699.71    392.72  " /><path style="stroke-width: 1.42 ;&st7;   " d=" M 10699.71,   392.72  C 10702.22    392.72  10704.24    390.69  10704.24    388.19  " /><text style="&st18;" transform="matrix(&st16;  10697.52  390.16 )">B</text><text style="&st18;" transform="matrix(&st16;  10733.51  424.72 )">1</text><text style="&st18;" transform="matrix(&st16;  10739.71  424.72 )">H</text><path style="stroke-width: 1.42 ;&st7;   " d=" M 10746.74,   422.75  C 10746.74    420.24  10744.71    418.22  10742.21    418.22  " /><path style="stroke-width: 1.42 ;&st7;   " d=" M 10742.21,   418.22  C 10739.70    418.22  10737.67    420.24  10737.67    422.75  " /><path style="stroke-width: 1.42 ;&st7;   " d=" M 10737.67,   422.75  C 10737.67    425.25  10739.70    427.28  10742.21    427.28  " /><path style="stroke-width: 1.42 ;&st7;   " d=" M 10742.21,   427.28  C 10744.71    427.28  10746.74    425.25  10746.74    422.75  " /><text style="&st18;" transform="matrix(&st16;  10733.51  390.16 )">1</text><path style="stroke-width: 1.42 ;&st7;   " d=" M 10746.74,   388.19  C 10746.74    385.68  10744.71    383.65  10742.21    383.65  " /><path style="stroke-width: 1.42 ;&st7;   " d=" M 10742.21,   383.65  C 10739.70    383.65  10737.67    385.68  10737.67    388.19  " /><path style="stroke-width: 1.42 ;&st7;   " d=" M 10737.67,   388.19  C 10737.67    390.69  10739.70    392.72  10742.21    392.72  " /><path style="stroke-width: 1.42 ;&st7;   " d=" M 10742.21,   392.72  C 10744.71    392.72  10746.74    390.69  10746.74    388.19  " /><text style="&st18;" transform="matrix(&st16;  10740.02  390.16 )">B</text><g ewd:figtype="title"><text style="&st18;" transform="matrix(&st17;  10771.37  421.12 )" ewd:textID="74">No. 2 CAN Junction Connector</text><text style="&st18;" transform="matrix(&st17;  10758.33  421.12 )">G128(A),G129(B), <tspan x="0 " dy="6.0">G154(H)</tspan></text></g></g><g ewd:figtype="jb" ewd:figID="136" ewd:code="3"><path style="stroke-width: 1.42 ;&st7;  " d=" M 10744.33,   129.26  L 10740.08,   129.26  " /><path style="stroke-width: 1.42 ;&st7;  " d=" M 10744.33,   137.76  L 10740.08,   137.76  " /><path style="stroke-width: 1.42 ;&st7;  " d=" M 10744.33,   171.76  L 10740.08,   171.76  " /><path style="stroke-width: 1.42 ;&st7;  " d=" M 10744.33,   180.26  L 10740.08,   180.26  " /><path style="stroke-width: 1.42 ;&st7;   " d=" M 10740.08,   129.26  C 10737.73    129.26  10735.83    131.17  10735.83    133.51  " /><path style="stroke-width: 1.42 ;&st7;   " d=" M 10735.83,   133.51  C 10735.83    135.86  10737.73    137.76  10740.08    137.76  " /><path style="stroke-width: 1.42 ;&st7;   " d=" M 10744.33,   137.76  C 10746.68    137.76  10748.58    135.86  10748.58    133.51  " /><path style="stroke-width: 1.42 ;&st7;   " d=" M 10748.58,   133.51  C 10748.58    131.17  10746.68    129.26  10744.33    129.26  " /><path style="stroke-width: 1.42 ;&st7;   " d=" M 10740.08,   171.76  C 10737.73    171.76  10735.83    173.66  10735.83    176.01  " /><path style="stroke-width: 1.42 ;&st7;   " d=" M 10735.83,   176.01  C 10735.83    178.35  10737.73    180.26  10740.08    180.26  " /><path style="stroke-width: 1.42 ;&st7;   " d=" M 10744.33,   180.26  C 10746.68    180.26  10748.58    178.35  10748.58    176.01  " /><path style="stroke-width: 1.42 ;&st7;   " d=" M 10748.58,   176.01  C 10748.58    173.66  10746.68    171.76  10744.33    171.76  " /><path style="stroke-width: 0.28 ;&st9;  " d=" M 10742.20,   142.66  L 10745.03,   145.49  L 10745.03,   141.24  L 10742.20,   138.41  L 10739.37,   141.24  L 10739.37,   145.49  L 10742.20,   142.66  " /><path style="stroke-width: 0.28 ;&st9;  " d=" M 10742.20,   166.86  L 10739.37,   164.03  L 10739.37,   168.28  L 10742.20,   171.11  L 10745.03,   168.28  L 10745.03,   164.03  L 10742.20,   166.86  " /><path style="stroke-width: 0.85 ;&st7;  " d=" M 10742.20,   171.76  L 10742.20,   137.76  " /><text style="&st18;" transform="matrix(&st16;  10738.47  135.48 )">3B</text><text style="&st18;" transform="matrix(&st16;  10728.6  135.48 )">15</text><text style="&st18;" transform="matrix(&st16;  10738.23  177.98 )">3C</text><text style="&st18;" transform="matrix(&st16;  10728.6  177.98 )">16</text></g><g ewd:figtype="w2w" ewd:figID="192" ewd:code="AG1"><path style="stroke-width: 1.42 ;&st7;  " d=" M 10703.96,   146.83  L 10699.71,   142.58  L 10695.46,   146.83  " /><path style="stroke-width: 1.42 ;&st7;  " d=" M 10703.96,   143.43  L 10699.71,   139.18  L 10695.46,   143.43  " /><text style="&st18;" transform="matrix(&st16;  10683.98  135.48 )">16</text></g><g ewd:figtype="w2w" ewd:figID="193" ewd:code="AG1"><path style="stroke-width: 1.42 ;&st7;  " d=" M 10975.91,   168.92  L 10971.66,   164.67  L 10967.41,   168.92  " /><path style="stroke-width: 1.42 ;&st7;  " d=" M 10975.91,   172.32  L 10971.66,   168.07  L 10967.41,   172.32  " /><text style="&st18;" transform="matrix(&st16;  10959.04  160.98 )">6</text></g></svg>