﻿<?xml version="1.0" encoding="utf-8"?>
<!DOCTYPE svg PUBLIC "-//W3C//DTD SVG 1.0//EN" "http://www.w3.org/TR/2001/REC-SVG-20010904/DTD/svg10.dtd"[
	<!ENTITY ns_flows "http://ns.adobe.com/Flows/1.0/">
	<!ENTITY ns_svg "http://www.w3.org/2000/svg">
	<!ENTITY ns_xlink "http://www.w3.org/1999/xlink">
	<!ENTITY st0 "font-size:7px;font-family:'MS-PGothic';adobe-font-script:japanese;">
	<!ENTITY st1 "font-size:6px;font-family:'ArialMT';">
	<!-- White fill  -->
	<!ENTITY st2 "fill:#FFFFFF;stroke:#000000; stroke-width:1.41;stroke-linecap:round;stroke-linejoin:round;">
	<!-- Yellow fill  -->
	<!ENTITY st3 "fill:#FFFFCC;stroke:#FFFFCC; stroke-width:0.1;stroke-linecap:round;stroke-linejoin:round;">
	<!-- Gray fill  -->
	<!ENTITY st4 "fill:#CCCCCC;stroke:#CCCCCC; stroke-width:0.1;stroke-linecap:round;stroke-linejoin:round;">
	<!-- Light-blue fill -->
	<!ENTITY st5 "fill:#CCECF4;stroke:#000000; stroke-width:1.133;stroke-linecap:round;stroke-linejoin:round;">
	<!ENTITY st6 "fill:none;stroke-linecap:butt; stroke-linejoin:round;">
	<!ENTITY st7 "fill:none;stroke:#000000;stroke-linecap:round;stroke-linejoin:round;">
	<!ENTITY st8 "enable-background:new    ;">
	<!-- Black fill -->
	<!ENTITY st9 "fill:#000000;stroke:#000000; stroke-linecap:round;stroke-linejoin:round;">
	<!-- SRS note   -->
	<!ENTITY st10 "font-size:9px;font-family:'ArialMT';">
	<!ENTITY st11 "font-size:9px;font-family:'Svg Symbol';">
	<!ENTITY st12 "font-size:6px;font-family:'Svg Symbol';">
	<!ENTITY st13 "fill:none;stroke:#ff0000;stroke-linecap:round;stroke-linejoin:round;">
	<!-- Yellow fill  -->
	<!ENTITY st14 "fill:#FFFF00;stroke:#FFFF00; stroke-width:0.1;stroke-linecap:round;stroke-linejoin:round;">
	<!ENTITY st15 "font-size:6px;font-family:'MS-PGothic';adobe-font-script:japanese;">
	<!ENTITY st16 "1.00 0.00 0.00 1.00">
	<!ENTITY st17 "0.00 -1.00 1.00 0.00">
	<!ENTITY st18 "font-size:6px;font-family:'Arial';">
	<!ENTITY st19 "font-size:9px;font-family:'Arial';">
	<!ENTITY st20 "font-size:6px;font-family:'MS-PGothic','MS PGothic';adobe-font-script:japanese;">
	<!ENTITY st21 "font-size:7px;font-family:'MS-PGothic','MS PGothic';adobe-font-script:japanese;">
	<!ATTLIST svg
		xmlns:ewd CDATA #FIXED "http://shcl.co.jp/ewd"
		xmlns:a CDATA #FIXED "http://ns.adobe.com/AdobeSVGViewerExtensions/3.0/"
		ewd:ver CDATA #IMPLIED
	>
	<!ATTLIST a
		ewd:lineID CDATA #IMPLIED
		ewd:groupID CDATA #IMPLIED
		ewd:figtype CDATA #IMPLIED
		ewd:code CDATA #IMPLIED
		ewd:figID CDATA #IMPLIED
		ewd:pinNo CDATA #IMPLIED
		ewd:comment CDATA #IMPLIED >
	<!ATTLIST g
		ewd:lineID CDATA #IMPLIED
		ewd:groupID CDATA #IMPLIED
		ewd:figtype CDATA #IMPLIED
		ewd:code CDATA #IMPLIED
		ewd:figID CDATA #IMPLIED
		ewd:pinNo CDATA #IMPLIED
		ewd:comment CDATA #IMPLIED >
	<!ATTLIST text
		ewd:textID CDATA #IMPLIED >
	<!ATTLIST title
		ewd:textID CDATA #IMPLIED >
]>
<!-- Generator: Shintec Hozumi YS   -->
<svg onload="call_execInitLoadProc_svg('system')" style="overflow:visible;  enable-background:new 0 0 15944.044 710.000" viewBox="0 0 15944.044 710.000" height="710.000" width="15944.044" xml:space="preserve" ewd:ver="2.1.2.9" xmlns="&ns_svg;" xmlns:a="http://ns.adobe.com/AdobeSVGViewerExtensions/3.0/" xmlns:ewd="http://shcl.co.jp/ewd" xmlns:xlink="&ns_xlink;">
<path style="stroke-width: 1.42 ;&st7;  " d=" M  6118.98,   197.25  L  6110.48,   197.25  " /><path style="stroke-width: 1.42 ;&st7;  " d=" M  6169.97,   197.25  L  6161.47,   197.25  " /><text style="&st18;" transform="matrix(&st16;  6413.02  16.48 )">A61(A),B76(E)</text><text style="&st18;" transform="matrix(&st16;  6413.02  23.58 )">ECM</text><text style="&st18;" transform="matrix(&st17;  6157.77  149.81 )">BR</text><text style="&st18;" transform="matrix(&st17;  6106.78  147.95 )">Y</text><text style="&st18;" transform="matrix(&st17;  6157.77  234.8 )">BR</text><text style="&st18;" transform="matrix(&st17;  6106.78  232.94 )">Y</text><text style="&st18;" transform="matrix(&st17;  6007.63  358.04 )">(LHD)</text><text style="&st18;" transform="matrix(&st17;  6356.08  380.44 )">(*2)</text><text style="&st18;" transform="matrix(&st17;  6344.74  377.53 )">V</text><text style="&st18;" transform="matrix(&st16;  6186.96  669.48 )">P(*13)</text><text style="&st18;" transform="matrix(&st16;  6237.95  669.48 )">P(*13)</text><text style="&st18;" transform="matrix(&st17;  6378.74  286.02 )">LG</text><text style="&st18;" transform="matrix(&st17;  6429.73  283.93 )">Y</text><text style="&st18;" transform="matrix(&st17;  6378.74  377.3 )">L</text><text style="&st18;" transform="matrix(&st17;  6390.07  380.44 )">(*1)</text><text style="&st18;" transform="matrix(&st17;  6429.73  377.33 )">R</text><text style="&st18;" transform="matrix(&st17;  6441.06  380.44 )">(*1)</text><text style="&st18;" transform="matrix(&st17;  6497.72  378.96 )">SB</text><text style="&st18;" transform="matrix(&st17;  6441.06  288.5 )">(*13)</text><text style="&st18;" transform="matrix(&st17;  6390.07  288.5 )">(*13)</text><g ewd:figtype="conn" ewd:figID="10" ewd:code="G82"><path style="stroke-width: 1.42 ;&st7;  " d=" M  6254.95,   443.71  L  6254.95,   477.71  L  6339.94,   477.71  L  6339.94,   443.71  L  6254.95,   443.71  " /><g ewd:lineID="136"><text style="&st18;" transform="matrix(&st16;  6260.16  441.15 )">13</text><path style="stroke-width: 1.42 ;&st7;   " d=" M  6276.48,   439.18  C  6276.48    436.68   6274.46    434.65   6271.95    434.65  " /><path style="stroke-width: 1.42 ;&st7;   " d=" M  6271.95,   434.65  C  6269.45    434.65   6267.42    436.68   6267.42    439.18  " /><path style="stroke-width: 1.42 ;&st7;   " d=" M  6267.42,   439.18  C  6267.42    441.68   6269.45    443.71   6271.95    443.71  " /><path style="stroke-width: 1.42 ;&st7;   " d=" M  6271.95,   443.71  C  6274.46    443.71   6276.48    441.68   6276.48    439.18  " /><text style="&st18;" transform="matrix(&st16;  6269.65  441.15 )">A</text><text style="&st18;" transform="matrix(&st16;  6264.72  451.35 )">EFIO</text></g><g ewd:lineID="141"><text style="&st18;" transform="matrix(&st16;  6311.15  441.15 )">14</text><path style="stroke-width: 1.42 ;&st7;   " d=" M  6327.48,   439.18  C  6327.48    436.68   6325.45    434.65   6322.94    434.65  " /><path style="stroke-width: 1.42 ;&st7;   " d=" M  6322.94,   434.65  C  6320.44    434.65   6318.41    436.68   6318.41    439.18  " /><path style="stroke-width: 1.42 ;&st7;   " d=" M  6318.41,   439.18  C  6318.41    441.68   6320.44    443.71   6322.94    443.71  " /><path style="stroke-width: 1.42 ;&st7;   " d=" M  6322.94,   443.71  C  6325.45    443.71   6327.48    441.68   6327.48    439.18  " /><text style="&st18;" transform="matrix(&st16;  6320.64  441.15 )">A</text><text style="&st18;" transform="matrix(&st16;  6317.19  451.35 )">EFII</text></g><g ewd:figtype="title"><text style="&st18;" transform="matrix(&st16;  6260.04  485.32 )">G82(A)</text><text style="&st18;" transform="matrix(&st16;  6260.05  492.42 )" ewd:textID="31">Certification ECU</text></g></g><g ewd:figtype="conn" ewd:figID="12" ewd:code="G44"><path style="stroke-width: 1.42 ;&st7;  " d=" M  6365.43,   443.71  L  6365.43,   477.71  L  6450.42,   477.71  L  6450.42,   443.71  L  6365.43,   443.71  " /><g ewd:lineID="137"><text style="&st18;" transform="matrix(&st16;  6376.25  440.02 )">4</text><text style="&st18;" transform="matrix(&st16;  6375.2  451.35 )">EFIO</text></g><g ewd:lineID="139"><text style="&st18;" transform="matrix(&st16;  6427.24  440.02 )">3</text><text style="&st18;" transform="matrix(&st16;  6427.67  451.35 )">EFII</text></g><g ewd:figtype="title"><text style="&st18;" transform="matrix(&st16;  6370.53  492.42 )" ewd:textID="66">ID Code Box <tspan x="0 " dy="6.0">(Immobiliser Code ECU)</tspan></text><text style="&st18;" transform="matrix(&st16;  6370.52  485.32 )">G44</text></g></g><g ewd:figtype="conn" ewd:figID="54" ewd:code="A54"><path style="stroke-width: 0.85 ;&st7;  " d=" M  6118.98,   303.48  L  6118.98,   320.48  " /><path style="stroke-width: 0.85 ;&st7;  " d=" M  6101.98,   303.48  L  6101.98,   320.48  " /><path style="stroke-width: 0.85 ;&st7;  " d=" M  6110.48,   303.48  L  6110.48,   290.74  " /><path style="stroke-width: 0.85 ;&st7;  " d=" M  6107.65,   319.07  L  6110.48,   320.48  " /><path style="stroke-width: 0.85 ;&st7;  " d=" M  6110.48,   303.48  L  6113.31,   304.90  " /><path style="stroke-width: 0.85 ;&st7;  " d=" M  6113.31,   304.90  L  6107.65,   307.73  " /><path style="stroke-width: 0.85 ;&st7;  " d=" M  6107.65,   307.73  L  6113.31,   310.57  " /><path style="stroke-width: 0.85 ;&st7;  " d=" M  6113.31,   310.57  L  6107.65,   313.40  " /><path style="stroke-width: 0.85 ;&st7;  " d=" M  6107.65,   313.40  L  6113.31,   316.23  " /><path style="stroke-width: 0.85 ;&st7;  " d=" M  6113.31,   316.23  L  6107.65,   319.07  " /><path style="stroke-width: 0.85 ;&st7;  " d=" M  6110.48,   333.23  L  6110.48,   320.48  " /><path style="stroke-width: 0.85 ;&st7;   " d=" M  6101.98,   320.48  C  6101.98    325.18   6105.79    328.98   6110.48    328.98  " /><path style="stroke-width: 0.85 ;&st7;   " d=" M  6110.48,   328.98  C  6115.17    328.98   6118.98    325.18   6118.98    320.48  " /><path style="stroke-width: 0.85 ;&st7;   " d=" M  6118.98,   303.48  C  6118.98    298.79   6115.17    294.99   6110.48    294.99  " /><path style="stroke-width: 0.85 ;&st7;   " d=" M  6110.48,   294.99  C  6105.79    294.99   6101.98    298.79   6101.98    303.48  " /><path style="stroke-width: 1.42 ;&st7;  " d=" M  6097.73,   333.23  L  6097.73,   290.74  L  6123.22,   290.74  L  6123.22,   333.23  L  6097.73,   333.23  " /><text style="&st18;" transform="matrix(&st16;  6104.29  287.05 )">2</text><text style="&st18;" transform="matrix(&st16;  6104.29  341.42 )">1</text><g ewd:figtype="title"><text style="&st18;" transform="matrix(&st17;  6086.93  336.13 )">A54</text><text style="&st18;" transform="matrix(&st17;  6094.04  336.14 )" ewd:textID="73">Intake Air Temperature Sensor</text></g></g><g ewd:figtype="conn" ewd:figID="92" ewd:code="G99,G194"><path style="stroke-width: 0.85 ;&st7; stroke-dasharray:3, 1.5;" d=" M  6441.92,   337.76  L  6488.66,   337.76  " /><path style="stroke-width: 0.85 ;&st7; stroke-dasharray:3, 1.5;" d=" M  6441.92,   346.83  L  6488.66,   346.83  " /><path style="stroke-width: 0.85 ;&st7;  " d=" M  6433.42,   333.23  L  6433.42,   316.23  " /><path style="stroke-width: 0.85 ;&st7;  " d=" M  6432.23,   323.73  L  6431.96,   324.20  L  6431.86,   324.73  L  6431.96,   325.26  L  6432.23,   325.73  L  6432.64,   326.08  L  6433.15,   326.27  L  6433.69,   326.27  L  6434.20,   326.08  L  6434.61,   325.73  L  6434.89,   325.26  L  6434.98,   324.73  L  6434.89,   324.20  L  6434.61,   323.73  L  6434.20,   323.38  L  6433.69,   323.20  L  6433.15,   323.20  L  6432.64,   323.38  L  6432.23,   323.73  L  6432.62,   324.44  L  6432.62,   325.02  L  6433.00,   325.47  L  6433.57,   325.57  L  6434.07,   325.28  L  6434.27,   324.73  L  6434.07,   324.18  L  6433.57,   323.90  L  6433.00,   323.99  L  6433.42,   324.73  " /><path style="stroke-width: 1.42 ;&st7;  " d=" M  6424.92,   316.23  L  6424.92,   333.23  L  6509.91,   333.23  L  6509.91,   316.23  L  6424.92,   316.23  " /><path style="stroke-width: 0.85 ;&st7;  " d=" M  6433.42,   324.73  L  6501.41,   324.73  L  6501.41,   333.23  " /><text style="&st18;" transform="matrix(&st16;  6424.73  348.8 )">5</text><text style="&st18;" transform="matrix(&st16;  6424.73  339.73 )">5</text><text style="&st18;" transform="matrix(&st16;  6431.24  348.8 )">B</text><path style="stroke-width: 1.42 ;&st7;   " d=" M  6437.96,   337.76  C  6437.96    335.26   6435.93    333.23   6433.43    333.23  " /><path style="stroke-width: 1.42 ;&st7;   " d=" M  6433.43,   333.23  C  6430.92    333.23   6428.89    335.26   6428.89    337.76  " /><path style="stroke-width: 1.42 ;&st7;   " d=" M  6428.89,   337.76  C  6428.89    340.27   6430.92    342.29   6433.43    342.29  " /><path style="stroke-width: 1.42 ;&st7;   " d=" M  6433.43,   342.29  C  6435.93    342.29   6437.96    340.27   6437.96    337.76  " /><path style="stroke-width: 1.42 ;&st7;   " d=" M  6437.96,   346.83  C  6437.96    344.32   6435.93    342.29   6433.43    342.29  " /><path style="stroke-width: 1.42 ;&st7;   " d=" M  6433.43,   342.29  C  6430.92    342.29   6428.89    344.32   6428.89    346.83  " /><path style="stroke-width: 1.42 ;&st7;   " d=" M  6428.89,   346.83  C  6428.89    349.33   6430.92    351.36   6433.43    351.36  " /><path style="stroke-width: 1.42 ;&st7;   " d=" M  6433.43,   351.36  C  6435.93    351.36   6437.96    349.33   6437.96    346.83  " /><text style="&st18;" transform="matrix(&st16;  6431.12  339.73 )">A</text><text style="&st18;" transform="matrix(&st16;  6424.73  313.67 )">6</text><text style="&st18;" transform="matrix(&st16;  6424.73  304.6 )">4</text><text style="&st18;" transform="matrix(&st16;  6431.24  313.67 )">B</text><path style="stroke-width: 1.42 ;&st7;   " d=" M  6437.96,   311.70  C  6437.96    309.20   6435.93    307.17   6433.43    307.17  " /><path style="stroke-width: 1.42 ;&st7;   " d=" M  6433.43,   307.17  C  6430.92    307.17   6428.89    309.20   6428.89    311.70  " /><path style="stroke-width: 1.42 ;&st7;   " d=" M  6428.89,   311.70  C  6428.89    314.20   6430.92    316.23   6433.43    316.23  " /><path style="stroke-width: 1.42 ;&st7;   " d=" M  6433.43,   316.23  C  6435.93    316.23   6437.96    314.20   6437.96    311.70  " /><path style="stroke-width: 1.42 ;&st7;   " d=" M  6437.96,   302.63  C  6437.96    300.13   6435.93    298.10   6433.43    298.10  " /><path style="stroke-width: 1.42 ;&st7;   " d=" M  6433.43,   298.10  C  6430.92    298.10   6428.89    300.13   6428.89    302.63  " /><path style="stroke-width: 1.42 ;&st7;   " d=" M  6428.89,   302.63  C  6428.89    305.14   6430.92    307.17   6433.43    307.17  " /><path style="stroke-width: 1.42 ;&st7;   " d=" M  6433.43,   307.17  C  6435.93    307.17   6437.96    305.14   6437.96    302.63  " /><text style="&st18;" transform="matrix(&st16;  6431.12  304.6 )">A</text><text style="&st18;" transform="matrix(&st16;  6492.72  348.8 )">4</text><text style="&st18;" transform="matrix(&st16;  6492.72  339.73 )">6</text><path style="stroke-width: 1.42 ;&st7;   " d=" M  6505.95,   337.76  C  6505.95    335.26   6503.92    333.23   6501.41    333.23  " /><path style="stroke-width: 1.42 ;&st7;   " d=" M  6501.41,   333.23  C  6498.91    333.23   6496.88    335.26   6496.88    337.76  " /><path style="stroke-width: 1.42 ;&st7;   " d=" M  6496.88,   337.76  C  6496.88    340.27   6498.91    342.29   6501.41    342.29  " /><path style="stroke-width: 1.42 ;&st7;   " d=" M  6501.41,   342.29  C  6503.92    342.29   6505.95    340.27   6505.95    337.76  " /><path style="stroke-width: 1.42 ;&st7;   " d=" M  6505.95,   346.83  C  6505.95    344.32   6503.92    342.29   6501.41    342.29  " /><path style="stroke-width: 1.42 ;&st7;   " d=" M  6501.41,   342.29  C  6498.91    342.29   6496.88    344.32   6496.88    346.83  " /><path style="stroke-width: 1.42 ;&st7;   " d=" M  6496.88,   346.83  C  6496.88    349.33   6498.91    351.36   6501.41    351.36  " /><path style="stroke-width: 1.42 ;&st7;   " d=" M  6501.41,   351.36  C  6503.92    351.36   6505.95    349.33   6505.95    346.83  " /><text style="&st18;" transform="matrix(&st16;  6499.11  339.73 )">A</text><text style="&st18;" transform="matrix(&st16;  6499.23  348.8 )">B</text><g ewd:figtype="title"><text style="&st18;" transform="matrix(&st16;  6472.51  306.59 )" ewd:textID="101">No. 40 Junction <tspan x="0 " dy="6.0">Connector</tspan></text><text style="&st18;" transform="matrix(&st16;  6472.51  299.76 )">G194(B)</text><text style="&st18;" transform="matrix(&st16;  6472.51  287.89 )" ewd:textID="89">No. 12 Junction <tspan x="0 " dy="6.0">Connector</tspan></text><text style="&st18;" transform="matrix(&st16;  6472.51  281.07 )">G99(A)</text></g><g ewd:code="" ewd:figID="331" ewd:comment="" ewd:figtype="commref"><text style="&st18;" transform="matrix(&st16;  6438.52  313.67 )">(LHD)</text></g><g ewd:code="" ewd:figID="332" ewd:comment="" ewd:figtype="commref"><text style="&st18;" transform="matrix(&st16;  6438.52  304.6 )">(RHD)</text></g><g ewd:code="" ewd:figID="337" ewd:comment="" ewd:figtype="commref"><text style="&st18;" transform="matrix(&st16;  6506.51  348.8 )">(LHD)</text></g><g ewd:code="" ewd:figID="338" ewd:comment="" ewd:figtype="commref"><text style="&st18;" transform="matrix(&st16;  6506.51  339.73 )">(RHD)</text></g></g><g ewd:figtype="conn" ewd:figID="93" ewd:code="G192,G195"><path style="stroke-width: 0.85 ;&st7; stroke-dasharray:3, 1.5;" d=" M  6356.94,   337.76  L  6365.43,   337.76  " /><path style="stroke-width: 0.85 ;&st7; stroke-dasharray:3, 1.5;" d=" M  6356.94,   346.83  L  6365.43,   346.83  " /><path style="stroke-width: 0.85 ;&st7;  " d=" M  6382.43,   333.23  L  6382.43,   316.23  " /><path style="stroke-width: 0.85 ;&st7;  " d=" M  6381.24,   323.73  L  6380.97,   324.20  L  6380.87,   324.73  L  6380.97,   325.26  L  6381.24,   325.73  L  6381.65,   326.08  L  6382.16,   326.27  L  6382.70,   326.27  L  6383.21,   326.08  L  6383.62,   325.73  L  6383.90,   325.26  L  6383.99,   324.73  L  6383.90,   324.20  L  6383.62,   323.73  L  6383.21,   323.38  L  6382.70,   323.20  L  6382.16,   323.20  L  6381.65,   323.38  L  6381.24,   323.73  L  6381.63,   324.44  L  6381.63,   325.02  L  6382.01,   325.47  L  6382.58,   325.57  L  6383.08,   325.28  L  6383.28,   324.73  L  6383.08,   324.18  L  6382.58,   323.90  L  6382.01,   323.99  L  6382.43,   324.73  " /><path style="stroke-width: 1.42 ;&st7;  " d=" M  6339.94,   316.23  L  6339.94,   333.23  L  6390.93,   333.23  L  6390.93,   316.23  L  6339.94,   316.23  " /><path style="stroke-width: 0.85 ;&st7;  " d=" M  6382.43,   324.73  L  6348.44,   324.73  L  6348.44,   333.23  " /><text style="&st18;" transform="matrix(&st16;  6339.75  348.8 )">9</text><text style="&st18;" transform="matrix(&st16;  6339.75  339.73 )">9</text><path style="stroke-width: 1.42 ;&st7;   " d=" M  6352.97,   346.83  C  6352.97    344.32   6350.94    342.29   6348.44    342.29  " /><path style="stroke-width: 1.42 ;&st7;   " d=" M  6348.44,   342.29  C  6345.94    342.29   6343.91    344.32   6343.91    346.83  " /><path style="stroke-width: 1.42 ;&st7;   " d=" M  6343.91,   346.83  C  6343.91    349.33   6345.94    351.36   6348.44    351.36  " /><path style="stroke-width: 1.42 ;&st7;   " d=" M  6348.44,   351.36  C  6350.94    351.36   6352.97    349.33   6352.97    346.83  " /><text style="&st18;" transform="matrix(&st16;  6346.13  339.73 )">A</text><text style="&st18;" transform="matrix(&st16;  6346.25  348.8 )">B</text><path style="stroke-width: 1.42 ;&st7;   " d=" M  6352.97,   337.76  C  6352.97    335.26   6350.94    333.23   6348.44    333.23  " /><path style="stroke-width: 1.42 ;&st7;   " d=" M  6348.44,   333.23  C  6345.94    333.23   6343.91    335.26   6343.91    337.76  " /><path style="stroke-width: 1.42 ;&st7;   " d=" M  6343.91,   337.76  C  6343.91    340.27   6345.94    342.29   6348.44    342.29  " /><path style="stroke-width: 1.42 ;&st7;   " d=" M  6348.44,   342.29  C  6350.94    342.29   6352.97    340.27   6352.97    337.76  " /><text style="&st18;" transform="matrix(&st16;  6370.64  348.8 )">10</text><text style="&st18;" transform="matrix(&st16;  6370.64  339.73 )">10</text><text style="&st18;" transform="matrix(&st16;  6380.25  348.8 )">B</text><path style="stroke-width: 1.42 ;&st7;   " d=" M  6386.97,   337.76  C  6386.97    335.26   6384.94    333.23   6382.43    333.23  " /><path style="stroke-width: 1.42 ;&st7;   " d=" M  6382.43,   333.23  C  6379.93    333.23   6377.90    335.26   6377.90    337.76  " /><path style="stroke-width: 1.42 ;&st7;   " d=" M  6377.90,   337.76  C  6377.90    340.27   6379.93    342.29   6382.43    342.29  " /><path style="stroke-width: 1.42 ;&st7;   " d=" M  6382.43,   342.29  C  6384.94    342.29   6386.97    340.27   6386.97    337.76  " /><path style="stroke-width: 1.42 ;&st7;   " d=" M  6386.97,   346.83  C  6386.97    344.32   6384.94    342.29   6382.43    342.29  " /><path style="stroke-width: 1.42 ;&st7;   " d=" M  6382.43,   342.29  C  6379.93    342.29   6377.90    344.32   6377.90    346.83  " /><path style="stroke-width: 1.42 ;&st7;   " d=" M  6377.90,   346.83  C  6377.90    349.33   6379.93    351.36   6382.43    351.36  " /><path style="stroke-width: 1.42 ;&st7;   " d=" M  6382.43,   351.36  C  6384.94    351.36   6386.97    349.33   6386.97    346.83  " /><text style="&st18;" transform="matrix(&st16;  6380.13  339.73 )">A</text><text style="&st18;" transform="matrix(&st16;  6370.64  304.6 )">11</text><text style="&st18;" transform="matrix(&st16;  6370.64  313.67 )">11</text><path style="stroke-width: 1.42 ;&st7;   " d=" M  6386.97,   311.70  C  6386.97    309.20   6384.94    307.17   6382.43    307.17  " /><path style="stroke-width: 1.42 ;&st7;   " d=" M  6382.43,   307.17  C  6379.93    307.17   6377.90    309.20   6377.90    311.70  " /><path style="stroke-width: 1.42 ;&st7;   " d=" M  6377.90,   311.70  C  6377.90    314.20   6379.93    316.23   6382.43    316.23  " /><path style="stroke-width: 1.42 ;&st7;   " d=" M  6382.43,   316.23  C  6384.94    316.23   6386.97    314.20   6386.97    311.70  " /><path style="stroke-width: 1.42 ;&st7;   " d=" M  6386.97,   302.63  C  6386.97    300.13   6384.94    298.10   6382.43    298.10  " /><path style="stroke-width: 1.42 ;&st7;   " d=" M  6382.43,   298.10  C  6379.93    298.10   6377.90    300.13   6377.90    302.63  " /><path style="stroke-width: 1.42 ;&st7;   " d=" M  6377.90,   302.63  C  6377.90    305.14   6379.93    307.17   6382.43    307.17  " /><path style="stroke-width: 1.42 ;&st7;   " d=" M  6382.43,   307.17  C  6384.94    307.17   6386.97    305.14   6386.97    302.63  " /><text style="&st18;" transform="matrix(&st16;  6380.25  313.67 )">B</text><text style="&st18;" transform="matrix(&st16;  6380.13  304.6 )">A</text><g ewd:figtype="title"><text style="&st18;" transform="matrix(&st17;  6330.3  336.14 )" ewd:textID="103">No. 41 Junction <tspan x="0 " dy="6.0">Connector</tspan></text><text style="&st18;" transform="matrix(&st17;  6323.47  336.13 )">G195(B)</text><text style="&st18;" transform="matrix(&st17;  6310.18  336.14 )" ewd:textID="98">No. 38 Junction <tspan x="0 " dy="6.0">Connector</tspan></text><text style="&st18;" transform="matrix(&st17;  6303.36  336.13 )">G192(A)</text></g><g ewd:code="" ewd:figID="333" ewd:comment="" ewd:figtype="commref"><text style="&st18;" transform="matrix(&st16;  6387.53  313.67 )">(RHD)</text></g><g ewd:code="" ewd:figID="334" ewd:comment="" ewd:figtype="commref"><text style="&st18;" transform="matrix(&st16;  6387.53  304.6 )">(LHD)</text></g><g ewd:code="" ewd:figID="335" ewd:comment="" ewd:figtype="commref"><text style="&st18;" transform="matrix(&st16;  6387.53  348.8 )">(RHD)</text></g><g ewd:code="" ewd:figID="336" ewd:comment="" ewd:figtype="commref"><text style="&st18;" transform="matrix(&st16;  6387.53  339.73 )">(LHD)</text></g></g><g ewd:figtype="conn" ewd:figID="97" ewd:code="A61,B76"><g ewd:lineID="133"><text style="&st18;" transform="matrix(&st16;  6095.58  76.28 )">113</text><text style="&st18;" transform="matrix(&st16;  6108.37  76.28 )">E</text><path style="stroke-width: 1.42 ;&st7;   " d=" M  6115.01,    74.31  C  6115.01     71.80   6112.98     69.77   6110.48     69.77  " /><path style="stroke-width: 1.42 ;&st7;   " d=" M  6110.48,    69.77  C  6107.98     69.77   6105.95     71.80   6105.95     74.31  " /><path style="stroke-width: 1.42 ;&st7;   " d=" M  6105.95,    74.31  C  6105.95     76.81   6107.98     78.84   6110.48     78.84  " /><path style="stroke-width: 1.42 ;&st7;   " d=" M  6110.48,    78.84  C  6112.98     78.84   6115.01     76.81   6115.01     74.31  " /><text style="&st18;" transform="matrix(&st16;  6103.1  66.08 )">THIA</text></g><g ewd:lineID="135"><text style="&st18;" transform="matrix(&st16;  6149.67  76.28 )">90</text><path style="stroke-width: 1.42 ;&st7;   " d=" M  6166.00,    74.31  C  6166.00     71.80   6163.97     69.77   6161.47     69.77  " /><path style="stroke-width: 1.42 ;&st7;   " d=" M  6161.47,    69.77  C  6158.97     69.77   6156.94     71.80   6156.94     74.31  " /><path style="stroke-width: 1.42 ;&st7;   " d=" M  6156.94,    74.31  C  6156.94     76.81   6158.97     78.84   6161.47     78.84  " /><path style="stroke-width: 1.42 ;&st7;   " d=" M  6161.47,    78.84  C  6163.97     78.84   6166.00     76.81   6166.00     74.31  " /><text style="&st18;" transform="matrix(&st16;  6159.36  76.28 )">E</text><text style="&st18;" transform="matrix(&st16;  6154.28  66.08 )">ETHI</text></g></g><g ewd:figtype="w2w" ewd:figID="151" ewd:code="BA1"><path style="stroke-width: 1.42 ;&st7;  " d=" M  6114.73,   206.32  L  6110.48,   202.07  L  6106.23,   206.32  " /><path style="stroke-width: 1.42 ;&st7;  " d=" M  6114.73,   202.92  L  6110.48,   198.67  L  6106.23,   202.92  " /><text style="&st18;" transform="matrix(&st16;  6094.75  194.97 )">12</text></g><g ewd:figtype="w2w" ewd:figID="152" ewd:code="BA1"><path style="stroke-width: 1.42 ;&st7;  " d=" M  6165.72,   206.32  L  6161.47,   202.07  L  6157.22,   206.32  " /><path style="stroke-width: 1.42 ;&st7;  " d=" M  6165.72,   202.92  L  6161.47,   198.67  L  6157.22,   202.92  " /><text style="&st18;" transform="matrix(&st16;  6145.74  194.97 )">11</text></g><g ewd:code="2" ewd:figID="312" ewd:comment="" ewd:figtype="comment"><text style="&st18;" transform="matrix(&st16;  6498.01  564.66 )" ewd:textID="3">* 2 :w/ Entry &amp; Start System w/o ID Code Box</text></g><g ewd:code="14" ewd:figID="298" ewd:comment="" ewd:figtype="comment"><text style="&st18;" transform="matrix(&st16;  6498.01  581.66 )" ewd:textID="10">*14 :w/o Entry &amp; Start System</text></g><g ewd:code="13" ewd:figID="343" ewd:comment="" ewd:figtype="comment"><text style="&st18;" transform="matrix(&st16;  6498.01  573.16 )" ewd:textID="9">*13 :w/ Entry &amp; Start System</text></g><g ewd:code="1" ewd:figID="330" ewd:comment="" ewd:figtype="comment"><text style="&st18;" transform="matrix(&st16;  6498.01  556.16 )" ewd:textID="2">* 1 :w/ Entry &amp; Start System w/ ID Code Box</text></g></svg>