﻿<?xml version="1.0" encoding="utf-8"?>
<!DOCTYPE svg PUBLIC "-//W3C//DTD SVG 1.0//EN" "http://www.w3.org/TR/2001/REC-SVG-20010904/DTD/svg10.dtd"[
	<!ENTITY ns_flows "http://ns.adobe.com/Flows/1.0/">
	<!ENTITY ns_svg "http://www.w3.org/2000/svg">
	<!ENTITY ns_xlink "http://www.w3.org/1999/xlink">
	<!ENTITY st0 "font-size:7px;font-family:'MS-PGothic';adobe-font-script:japanese;">
	<!ENTITY st1 "font-size:6px;font-family:'ArialMT';">
	<!-- White fill  -->
	<!ENTITY st2 "fill:#FFFFFF;stroke:#000000; stroke-width:1.41;stroke-linecap:round;stroke-linejoin:round;">
	<!-- Yellow fill  -->
	<!ENTITY st3 "fill:#FFFFCC;stroke:#FFFFCC; stroke-width:0.1;stroke-linecap:round;stroke-linejoin:round;">
	<!-- Gray fill  -->
	<!ENTITY st4 "fill:#CCCCCC;stroke:#CCCCCC; stroke-width:0.1;stroke-linecap:round;stroke-linejoin:round;">
	<!-- Light-blue fill -->
	<!ENTITY st5 "fill:#CCECF4;stroke:#000000; stroke-width:1.133;stroke-linecap:round;stroke-linejoin:round;">
	<!ENTITY st6 "fill:none;stroke-linecap:butt; stroke-linejoin:round;">
	<!ENTITY st7 "fill:none;stroke:#000000;stroke-linecap:round;stroke-linejoin:round;">
	<!ENTITY st8 "enable-background:new    ;">
	<!-- Black fill -->
	<!ENTITY st9 "fill:#000000;stroke:#000000; stroke-linecap:round;stroke-linejoin:round;">
	<!-- SRS note   -->
	<!ENTITY st10 "font-size:9px;font-family:'ArialMT';">
	<!ENTITY st11 "font-size:9px;font-family:'Svg Symbol';">
	<!ENTITY st12 "font-size:6px;font-family:'Svg Symbol';">
	<!ENTITY st13 "fill:none;stroke:#ff0000;stroke-linecap:round;stroke-linejoin:round;">
	<!-- Yellow fill  -->
	<!ENTITY st14 "fill:#FFFF00;stroke:#FFFF00; stroke-width:0.1;stroke-linecap:round;stroke-linejoin:round;">
	<!ENTITY st15 "font-size:6px;font-family:'MS-PGothic';adobe-font-script:japanese;">
	<!ENTITY st16 "1.00 0.00 0.00 1.00">
	<!ENTITY st17 "0.00 -1.00 1.00 0.00">
	<!ENTITY st18 "font-size:6px;font-family:'Arial';">
	<!ENTITY st19 "font-size:9px;font-family:'Arial';">
	<!ENTITY st20 "font-size:6px;font-family:'MS-PGothic','MS PGothic';adobe-font-script:japanese;">
	<!ENTITY st21 "font-size:7px;font-family:'MS-PGothic','MS PGothic';adobe-font-script:japanese;">
	<!ATTLIST svg
		xmlns:ewd CDATA #FIXED "http://shcl.co.jp/ewd"
		xmlns:a CDATA #FIXED "http://ns.adobe.com/AdobeSVGViewerExtensions/3.0/"
		ewd:ver CDATA #IMPLIED
	>
	<!ATTLIST a
		ewd:lineID CDATA #IMPLIED
		ewd:groupID CDATA #IMPLIED
		ewd:figtype CDATA #IMPLIED
		ewd:code CDATA #IMPLIED
		ewd:figID CDATA #IMPLIED
		ewd:pinNo CDATA #IMPLIED
		ewd:comment CDATA #IMPLIED >
	<!ATTLIST g
		ewd:lineID CDATA #IMPLIED
		ewd:groupID CDATA #IMPLIED
		ewd:figtype CDATA #IMPLIED
		ewd:code CDATA #IMPLIED
		ewd:figID CDATA #IMPLIED
		ewd:pinNo CDATA #IMPLIED
		ewd:comment CDATA #IMPLIED >
	<!ATTLIST text
		ewd:textID CDATA #IMPLIED >
	<!ATTLIST title
		ewd:textID CDATA #IMPLIED >
]>
<!-- Generator: Shintec Hozumi YS   -->
<svg onload="call_execInitLoadProc_svg('system')" style="overflow:visible;  enable-background:new 0 0 2027.451 710.000" viewBox="0 0 2027.451 710.000" height="710.000" width="2027.451" xml:space="preserve" ewd:ver="2.1.2.9" xmlns="&ns_svg;" xmlns:a="http://ns.adobe.com/AdobeSVGViewerExtensions/3.0/" xmlns:ewd="http://shcl.co.jp/ewd" xmlns:xlink="&ns_xlink;">
<text style="&st18;" transform="matrix(&st17;  1092.62  147.83 )">L</text><text style="&st18;" transform="matrix(&st17;  1103.95  158.11 )">(LHD *1)</text><text style="&st18;" transform="matrix(&st17;  1152.11  147.83 )">L</text><text style="&st18;" transform="matrix(&st17;  1163.44  158.15 )">(RHD *1)</text><text style="&st18;" transform="matrix(&st17;  1092.62  249.93 )">B</text><text style="&st18;" transform="matrix(&st17;  1103.95  260.09 )">(LHD *1)</text><text style="&st18;" transform="matrix(&st17;  1152.11  249.82 )">L</text><text style="&st18;" transform="matrix(&st17;  1163.44  260.13 )">(RHD *1)</text><text style="&st18;" transform="matrix(&st17;  1103.95  413.07 )">(LHD *1)</text><text style="&st18;" transform="matrix(&st17;  1092.62  402.79 )">L</text><path style="stroke-width: 1.42 ;&st7;  " d=" M  1470.25,   350.23  L  1478.75,   350.23  " /><text style="&st18;" transform="matrix(&st17;  1390.07  479.32 )">R</text><text style="&st18;" transform="matrix(&st17;  1424.07  266.93 )">B</text><text style="&st18;" transform="matrix(&st17;  1475.06  267.71 )">W</text><text style="&st18;" transform="matrix(&st17;  1475.06  174.22 )">W</text><text style="&st18;" transform="matrix(&st17;  1390.07  174.22 )">W</text><text style="&st18;" transform="matrix(&st17;  1424.07  173.56 )">V</text><text style="&st18;" transform="matrix(&st17;  1475.06  385.91 )">B</text><text style="&st18;" transform="matrix(&st17;  1475.06  114.73 )">W</text><text style="&st18;" transform="matrix(&st17;  1390.07  267.71 )">W</text><path style="stroke-width: 1.42 ;&st7;  " d=" M  1487.25,   146.26  L  1478.75,   146.26  " /><text style="&st18;" transform="matrix(&st17;  1203.1  267.2 )">G</text><text style="&st18;" transform="matrix(&st17;  1237.1  267.71 )">W</text><text style="&st18;" transform="matrix(&st17;  1203.1  173.56 )">V</text><text style="&st18;" transform="matrix(&st17;  1237.1  174.22 )">W</text><text style="&st18;" transform="matrix(&st16;  1060.21  626.98 )">R</text><text style="&st18;" transform="matrix(&st16;  1009.22  626.98 )">R</text><text style="&st18;" transform="matrix(&st16;  1060.13  643.98 )">B</text><text style="&st18;" transform="matrix(&st16;  1009.14  643.98 )">B</text><text style="&st18;" transform="matrix(&st16;  1059.36  660.98 )">W</text><text style="&st18;" transform="matrix(&st16;  1008.37  660.98 )">W</text><text style="&st18;" transform="matrix(&st16;  1059.86  558.99 )">G</text><text style="&st18;" transform="matrix(&st16;  1008.87  558.99 )">G</text><text style="&st18;" transform="matrix(&st16;  1059.36  575.99 )">W</text><text style="&st18;" transform="matrix(&st16;  1008.37  575.99 )">W</text><text style="&st18;" transform="matrix(&st16;  1115.57  60.39 )">G87(C)</text><text style="&st18;" transform="matrix(&st16;  1115.57  67.49 )" ewd:textID="16">Engine Stop and Start ECU</text><text style="&st18;" transform="matrix(&st16;  1048.11  609.99 )">L(RHD *1)</text><text style="&st18;" transform="matrix(&st16;  1048.15  592.99 )">L(LHD *1)</text><text style="&st18;" transform="matrix(&st17;  1271.09  267.71 )">W</text><text style="&st18;" transform="matrix(&st17;  1282.42  273.1 )">(RHD)</text><text style="&st18;" transform="matrix(&st17;  1305.09  269.02 )">LG</text><text style="&st18;" transform="matrix(&st17;  1316.42  273.1 )">(RHD)</text><text style="&st18;" transform="matrix(&st17;  1486.39  273.06 )">(LHD)</text><g ewd:figtype="conn" ewd:figID="2" ewd:code="G87"><g ewd:lineID="24,25"><text style="&st18;" transform="matrix(&st16;  1084.52  93.27 )">12</text><path style="stroke-width: 1.42 ;&st7;   " d=" M  1100.85,    91.30  C  1100.85     88.80   1098.82     86.77   1096.32     86.77  " /><path style="stroke-width: 1.42 ;&st7;   " d=" M  1096.32,    86.77  C  1093.81     86.77   1091.78     88.80   1091.78     91.30  " /><path style="stroke-width: 1.42 ;&st7;   " d=" M  1091.78,    91.30  C  1091.78     93.81   1093.81     95.84   1096.32     95.84  " /><path style="stroke-width: 1.42 ;&st7;   " d=" M  1096.32,    95.84  C  1098.82     95.84   1100.85     93.81   1100.85     91.30  " /><text style="&st18;" transform="matrix(&st16;  1093.9  93.27 )">C</text><text style="&st18;" transform="matrix(&st16;  1089.05  83.07 )">IGO1</text></g></g><g ewd:figtype="conn" ewd:figID="8" ewd:code="G93"><path style="stroke-width: 1.42 ;&st7;  " d=" M  1087.82,   333.23  L  1104.81,   333.23  L  1104.81,   350.23  L  1087.82,   350.23  L  1087.82,   333.23  " /><path style="stroke-width: 0.85 ;&st7;  " d=" M  1096.32,   333.23  L  1096.32,   350.23  " /><text style="&st18;" transform="matrix(&st16;  1087.03  329.54 )">22</text><text style="&st18;" transform="matrix(&st16;  1087.03  358.42 )">18</text><g ewd:figtype="title"><text style="&st18;" transform="matrix(&st17;  1112.43  353.13 )">G93</text><text style="&st18;" transform="matrix(&st17;  1119.53  353.13 )" ewd:textID="21">No. 6 Junction Connector</text></g></g><g ewd:figtype="conn" ewd:figID="9" ewd:code="G101"><path style="stroke-width: 0.85 ;&st7;  " d=" M  1096.32,   188.75  L  1096.32,   205.75  " /><path style="stroke-width: 1.42 ;&st7;  " d=" M  1087.82,   188.75  L  1104.81,   188.75  L  1104.81,   205.75  L  1087.82,   205.75  L  1087.82,   188.75  " /><text style="&st18;" transform="matrix(&st16;  1090.13  213.94 )">9</text><text style="&st18;" transform="matrix(&st16;  1090.13  185.06 )">7</text><g ewd:figtype="title"><text style="&st18;" transform="matrix(&st17;  1119.53  208.66 )" ewd:textID="23">No. 14 <tspan x="0 " dy="6.0">Junction Connector</tspan></text><text style="&st18;" transform="matrix(&st17;  1112.43  208.65 )">G101</text></g></g><g ewd:figtype="conn" ewd:figID="10" ewd:code="A63,A64"><path style="stroke-width: 0.85 ;&st7; stroke-dasharray:3, 1.5;" d=" M  1487.25,    91.87  L  1495.75,    91.87  " /><path style="stroke-width: 0.85 ;&st7; stroke-dasharray:3, 1.5;" d=" M  1487.25,    82.81  L  1495.75,    82.81  " /><path style="stroke-width: 1.42 ;&st7;  " d=" M  1461.76,    78.27  L  1529.74,    78.27  L  1529.74,    44.28  L  1461.76,    44.28  L  1461.76,    78.27  " /><g ewd:lineID="33"><text style="&st18;" transform="matrix(&st16;  1466.96  84.77 )">14</text><text style="&st18;" transform="matrix(&st16;  1466.96  93.84 )">14</text><path style="stroke-width: 1.42 ;&st7;   " d=" M  1483.29,    82.80  C  1483.29     80.30   1481.26     78.27   1478.75     78.27  " /><path style="stroke-width: 1.42 ;&st7;   " d=" M  1478.75,    78.27  C  1476.25     78.27   1474.22     80.30   1474.22     82.80  " /><path style="stroke-width: 1.42 ;&st7;   " d=" M  1474.22,    82.80  C  1474.22     85.31   1476.25     87.34   1478.75     87.34  " /><path style="stroke-width: 1.42 ;&st7;   " d=" M  1478.75,    87.34  C  1481.26     87.34   1483.29     85.31   1483.29     82.80  " /><path style="stroke-width: 1.42 ;&st7;   " d=" M  1483.29,    91.87  C  1483.29     89.37   1481.26     87.34   1478.75     87.34  " /><path style="stroke-width: 1.42 ;&st7;   " d=" M  1478.75,    87.34  C  1476.25     87.34   1474.22     89.37   1474.22     91.87  " /><path style="stroke-width: 1.42 ;&st7;   " d=" M  1474.22,    91.87  C  1474.22     94.37   1476.25     96.40   1478.75     96.40  " /><path style="stroke-width: 1.42 ;&st7;   " d=" M  1478.75,    96.40  C  1481.26     96.40   1483.29     94.37   1483.29     91.87  " /><text style="&st18;" transform="matrix(&st16;  1476.45  84.77 )">A</text><text style="&st18;" transform="matrix(&st16;  1476.56  93.84 )">B</text><text style="&st18;" transform="matrix(&st16;  1470.4  74.58 )">CANL</text></g><g ewd:figtype="title"><text style="&st18;" transform="matrix(&st16;  1458.34  27.53 )">A63(A),A64(B)</text><text style="&st18;" transform="matrix(&st16;  1458.35  34.63 )" ewd:textID="11">Brake Actuator <tspan x="0 " dy="6.0">Assembly</tspan></text></g></g><g ewd:figtype="conn" ewd:figID="11" ewd:code="G109"><path style="stroke-width: 1.42 ;&st7;  " d=" M  1147.31,   188.75  L  1164.30,   188.75  L  1164.30,   205.75  L  1147.31,   205.75  L  1147.31,   188.75  " /><path style="stroke-width: 0.85 ;&st7;  " d=" M  1155.81,   205.75  L  1155.81,   188.75  " /><text style="&st18;" transform="matrix(&st16;  1146.52  185.06 )">21</text><text style="&st18;" transform="matrix(&st16;  1146.52  213.94 )">18</text><g ewd:figtype="title"><text style="&st18;" transform="matrix(&st17;  1171.92  208.65 )">G109</text><text style="&st18;" transform="matrix(&st17;  1179.02  208.66 )" ewd:textID="24">No. 21 Junction <tspan x="0 " dy="6.0">Connector</tspan></text></g></g><g ewd:figtype="conn" ewd:figID="12" ewd:code="G14"><path style="stroke-width: 1.42 ;&st7;  " d=" M  1376.77,   401.22  L  1444.76,   401.22  L  1444.76,   367.22  L  1376.77,   367.22  L  1376.77,   401.22  " /><g ewd:lineID="10"><text style="&st18;" transform="matrix(&st16;  1384.48  409.41 )">12</text><text style="&st18;" transform="matrix(&st16;  1390.03  397.52 )">TS</text></g><g ewd:lineID="28"><text style="&st18;" transform="matrix(&st16;  1384.48  363.53 )">14</text><text style="&st18;" transform="matrix(&st16;  1385.41  374.86 )">CANL</text></g><g ewd:lineID="29"><text style="&st18;" transform="matrix(&st16;  1421.58  363.53 )">6</text><text style="&st18;" transform="matrix(&st16;  1418.98  374.86 )">CANH</text></g><g ewd:figtype="title"><text style="&st18;" transform="matrix(&st17;  1459.48  404.12 )">DLC3</text><text style="&st18;" transform="matrix(&st17;  1452.37  404.12 )">G14</text></g></g><g ewd:figtype="conn" ewd:figID="14" ewd:code="G118,G119,G120,G121,G124"><path style="stroke-width: 0.85 ;&st7;  " d=" M  1648.72,   205.75  L  1648.72,   214.25  L  1427.76,   214.25  L  1427.34,   213.51  L  1427.91,   213.41  L  1428.41,   213.70  L  1428.61,   214.25  L  1428.41,   214.80  L  1427.91,   215.09  L  1427.34,   214.99  L  1426.96,   214.54  L  1426.96,   213.96  L  1426.57,   213.25  L  1426.98,   212.90  L  1427.49,   212.71  L  1428.03,   212.71  L  1428.54,   212.90  L  1428.95,   213.25  L  1429.23,   213.72  L  1429.32,   214.25  L  1429.23,   214.78  L  1428.95,   215.25  L  1428.54,   215.60  L  1428.03,   215.79  L  1427.49,   215.79  L  1426.98,   215.60  L  1426.57,   215.25  L  1426.30,   214.78  L  1426.20,   214.25  L  1426.30,   213.72  L  1426.57,   213.25  " /><path style="stroke-width: 0.85 ;&st7;  " d=" M  1614.73,   205.75  L  1614.73,   222.75  L  1393.77,   222.75  " /><path style="stroke-width: 0.85 ;&st7;  " d=" M  1511.55,   213.25  L  1511.28,   213.72  L  1511.19,   214.25  L  1511.28,   214.78  L  1511.55,   215.25  L  1511.97,   215.60  L  1512.47,   215.79  L  1513.02,   215.79  L  1513.53,   215.60  L  1513.94,   215.25  L  1514.21,   214.78  L  1514.30,   214.25  L  1514.21,   213.72  L  1513.94,   213.25  L  1513.53,   212.90  L  1513.02,   212.71  L  1512.47,   212.71  L  1511.97,   212.90  L  1511.55,   213.25  L  1511.95,   213.96  L  1511.95,   214.54  L  1512.32,   214.99  L  1512.89,   215.09  L  1513.40,   214.80  L  1513.60,   214.25  L  1513.40,   213.70  L  1512.89,   213.41  L  1512.32,   213.51  L  1512.75,   214.25  " /><path style="stroke-width: 0.85 ;&st7;  " d=" M  1477.56,   221.75  L  1477.29,   222.22  L  1477.19,   222.75  L  1477.29,   223.28  L  1477.56,   223.75  L  1477.97,   224.10  L  1478.48,   224.28  L  1479.02,   224.28  L  1479.53,   224.10  L  1479.94,   223.75  L  1480.22,   223.28  L  1480.31,   222.75  L  1480.22,   222.22  L  1479.94,   221.75  L  1479.53,   221.40  L  1479.02,   221.21  L  1478.48,   221.21  L  1477.97,   221.40  L  1477.56,   221.75  L  1477.95,   222.46  L  1477.95,   223.04  L  1478.33,   223.48  L  1478.90,   223.58  L  1479.40,   223.30  L  1479.60,   222.75  L  1479.40,   222.20  L  1478.90,   221.91  L  1478.33,   222.01  L  1478.75,   222.75  " /><path style="stroke-width: 0.85 ;&st7;  " d=" M  1512.75,   231.25  L  1512.75,   205.75  " /><path style="stroke-width: 0.85 ;&st7;  " d=" M  1478.75,   231.25  L  1478.75,   205.75  " /><path style="stroke-width: 0.85 ;&st7;  " d=" M  1392.57,   221.75  L  1392.30,   222.22  L  1392.21,   222.75  L  1392.30,   223.28  L  1392.57,   223.75  L  1392.99,   224.10  L  1393.49,   224.28  L  1394.04,   224.28  L  1394.55,   224.10  L  1394.96,   223.75  L  1395.23,   223.28  L  1395.32,   222.75  L  1395.23,   222.22  L  1394.96,   221.75  L  1394.55,   221.40  L  1394.04,   221.21  L  1393.49,   221.21  L  1392.99,   221.40  L  1392.57,   221.75  L  1392.97,   222.46  L  1392.97,   223.04  L  1393.34,   223.48  L  1393.91,   223.58  L  1394.42,   223.30  L  1394.62,   222.75  L  1394.42,   222.20  L  1393.91,   221.91  L  1393.34,   222.01  L  1393.77,   222.75  " /><path style="stroke-width: 0.85 ;&st7;  " d=" M  1427.76,   231.25  L  1427.76,   205.75  " /><path style="stroke-width: 0.85 ;&st7;  " d=" M  1393.77,   231.25  L  1393.77,   205.75  " /><path style="stroke-width: 1.42 ;&st7;  " d=" M  1385.27,   231.25  L  1385.27,   205.75  L  1657.22,   205.75  L  1657.22,   231.25  L  1385.27,   231.25  " /><text style="&st18;" transform="matrix(&st16;  1419.07  203.19 )">1</text><text style="&st18;" transform="matrix(&st16;  1425.57  203.19 )">B</text><path style="stroke-width: 1.42 ;&st7;   " d=" M  1432.29,   201.22  C  1432.29    198.72   1430.26    196.69   1427.76    196.69  " /><path style="stroke-width: 1.42 ;&st7;   " d=" M  1427.76,   196.69  C  1425.26    196.69   1423.23    198.72   1423.23    201.22  " /><path style="stroke-width: 1.42 ;&st7;   " d=" M  1423.23,   201.22  C  1423.23    203.72   1425.26    205.75   1427.76    205.75  " /><path style="stroke-width: 1.42 ;&st7;   " d=" M  1427.76,   205.75  C  1430.26    205.75   1432.29    203.72   1432.29    201.22  " /><text style="&st18;" transform="matrix(&st16;  1385.07  203.19 )">2</text><path style="stroke-width: 1.42 ;&st7;   " d=" M  1398.30,   201.22  C  1398.30    198.72   1396.27    196.69   1393.77    196.69  " /><path style="stroke-width: 1.42 ;&st7;   " d=" M  1393.77,   196.69  C  1391.26    196.69   1389.23    198.72   1389.23    201.22  " /><path style="stroke-width: 1.42 ;&st7;   " d=" M  1389.23,   201.22  C  1389.23    203.72   1391.26    205.75   1393.77    205.75  " /><path style="stroke-width: 1.42 ;&st7;   " d=" M  1393.77,   205.75  C  1396.27    205.75   1398.30    203.72   1398.30    201.22  " /><text style="&st18;" transform="matrix(&st16;  1391.58  203.19 )">B</text><text style="&st18;" transform="matrix(&st16;  1385.07  237.75 )">2</text><path style="stroke-width: 1.42 ;&st7;   " d=" M  1398.30,   235.78  C  1398.30    233.28   1396.27    231.25   1393.77    231.25  " /><path style="stroke-width: 1.42 ;&st7;   " d=" M  1393.77,   231.25  C  1391.26    231.25   1389.23    233.28   1389.23    235.78  " /><path style="stroke-width: 1.42 ;&st7;   " d=" M  1389.23,   235.78  C  1389.23    238.28   1391.26    240.31   1393.77    240.31  " /><path style="stroke-width: 1.42 ;&st7;   " d=" M  1393.77,   240.31  C  1396.27    240.31   1398.30    238.28   1398.30    235.78  " /><text style="&st18;" transform="matrix(&st16;  1391.31  237.75 )">G</text><text style="&st18;" transform="matrix(&st16;  1419.07  237.75 )">1</text><path style="stroke-width: 1.42 ;&st7;   " d=" M  1432.29,   235.78  C  1432.29    233.28   1430.26    231.25   1427.76    231.25  " /><path style="stroke-width: 1.42 ;&st7;   " d=" M  1427.76,   231.25  C  1425.26    231.25   1423.23    233.28   1423.23    235.78  " /><path style="stroke-width: 1.42 ;&st7;   " d=" M  1423.23,   235.78  C  1423.23    238.28   1425.26    240.31   1427.76    240.31  " /><path style="stroke-width: 1.42 ;&st7;   " d=" M  1427.76,   240.31  C  1430.26    240.31   1432.29    238.28   1432.29    235.78  " /><text style="&st18;" transform="matrix(&st16;  1425.3  237.75 )">G</text><text style="&st18;" transform="matrix(&st16;  1470.06  237.75 )">2</text><text style="&st18;" transform="matrix(&st16;  1476.37  237.75 )">D</text><path style="stroke-width: 1.42 ;&st7;   " d=" M  1483.29,   235.78  C  1483.29    233.28   1481.26    231.25   1478.75    231.25  " /><path style="stroke-width: 1.42 ;&st7;   " d=" M  1478.75,   231.25  C  1476.25    231.25   1474.22    233.28   1474.22    235.78  " /><path style="stroke-width: 1.42 ;&st7;   " d=" M  1474.22,   235.78  C  1474.22    238.28   1476.25    240.31   1478.75    240.31  " /><path style="stroke-width: 1.42 ;&st7;   " d=" M  1478.75,   240.31  C  1481.26    240.31   1483.29    238.28   1483.29    235.78  " /><text style="&st18;" transform="matrix(&st16;  1470.06  203.19 )">2</text><path style="stroke-width: 1.42 ;&st7;   " d=" M  1483.29,   201.22  C  1483.29    198.72   1481.26    196.69   1478.75    196.69  " /><path style="stroke-width: 1.42 ;&st7;   " d=" M  1478.75,   196.69  C  1476.25    196.69   1474.22    198.72   1474.22    201.22  " /><path style="stroke-width: 1.42 ;&st7;   " d=" M  1474.22,   201.22  C  1474.22    203.72   1476.25    205.75   1478.75    205.75  " /><path style="stroke-width: 1.42 ;&st7;   " d=" M  1478.75,   205.75  C  1481.26    205.75   1483.29    203.72   1483.29    201.22  " /><text style="&st18;" transform="matrix(&st16;  1476.33  203.19 )">C</text><text style="&st18;" transform="matrix(&st16;  1504.05  237.75 )">1</text><text style="&st18;" transform="matrix(&st16;  1510.37  237.75 )">D</text><path style="stroke-width: 1.42 ;&st7;   " d=" M  1517.28,   235.78  C  1517.28    233.28   1515.25    231.25   1512.75    231.25  " /><path style="stroke-width: 1.42 ;&st7;   " d=" M  1512.75,   231.25  C  1510.24    231.25   1508.21    233.28   1508.21    235.78  " /><path style="stroke-width: 1.42 ;&st7;   " d=" M  1508.21,   235.78  C  1508.21    238.28   1510.24    240.31   1512.75    240.31  " /><path style="stroke-width: 1.42 ;&st7;   " d=" M  1512.75,   240.31  C  1515.25    240.31   1517.28    238.28   1517.28    235.78  " /><text style="&st18;" transform="matrix(&st16;  1504.05  203.19 )">1</text><text style="&st18;" transform="matrix(&st16;  1510.33  203.19 )">C</text><path style="stroke-width: 1.42 ;&st7;   " d=" M  1517.28,   201.22  C  1517.28    198.72   1515.25    196.69   1512.75    196.69  " /><path style="stroke-width: 1.42 ;&st7;   " d=" M  1512.75,   196.69  C  1510.24    196.69   1508.21    198.72   1508.21    201.22  " /><path style="stroke-width: 1.42 ;&st7;   " d=" M  1508.21,   201.22  C  1508.21    203.72   1510.24    205.75   1512.75    205.75  " /><path style="stroke-width: 1.42 ;&st7;   " d=" M  1512.75,   205.75  C  1515.25    205.75   1517.28    203.72   1517.28    201.22  " /><text style="&st18;" transform="matrix(&st16;  1606.04  203.19 )">2</text><text style="&st18;" transform="matrix(&st16;  1612.43  203.19 )">A</text><path style="stroke-width: 1.42 ;&st7;   " d=" M  1619.26,   201.22  C  1619.26    198.72   1617.23    196.69   1614.73    196.69  " /><path style="stroke-width: 1.42 ;&st7;   " d=" M  1614.73,   196.69  C  1612.23    196.69   1610.20    198.72   1610.20    201.22  " /><path style="stroke-width: 1.42 ;&st7;   " d=" M  1610.20,   201.22  C  1610.20    203.72   1612.23    205.75   1614.73    205.75  " /><path style="stroke-width: 1.42 ;&st7;   " d=" M  1614.73,   205.75  C  1617.23    205.75   1619.26    203.72   1619.26    201.22  " /><text style="&st18;" transform="matrix(&st16;  1640.03  203.19 )">1</text><path style="stroke-width: 1.42 ;&st7;   " d=" M  1653.26,   201.22  C  1653.26    198.72   1651.23    196.69   1648.72    196.69  " /><path style="stroke-width: 1.42 ;&st7;   " d=" M  1648.72,   196.69  C  1646.22    196.69   1644.19    198.72   1644.19    201.22  " /><path style="stroke-width: 1.42 ;&st7;   " d=" M  1644.19,   201.22  C  1644.19    203.72   1646.22    205.75   1648.72    205.75  " /><path style="stroke-width: 1.42 ;&st7;   " d=" M  1648.72,   205.75  C  1651.23    205.75   1653.26    203.72   1653.26    201.22  " /><text style="&st18;" transform="matrix(&st16;  1646.42  203.19 )">A</text><g ewd:figtype="title"><text style="&st18;" transform="matrix(&st17;  1375.62  234.15 )" ewd:textID="18">No. 1 CAN <tspan x="0 " dy="6.0">Junction Connector</tspan></text><text style="&st18;" transform="matrix(&st17;  1362.58  234.15 )">G118(A),G119(B),G120(C), <tspan x="0 " dy="6.0">G121(D),G124(G)</tspan></text></g></g><g ewd:figtype="conn" ewd:figID="15" ewd:code="G128,G129,G155"><path style="stroke-width: 0.85 ;&st7;  " d=" M  1206.80,   231.25  L  1206.80,   205.75  " /><path style="stroke-width: 0.85 ;&st7;  " d=" M  1240.79,   231.25  L  1240.79,   205.75  " /><path style="stroke-width: 1.42 ;&st7;  " d=" M  1198.30,   231.25  L  1317.28,   231.25  L  1317.28,   205.75  L  1198.30,   205.75  L  1198.30,   231.25  " /><path style="stroke-width: 0.85 ;&st7;  " d=" M  1240.79,   222.75  L  1274.79,   222.75  L  1274.79,   231.25  " /><path style="stroke-width: 0.85 ;&st7;  " d=" M  1206.80,   214.25  L  1308.78,   214.25  L  1308.78,   231.25  " /><path style="stroke-width: 0.85 ;&st7;  " d=" M  1205.61,   213.25  L  1205.33,   213.72  L  1205.24,   214.25  L  1205.33,   214.78  L  1205.61,   215.25  L  1206.02,   215.60  L  1206.53,   215.79  L  1207.07,   215.79  L  1207.58,   215.60  L  1207.99,   215.25  L  1208.26,   214.78  L  1208.36,   214.25  L  1208.26,   213.72  L  1207.99,   213.25  L  1207.58,   212.90  L  1207.07,   212.71  L  1206.53,   212.71  L  1206.02,   212.90  L  1205.61,   213.25  L  1206.00,   213.96  L  1206.00,   214.54  L  1206.37,   214.99  L  1206.95,   215.09  L  1207.45,   214.80  L  1207.65,   214.25  L  1207.45,   213.70  L  1206.95,   213.41  L  1206.37,   213.51  L  1206.80,   214.25  " /><path style="stroke-width: 0.85 ;&st7;  " d=" M  1239.60,   221.75  L  1239.33,   222.22  L  1239.23,   222.75  L  1239.33,   223.28  L  1239.60,   223.75  L  1240.01,   224.10  L  1240.52,   224.28  L  1241.06,   224.28  L  1241.57,   224.10  L  1241.98,   223.75  L  1242.26,   223.28  L  1242.35,   222.75  L  1242.26,   222.22  L  1241.98,   221.75  L  1241.57,   221.40  L  1241.06,   221.21  L  1240.52,   221.21  L  1240.01,   221.40  L  1239.60,   221.75  L  1239.99,   222.46  L  1239.99,   223.04  L  1240.37,   223.48  L  1240.94,   223.58  L  1241.44,   223.30  L  1241.64,   222.75  L  1241.44,   222.20  L  1240.94,   221.91  L  1240.37,   222.01  L  1240.79,   222.75  " /><text style="&st18;" transform="matrix(&st16;  1232.1  237.75 )">2</text><path style="stroke-width: 1.42 ;&st7;   " d=" M  1245.33,   235.78  C  1245.33    233.28   1243.30    231.25   1240.79    231.25  " /><path style="stroke-width: 1.42 ;&st7;   " d=" M  1240.79,   231.25  C  1238.29    231.25   1236.26    233.28   1236.26    235.78  " /><path style="stroke-width: 1.42 ;&st7;   " d=" M  1236.26,   235.78  C  1236.26    238.28   1238.29    240.31   1240.79    240.31  " /><path style="stroke-width: 1.42 ;&st7;   " d=" M  1240.79,   240.31  C  1243.30    240.31   1245.33    238.28   1245.33    235.78  " /><text style="&st18;" transform="matrix(&st16;  1238.49  237.75 )">A</text><text style="&st18;" transform="matrix(&st16;  1198.1  237.75 )">1</text><path style="stroke-width: 1.42 ;&st7;   " d=" M  1211.33,   235.78  C  1211.33    233.28   1209.30    231.25   1206.80    231.25  " /><path style="stroke-width: 1.42 ;&st7;   " d=" M  1206.80,   231.25  C  1204.30    231.25   1202.27    233.28   1202.27    235.78  " /><path style="stroke-width: 1.42 ;&st7;   " d=" M  1202.27,   235.78  C  1202.27    238.28   1204.30    240.31   1206.80    240.31  " /><path style="stroke-width: 1.42 ;&st7;   " d=" M  1206.80,   240.31  C  1209.30    240.31   1211.33    238.28   1211.33    235.78  " /><text style="&st18;" transform="matrix(&st16;  1204.49  237.75 )">A</text><text style="&st18;" transform="matrix(&st16;  1198.1  203.19 )">1</text><path style="stroke-width: 1.42 ;&st7;   " d=" M  1211.33,   201.22  C  1211.33    198.72   1209.30    196.69   1206.80    196.69  " /><path style="stroke-width: 1.42 ;&st7;   " d=" M  1206.80,   196.69  C  1204.30    196.69   1202.27    198.72   1202.27    201.22  " /><path style="stroke-width: 1.42 ;&st7;   " d=" M  1202.27,   201.22  C  1202.27    203.72   1204.30    205.75   1206.80    205.75  " /><path style="stroke-width: 1.42 ;&st7;   " d=" M  1206.80,   205.75  C  1209.30    205.75   1211.33    203.72   1211.33    201.22  " /><text style="&st18;" transform="matrix(&st16;  1204.61  203.19 )">B</text><text style="&st18;" transform="matrix(&st16;  1232.1  203.19 )">2</text><text style="&st18;" transform="matrix(&st16;  1238.6  203.19 )">B</text><path style="stroke-width: 1.42 ;&st7;   " d=" M  1245.33,   201.22  C  1245.33    198.72   1243.30    196.69   1240.79    196.69  " /><path style="stroke-width: 1.42 ;&st7;   " d=" M  1240.79,   196.69  C  1238.29    196.69   1236.26    198.72   1236.26    201.22  " /><path style="stroke-width: 1.42 ;&st7;   " d=" M  1236.26,   201.22  C  1236.26    203.72   1238.29    205.75   1240.79    205.75  " /><path style="stroke-width: 1.42 ;&st7;   " d=" M  1240.79,   205.75  C  1243.30    205.75   1245.33    203.72   1245.33    201.22  " /><text style="&st18;" transform="matrix(&st16;  1266.09  237.75 )">2</text><path style="stroke-width: 1.42 ;&st7;   " d=" M  1279.32,   235.78  C  1279.32    233.28   1277.29    231.25   1274.79    231.25  " /><path style="stroke-width: 1.42 ;&st7;   " d=" M  1274.79,   231.25  C  1272.28    231.25   1270.25    233.28   1270.25    235.78  " /><path style="stroke-width: 1.42 ;&st7;   " d=" M  1270.25,   235.78  C  1270.25    238.28   1272.28    240.31   1274.79    240.31  " /><path style="stroke-width: 1.42 ;&st7;   " d=" M  1274.79,   240.31  C  1277.29    240.31   1279.32    238.28   1279.32    235.78  " /><text style="&st18;" transform="matrix(&st16;  1273.65  237.75 )">I</text><text style="&st18;" transform="matrix(&st16;  1300.09  237.75 )">1</text><path style="stroke-width: 1.42 ;&st7;   " d=" M  1313.31,   235.78  C  1313.31    233.28   1311.28    231.25   1308.78    231.25  " /><path style="stroke-width: 1.42 ;&st7;   " d=" M  1308.78,   231.25  C  1306.28    231.25   1304.25    233.28   1304.25    235.78  " /><path style="stroke-width: 1.42 ;&st7;   " d=" M  1304.25,   235.78  C  1304.25    238.28   1306.28    240.31   1308.78    240.31  " /><path style="stroke-width: 1.42 ;&st7;   " d=" M  1308.78,   240.31  C  1311.28    240.31   1313.31    238.28   1313.31    235.78  " /><text style="&st18;" transform="matrix(&st16;  1307.64  237.75 )">I</text><g ewd:figtype="title"><text style="&st18;" transform="matrix(&st17;  1324.91  234.15 )">G128(A),G129(B), <tspan x="0 " dy="6.0">G155(I)</tspan></text><text style="&st18;" transform="matrix(&st17;  1337.95  234.15 )" ewd:textID="19">No. 2 CAN <tspan x="0 " dy="6.0">Junction </tspan><tspan x="0 " dy="6.0">Connector</tspan></text></g></g><g ewd:figtype="w2w" ewd:figID="26" ewd:code="hG1"><path style="stroke-width: 1.42 ;&st7;  " d=" M  1474.50,   341.16  L  1478.75,   345.41  L  1483.00,   341.16  " /><path style="stroke-width: 1.42 ;&st7;  " d=" M  1483.00,   344.56  L  1478.75,   348.81  L  1474.50,   344.56  " /><text style="&st18;" transform="matrix(&st16;  1466.12  356.45 )">2</text></g><g ewd:figtype="w2w" ewd:figID="27" ewd:code="AG1"><path style="stroke-width: 1.42 ;&st7;  " d=" M  1483.00,   155.33  L  1478.75,   151.08  L  1474.50,   155.33  " /><path style="stroke-width: 1.42 ;&st7;  " d=" M  1483.00,   151.93  L  1478.75,   147.68  L  1474.50,   151.93  " /><text style="&st18;" transform="matrix(&st16;  1466.12  143.98 )">4</text></g></svg>