﻿<?xml version="1.0" encoding="utf-8"?>
<!DOCTYPE svg PUBLIC "-//W3C//DTD SVG 1.0//EN" "http://www.w3.org/TR/2001/REC-SVG-20010904/DTD/svg10.dtd"[
	<!ENTITY ns_flows "http://ns.adobe.com/Flows/1.0/">
	<!ENTITY ns_svg "http://www.w3.org/2000/svg">
	<!ENTITY ns_xlink "http://www.w3.org/1999/xlink">
	<!ENTITY st0 "font-size:7px;font-family:'MS-PGothic';adobe-font-script:japanese;">
	<!ENTITY st1 "font-size:6px;font-family:'ArialMT';">
	<!-- White fill  -->
	<!ENTITY st2 "fill:#FFFFFF;stroke:#000000; stroke-width:1.41;stroke-linecap:round;stroke-linejoin:round;">
	<!-- Yellow fill  -->
	<!ENTITY st3 "fill:#FFFFCC;stroke:#FFFFCC; stroke-width:0.1;stroke-linecap:round;stroke-linejoin:round;">
	<!-- Gray fill  -->
	<!ENTITY st4 "fill:#CCCCCC;stroke:#CCCCCC; stroke-width:0.1;stroke-linecap:round;stroke-linejoin:round;">
	<!-- Light-blue fill -->
	<!ENTITY st5 "fill:#CCECF4;stroke:#000000; stroke-width:1.133;stroke-linecap:round;stroke-linejoin:round;">
	<!ENTITY st6 "fill:none;stroke-linecap:butt; stroke-linejoin:round;">
	<!ENTITY st7 "fill:none;stroke:#000000;stroke-linecap:round;stroke-linejoin:round;">
	<!ENTITY st8 "enable-background:new    ;">
	<!-- Black fill -->
	<!ENTITY st9 "fill:#000000;stroke:#000000; stroke-linecap:round;stroke-linejoin:round;">
	<!-- SRS note   -->
	<!ENTITY st10 "font-size:9px;font-family:'ArialMT';">
	<!ENTITY st11 "font-size:9px;font-family:'Svg Symbol';">
	<!ENTITY st12 "font-size:6px;font-family:'Svg Symbol';">
	<!ENTITY st13 "fill:none;stroke:#ff0000;stroke-linecap:round;stroke-linejoin:round;">
	<!-- Yellow fill  -->
	<!ENTITY st14 "fill:#FFFF00;stroke:#FFFF00; stroke-width:0.1;stroke-linecap:round;stroke-linejoin:round;">
	<!ENTITY st15 "font-size:6px;font-family:'MS-PGothic';adobe-font-script:japanese;">
	<!ENTITY st16 "1.00 0.00 0.00 1.00">
	<!ENTITY st17 "0.00 -1.00 1.00 0.00">
	<!ENTITY st18 "font-size:6px;font-family:'Arial';">
	<!ENTITY st19 "font-size:9px;font-family:'Arial';">
	<!ENTITY st20 "font-size:6px;font-family:'MS-PGothic','MS PGothic';adobe-font-script:japanese;">
	<!ENTITY st21 "font-size:7px;font-family:'MS-PGothic','MS PGothic';adobe-font-script:japanese;">
	<!ATTLIST svg
		xmlns:ewd CDATA #FIXED "http://shcl.co.jp/ewd"
		xmlns:a CDATA #FIXED "http://ns.adobe.com/AdobeSVGViewerExtensions/3.0/"
		ewd:ver CDATA #IMPLIED
	>
	<!ATTLIST a
		ewd:lineID CDATA #IMPLIED
		ewd:groupID CDATA #IMPLIED
		ewd:figtype CDATA #IMPLIED
		ewd:code CDATA #IMPLIED
		ewd:figID CDATA #IMPLIED
		ewd:pinNo CDATA #IMPLIED
		ewd:comment CDATA #IMPLIED >
	<!ATTLIST g
		ewd:lineID CDATA #IMPLIED
		ewd:groupID CDATA #IMPLIED
		ewd:figtype CDATA #IMPLIED
		ewd:code CDATA #IMPLIED
		ewd:figID CDATA #IMPLIED
		ewd:pinNo CDATA #IMPLIED
		ewd:comment CDATA #IMPLIED >
	<!ATTLIST text
		ewd:textID CDATA #IMPLIED >
	<!ATTLIST title
		ewd:textID CDATA #IMPLIED >
]>
<!-- Generator: Shintec Hozumi YS   -->
<svg onload="call_execInitLoadProc_svg('system')" style="overflow:visible;  enable-background:new 0 0 12130.307 710.000" viewBox="0 0 12130.307 710.000" height="710.000" width="12130.307" xml:space="preserve" ewd:ver="2.1.2.9" xmlns="&ns_svg;" xmlns:a="http://ns.adobe.com/AdobeSVGViewerExtensions/3.0/" xmlns:ewd="http://shcl.co.jp/ewd" xmlns:xlink="&ns_xlink;">
<text style="&st18;" transform="matrix(&st17;  6483.55  125.48 )">(*3)</text><text style="&st18;" transform="matrix(&st17;  6132.28  288.19 )">W-B</text><text style="&st18;" transform="matrix(&st17;  6472.22  122.34 )">L</text><text style="&st18;" transform="matrix(&st17;  6310.75  133.09 )">GR</text><text style="&st18;" transform="matrix(&st17;  6132.28  509.16 )">W-B</text><text style="&st18;" transform="matrix(&st17;  6132.28  124.32 )">BR</text><text style="&st18;" transform="matrix(&st17;  6098.29  126.72 )">W-B</text><path style="stroke-width: 1.42 ;&st7;  " d=" M  6016.99,   265.24  L  6008.50,   265.24  " /><text style="&st18;" transform="matrix(&st17;  6004.8  216.71 )">W</text><text style="&st18;" transform="matrix(&st17;  6016.13  233.27 )">(RHD *11 *38)</text><text style="&st18;" transform="matrix(&st17;  6004.8  377.33 )">R</text><text style="&st18;" transform="matrix(&st17;  6016.13  394.74 )">(RHD *11 *38)</text><text style="&st18;" transform="matrix(&st17;  6271.09  137.12 )">(RHD)</text><text style="&st18;" transform="matrix(&st17;  6259.76  241.71 )">G</text><text style="&st18;" transform="matrix(&st17;  6271.09  247.6 )">(RHD)</text><text style="&st18;" transform="matrix(&st17;  6259.76  133.09 )">GR</text><text style="&st18;" transform="matrix(&st17;  6322.08  247.56 )">(LHD)</text><text style="&st18;" transform="matrix(&st17;  6310.75  241.71 )">G</text><text style="&st18;" transform="matrix(&st17;  6322.08  137.08 )">(LHD)</text><text style="&st18;" transform="matrix(&st17;  6310.75  390.18 )">W-B</text><text style="&st18;" transform="matrix(&st17;  6310.75  534.65 )">W-B</text><text style="&st18;" transform="matrix(&st16;  6193.39  652.48 )">L</text><text style="&st18;" transform="matrix(&st16;  6192.5  669.48 )">W</text><text style="&st18;" transform="matrix(&st16;  6244.38  652.48 )">L</text><text style="&st18;" transform="matrix(&st16;  6243.49  669.48 )">W</text><text style="&st18;" transform="matrix(&st17;  6429.73  131.22 )">G</text><text style="&st18;" transform="matrix(&st17;  6441.06  137.12 )">(RHD)</text><text style="&st18;" transform="matrix(&st17;  6378.74  131.22 )">G</text><text style="&st18;" transform="matrix(&st17;  6390.07  137.08 )">(LHD)</text><text style="&st18;" transform="matrix(&st16;  6387.53  32.08 )" ewd:textID="39">Certification ECU</text><text style="&st18;" transform="matrix(&st16;  6387.52  24.98 )">G82(A),G83(B),G84(C)</text><text style="&st18;" transform="matrix(&st17;  6143.61  290.05 )">(LHD)</text><text style="&st18;" transform="matrix(&st16;  6095.53  210.55 )">W-B</text><text style="&st18;" transform="matrix(&st16;  6093.63  221.88 )">(RHD)</text><text style="&st18;" transform="matrix(&st16;  6095.53  321.03 )">W-B</text><text style="&st18;" transform="matrix(&st16;  6093.63  332.37 )">(RHD)</text><text style="&st18;" transform="matrix(&st17;  6429.73  252.03 )">LG</text><text style="&st18;" transform="matrix(&st17;  6441.06  256.1 )">(RHD)</text><text style="&st18;" transform="matrix(&st17;  6378.74  252.03 )">LG</text><text style="&st18;" transform="matrix(&st17;  6390.07  256.06 )">(LHD)</text><g ewd:figtype="conn" ewd:figID="34" ewd:code="G94"><path style="stroke-width: 1.42 ;&st7;  " d=" M  6305.94,   197.25  L  6322.94,   197.25  L  6322.94,   214.25  L  6305.94,   214.25  L  6305.94,   197.25  " /><path style="stroke-width: 0.85 ;&st7;  " d=" M  6314.44,   197.25  L  6314.44,   214.25  " /><text style="&st18;" transform="matrix(&st16;  6305.16  222.44 )">12</text><text style="&st18;" transform="matrix(&st16;  6305.16  193.56 )">15</text><g ewd:figtype="title"><text style="&st18;" transform="matrix(&st17;  6330.55  217.15 )">G94</text><text style="&st18;" transform="matrix(&st17;  6337.66  217.16 )" ewd:textID="86">No. 7 Junction Connector</text></g></g><g ewd:figtype="conn" ewd:figID="35" ewd:code="G152"><path style="stroke-width: 0.85 ;&st7;  " d=" M  6263.45,   197.25  L  6263.45,   214.25  " /><path style="stroke-width: 1.42 ;&st7;  " d=" M  6254.95,   197.25  L  6271.95,   197.25  L  6271.95,   214.25  L  6254.95,   214.25  L  6254.95,   197.25  " /><text style="&st18;" transform="matrix(&st16;  6254.76  220.75 )">2</text><path style="stroke-width: 1.42 ;&st7;   " d=" M  6267.99,   218.78  C  6267.99    216.28   6265.96    214.25   6263.45    214.25  " /><path style="stroke-width: 1.42 ;&st7;   " d=" M  6263.45,   214.25  C  6260.95    214.25   6258.92    216.28   6258.92    218.78  " /><path style="stroke-width: 1.42 ;&st7;   " d=" M  6258.92,   218.78  C  6258.92    221.29   6260.95    223.31   6263.45    223.31  " /><path style="stroke-width: 1.42 ;&st7;   " d=" M  6263.45,   223.31  C  6265.96    223.31   6267.99    221.29   6267.99    218.78  " /><text style="&st18;" transform="matrix(&st16;  6261.27  220.75 )">B</text><text style="&st18;" transform="matrix(&st16;  6254.76  194.69 )">3</text><path style="stroke-width: 1.42 ;&st7;   " d=" M  6267.99,   192.72  C  6267.99    190.22   6265.96    188.19   6263.45    188.19  " /><path style="stroke-width: 1.42 ;&st7;   " d=" M  6263.45,   188.19  C  6260.95    188.19   6258.92    190.22   6258.92    192.72  " /><path style="stroke-width: 1.42 ;&st7;   " d=" M  6258.92,   192.72  C  6258.92    195.22   6260.95    197.25   6263.45    197.25  " /><path style="stroke-width: 1.42 ;&st7;   " d=" M  6263.45,   197.25  C  6265.96    197.25   6267.99    195.22   6267.99    192.72  " /><text style="&st18;" transform="matrix(&st16;  6261.27  194.69 )">B</text><g ewd:figtype="title"><text style="&st18;" transform="matrix(&st17;  6286.67  217.16 )" ewd:textID="91">No. 14 Junction Connector</text><text style="&st18;" transform="matrix(&st17;  6279.56  217.15 )">G152(B)</text></g></g><g ewd:figtype="conn" ewd:figID="38" ewd:code="G98"><path style="stroke-width: 0.85 ;&st7;  " d=" M  6314.44,   435.21  L  6314.44,   452.21  " /><path style="stroke-width: 1.42 ;&st7;  " d=" M  6305.94,   435.21  L  6322.94,   435.21  L  6322.94,   452.21  L  6305.94,   452.21  L  6305.94,   435.21  " /><text style="&st18;" transform="matrix(&st16;  6308.26  460.4 )">6</text><text style="&st18;" transform="matrix(&st16;  6305.16  431.52 )">11</text><g ewd:figtype="title"><text style="&st18;" transform="matrix(&st17;  6330.55  455.11 )">G98</text><text style="&st18;" transform="matrix(&st17;  6337.66  455.12 )" ewd:textID="88">No. 11 Junction Connector</text></g></g><g ewd:figtype="conn" ewd:figID="41" ewd:code="G98"><path style="stroke-width: 0.85 ;&st7;  " d=" M  6135.97,   341.73  L  6135.97,   358.73  " /><path style="stroke-width: 1.42 ;&st7;  " d=" M  6127.47,   341.73  L  6144.47,   341.73  L  6144.47,   358.73  L  6127.47,   358.73  L  6127.47,   341.73  " /><text style="&st18;" transform="matrix(&st16;  6129.79  366.92 )">6</text><text style="&st18;" transform="matrix(&st16;  6129.79  338.04 )">5</text><g ewd:figtype="title"><text style="&st18;" transform="matrix(&st17;  6152.08  361.62 )">G98</text><text style="&st18;" transform="matrix(&st17;  6159.19  361.63 )" ewd:textID="88">No. 11 Junction Connector</text></g></g><g ewd:figtype="conn" ewd:figID="79" ewd:code="G43"><path style="stroke-width: 1.42 ;&st7;  " d=" M  6288.95,   299.24  L  6288.95,   333.23  L  6339.94,   333.23  L  6339.94,   299.24  L  6288.95,   299.24  " /><text style="&st18;" transform="matrix(&st16;  6310.63  306.87 )">LP</text><text style="&st18;" transform="matrix(&st16;  6312.33  329.53 )">E</text><text style="&st18;" transform="matrix(&st16;  6302.87  315.38 )" ewd:textID="113">Security <tspan x="0 " dy="6.0">Indicator</tspan></text><text style="&st18;" transform="matrix(&st16;  6305.16  341.42 )">13</text><text style="&st18;" transform="matrix(&st16;  6305.16  295.55 )">21</text><g ewd:figtype="title"><text style="&st18;" transform="matrix(&st17;  6354.66  336.14 )" ewd:textID="120">Telltale Light <tspan x="0 " dy="6.0">Assembly</tspan></text><text style="&st18;" transform="matrix(&st17;  6347.55  336.13 )">G43</text></g></g><g ewd:figtype="conn" ewd:figID="80" ewd:code="G108"><path style="stroke-width: 0.85 ;&st7; stroke-dasharray:3, 1.5;" d=" M  6118.98,   158.73  L  6110.48,   158.73  " /><path style="stroke-width: 0.85 ;&st7; stroke-dasharray:3, 1.5;" d=" M  6110.48,   149.66  L  6123.22,   149.66  " /><path style="stroke-width: 0.85 ;&st7;  " d=" M  6134.78,   170.75  L  6134.51,   171.22  L  6134.41,   171.76  L  6134.51,   172.29  L  6134.78,   172.76  L  6135.19,   173.11  L  6135.70,   173.29  L  6136.24,   173.29  L  6136.75,   173.11  L  6137.16,   172.76  L  6137.44,   172.29  L  6137.53,   171.76  L  6137.44,   171.22  L  6137.16,   170.75  L  6136.75,   170.41  L  6136.24,   170.22  L  6135.70,   170.22  L  6135.19,   170.41  L  6134.78,   170.75  L  6135.17,   171.47  L  6135.17,   172.05  L  6135.55,   172.49  L  6136.12,   172.59  L  6136.62,   172.30  L  6136.82,   171.76  L  6136.62,   171.21  L  6136.12,   170.92  L  6135.55,   171.02  L  6135.97,   171.76  " /><path style="stroke-width: 0.85 ;&st7;  " d=" M  6135.97,   163.26  L  6135.97,   180.26  " /><path style="stroke-width: 0.85 ;&st7;  " d=" M  6101.98,   163.26  L  6101.98,   171.76  L  6135.97,   171.76  " /><path style="stroke-width: 1.42 ;&st7;  " d=" M  6050.99,   163.26  L  6050.99,   180.26  L  6144.47,   180.26  L  6144.47,   163.26  L  6050.99,   163.26  " /><path style="stroke-width: 0.85 ;&st7;  " d=" M  6059.48,   180.26  L  6059.48,   171.76  L  6084.98,   171.76  L  6084.98,   180.26  " /><text style="&st18;" transform="matrix(&st16;  6093.29  151.63 )">2</text><text style="&st18;" transform="matrix(&st16;  6090.18  160.69 )">18</text><path style="stroke-width: 1.42 ;&st7;   " d=" M  6106.51,   158.73  C  6106.51    156.22   6104.48    154.19   6101.98    154.19  " /><path style="stroke-width: 1.42 ;&st7;   " d=" M  6101.98,   154.19  C  6099.48    154.19   6097.45    156.22   6097.45    158.73  " /><path style="stroke-width: 1.42 ;&st7;   " d=" M  6097.45,   158.73  C  6097.45    161.23   6099.48    163.26   6101.98    163.26  " /><path style="stroke-width: 1.42 ;&st7;   " d=" M  6101.98,   163.26  C  6104.48    163.26   6106.51    161.23   6106.51    158.73  " /><path style="stroke-width: 1.42 ;&st7;   " d=" M  6106.51,   149.66  C  6106.51    147.16   6104.48    145.13   6101.98    145.13  " /><path style="stroke-width: 1.42 ;&st7;   " d=" M  6101.98,   145.13  C  6099.48    145.13   6097.45    147.16   6097.45    149.66  " /><path style="stroke-width: 1.42 ;&st7;   " d=" M  6097.45,   149.66  C  6097.45    152.16   6099.48    154.19   6101.98    154.19  " /><path style="stroke-width: 1.42 ;&st7;   " d=" M  6101.98,   154.19  C  6104.48    154.19   6106.51    152.16   6106.51    149.66  " /><text style="&st18;" transform="matrix(&st16;  6099.79  160.69 )">B</text><text style="&st18;" transform="matrix(&st16;  6099.68  151.63 )">A</text><text style="&st18;" transform="matrix(&st16;  6050.79  186.76 )">1</text><path style="stroke-width: 1.42 ;&st7;   " d=" M  6064.02,   184.79  C  6064.02    182.28   6061.99    180.26   6059.49    180.26  " /><path style="stroke-width: 1.42 ;&st7;   " d=" M  6059.49,   180.26  C  6056.98    180.26   6054.95    182.28   6054.95    184.79  " /><path style="stroke-width: 1.42 ;&st7;   " d=" M  6054.95,   184.79  C  6054.95    187.29   6056.98    189.32   6059.49    189.32  " /><path style="stroke-width: 1.42 ;&st7;   " d=" M  6059.49,   189.32  C  6061.99    189.32   6064.02    187.29   6064.02    184.79  " /><text style="&st18;" transform="matrix(&st16;  6057.3  186.76 )">B</text><text style="&st18;" transform="matrix(&st16;  6124.18  186.76 )">10</text><text style="&st18;" transform="matrix(&st16;  6127.28  195.82 )">1</text><text style="&st18;" transform="matrix(&st16;  6133.67  186.76 )">A</text><path style="stroke-width: 1.42 ;&st7;   " d=" M  6140.51,   193.85  C  6140.51    191.35   6138.48    189.32   6135.97    189.32  " /><path style="stroke-width: 1.42 ;&st7;   " d=" M  6135.97,   189.32  C  6133.47    189.32   6131.44    191.35   6131.44    193.85  " /><path style="stroke-width: 1.42 ;&st7;   " d=" M  6131.44,   193.85  C  6131.44    196.36   6133.47    198.39   6135.97    198.39  " /><path style="stroke-width: 1.42 ;&st7;   " d=" M  6135.97,   198.39  C  6138.48    198.39   6140.51    196.36   6140.51    193.85  " /><text style="&st18;" transform="matrix(&st16;  6133.79  195.82 )">B</text><path style="stroke-width: 1.42 ;&st7;   " d=" M  6140.51,   184.79  C  6140.51    182.28   6138.48    180.26   6135.97    180.26  " /><path style="stroke-width: 1.42 ;&st7;   " d=" M  6135.97,   180.26  C  6133.47    180.26   6131.44    182.28   6131.44    184.79  " /><path style="stroke-width: 1.42 ;&st7;   " d=" M  6131.44,   184.79  C  6131.44    187.29   6133.47    189.32   6135.97    189.32  " /><path style="stroke-width: 1.42 ;&st7;   " d=" M  6135.97,   189.32  C  6138.48    189.32   6140.51    187.29   6140.51    184.79  " /><text style="&st18;" transform="matrix(&st16;  6073.19  186.76 )">11</text><text style="&st18;" transform="matrix(&st16;  6082.8  186.76 )">B</text><path style="stroke-width: 1.42 ;&st7;   " d=" M  6089.52,   184.79  C  6089.52    182.28   6087.49    180.26   6084.98    180.26  " /><path style="stroke-width: 1.42 ;&st7;   " d=" M  6084.98,   180.26  C  6082.48    180.26   6080.45    182.28   6080.45    184.79  " /><path style="stroke-width: 1.42 ;&st7;   " d=" M  6080.45,   184.79  C  6080.45    187.29   6082.48    189.32   6084.98    189.32  " /><path style="stroke-width: 1.42 ;&st7;   " d=" M  6084.98,   189.32  C  6087.49    189.32   6089.52    187.29   6089.52    184.79  " /><text style="&st18;" transform="matrix(&st16;  6127.28  151.63 )">3</text><text style="&st18;" transform="matrix(&st16;  6124.18  160.69 )">19</text><path style="stroke-width: 1.42 ;&st7;   " d=" M  6140.51,   149.66  C  6140.51    147.16   6138.48    145.13   6135.97    145.13  " /><path style="stroke-width: 1.42 ;&st7;   " d=" M  6135.97,   145.13  C  6133.47    145.13   6131.44    147.16   6131.44    149.66  " /><path style="stroke-width: 1.42 ;&st7;   " d=" M  6131.44,   149.66  C  6131.44    152.16   6133.47    154.19   6135.97    154.19  " /><path style="stroke-width: 1.42 ;&st7;   " d=" M  6135.97,   154.19  C  6138.48    154.19   6140.51    152.16   6140.51    149.66  " /><path style="stroke-width: 1.42 ;&st7;   " d=" M  6140.51,   158.73  C  6140.51    156.22   6138.48    154.19   6135.97    154.19  " /><path style="stroke-width: 1.42 ;&st7;   " d=" M  6135.97,   154.19  C  6133.47    154.19   6131.44    156.22   6131.44    158.73  " /><path style="stroke-width: 1.42 ;&st7;   " d=" M  6131.44,   158.73  C  6131.44    161.23   6133.47    163.26   6135.97    163.26  " /><path style="stroke-width: 1.42 ;&st7;   " d=" M  6135.97,   163.26  C  6138.48    163.26   6140.51    161.23   6140.51    158.73  " /><text style="&st18;" transform="matrix(&st16;  6133.79  160.69 )">B</text><text style="&st18;" transform="matrix(&st16;  6133.67  151.63 )">A</text><g ewd:figtype="title"><text style="&st18;" transform="matrix(&st17;  6041.34  183.16 )" ewd:textID="92">No. 20 <tspan x="0 " dy="6.0">Junction Connector</tspan></text><text style="&st18;" transform="matrix(&st17;  6034.52  183.15 )">G108(A),(B)</text></g><g ewd:code="" ewd:figID="320" ewd:comment="" ewd:figtype="commref"><text style="&st18;" transform="matrix(&st16;  6141.07  195.82 )">(RHD)</text></g><g ewd:code="" ewd:figID="321" ewd:comment="" ewd:figtype="commref"><text style="&st18;" transform="matrix(&st16;  6141.07  186.76 )">(LHD)</text></g><g ewd:code="" ewd:figID="322" ewd:comment="" ewd:figtype="commref"><text style="&st18;" transform="matrix(&st16;  6141.07  151.63 )">(LHD)</text></g><g ewd:code="" ewd:figID="323" ewd:comment="" ewd:figtype="commref"><text style="&st18;" transform="matrix(&st16;  6141.07  160.69 )">(RHD)</text></g></g><g ewd:figtype="conn" ewd:figID="81" ewd:code="G82,G83,G84"><g ewd:lineID="223"><text style="&st18;" transform="matrix(&st16;  6090.18  84.77 )">15</text><path style="stroke-width: 1.42 ;&st7;   " d=" M  6106.51,    82.80  C  6106.51     80.30   6104.48     78.27   6101.98     78.27  " /><path style="stroke-width: 1.42 ;&st7;   " d=" M  6101.98,    78.27  C  6099.48     78.27   6097.45     80.30   6097.45     82.80  " /><path style="stroke-width: 1.42 ;&st7;   " d=" M  6097.45,    82.80  C  6097.45     85.31   6099.48     87.34   6101.98     87.34  " /><path style="stroke-width: 1.42 ;&st7;   " d=" M  6101.98,    87.34  C  6104.48     87.34   6106.51     85.31   6106.51     82.80  " /><text style="&st18;" transform="matrix(&st16;  6099.79  84.77 )">B</text><text style="&st18;" transform="matrix(&st16;  6095.99  74.58 )">IDW</text></g><g ewd:lineID="228"><text style="&st18;" transform="matrix(&st16;  6124.18  84.77 )">11</text><path style="stroke-width: 1.42 ;&st7;   " d=" M  6140.51,    82.80  C  6140.51     80.30   6138.48     78.27   6135.97     78.27  " /><path style="stroke-width: 1.42 ;&st7;   " d=" M  6135.97,    78.27  C  6133.47     78.27   6131.44     80.30   6131.44     82.80  " /><path style="stroke-width: 1.42 ;&st7;   " d=" M  6131.44,    82.80  C  6131.44     85.31   6133.47     87.34   6135.97     87.34  " /><path style="stroke-width: 1.42 ;&st7;   " d=" M  6135.97,    87.34  C  6138.48     87.34   6140.51     85.31   6140.51     82.80  " /><text style="&st18;" transform="matrix(&st16;  6133.67  84.77 )">A</text><text style="&st18;" transform="matrix(&st16;  6133.86  74.58 )">E</text></g><g ewd:lineID="233,234"><text style="&st18;" transform="matrix(&st16;  6302.65  84.77 )">18</text><text style="&st18;" transform="matrix(&st16;  6312.02  84.77 )">C</text><path style="stroke-width: 1.42 ;&st7;   " d=" M  6318.98,    82.80  C  6318.98     80.30   6316.95     78.27   6314.44     78.27  " /><path style="stroke-width: 1.42 ;&st7;   " d=" M  6314.44,    78.27  C  6311.94     78.27   6309.91     80.30   6309.91     82.80  " /><path style="stroke-width: 1.42 ;&st7;   " d=" M  6309.91,    82.80  C  6309.91     85.31   6311.94     87.34   6314.44     87.34  " /><path style="stroke-width: 1.42 ;&st7;   " d=" M  6314.44,    87.34  C  6316.95     87.34   6318.98     85.31   6318.98     82.80  " /><text style="&st18;" transform="matrix(&st16;  6309.12  74.58 )">IND</text></g><g ewd:lineID="236,237"><text style="&st18;" transform="matrix(&st16;  6421.63  84.77 )">27</text><text style="&st18;" transform="matrix(&st16;  6431.0  84.77 )">C</text><path style="stroke-width: 1.42 ;&st7;   " d=" M  6437.96,    82.80  C  6437.96     80.30   6435.93     78.27   6433.43     78.27  " /><path style="stroke-width: 1.42 ;&st7;   " d=" M  6433.43,    78.27  C  6430.92     78.27   6428.89     80.30   6428.89     82.80  " /><path style="stroke-width: 1.42 ;&st7;   " d=" M  6428.89,    82.80  C  6428.89     85.31   6430.92     87.34   6433.43     87.34  " /><path style="stroke-width: 1.42 ;&st7;   " d=" M  6433.43,    87.34  C  6435.93     87.34   6437.96     85.31   6437.96     82.80  " /><text style="&st18;" transform="matrix(&st16;  6427.75  74.58 )">SPD</text></g><g ewd:lineID="240"><text style="&st18;" transform="matrix(&st16;  6464.12  84.77 )">18</text><text style="&st18;" transform="matrix(&st16;  6473.61  84.77 )">A</text><path style="stroke-width: 1.42 ;&st7;   " d=" M  6480.45,    82.80  C  6480.45     80.30   6478.42     78.27   6475.92     78.27  " /><path style="stroke-width: 1.42 ;&st7;   " d=" M  6475.92,    78.27  C  6473.41     78.27   6471.39     80.30   6471.39     82.80  " /><path style="stroke-width: 1.42 ;&st7;   " d=" M  6471.39,    82.80  C  6471.39     85.31   6473.41     87.34   6475.92     87.34  " /><path style="stroke-width: 1.42 ;&st7;   " d=" M  6475.92,    87.34  C  6478.42     87.34   6480.45     85.31   6480.45     82.80  " /><text style="&st18;" transform="matrix(&st16;  6468.88  74.58 )">STP1</text></g></g><g ewd:figtype="conn" ewd:figID="85" ewd:code="G112"><path style="stroke-width: 0.85 ;&st7;  " d=" M  6433.42,   197.25  L  6433.42,   214.25  " /><path style="stroke-width: 1.42 ;&st7;  " d=" M  6424.92,   197.25  L  6441.92,   197.25  L  6441.92,   214.25  L  6424.92,   214.25  L  6424.92,   197.25  " /><text style="&st18;" transform="matrix(&st16;  6427.24  222.44 )">6</text><text style="&st18;" transform="matrix(&st16;  6424.14  193.56 )">11</text><g ewd:figtype="title"><text style="&st18;" transform="matrix(&st17;  6449.82  217.15 )">G112</text><text style="&st18;" transform="matrix(&st17;  6456.64  217.16 )" ewd:textID="96">No. 24 Junction <tspan x="0 " dy="6.0">Connector</tspan></text></g></g><g ewd:figtype="conn" ewd:figID="86" ewd:code="G108"><path style="stroke-width: 0.85 ;&st7;  " d=" M  6382.43,   197.25  L  6382.43,   214.25  " /><path style="stroke-width: 1.42 ;&st7;  " d=" M  6373.93,   197.25  L  6390.93,   197.25  L  6390.93,   214.25  L  6373.93,   214.25  L  6373.93,   197.25  " /><text style="&st18;" transform="matrix(&st16;  6370.64  194.69 )">12</text><text style="&st18;" transform="matrix(&st16;  6380.13  194.69 )">A</text><path style="stroke-width: 1.42 ;&st7;   " d=" M  6386.97,   192.72  C  6386.97    190.22   6384.94    188.19   6382.43    188.19  " /><path style="stroke-width: 1.42 ;&st7;   " d=" M  6382.43,   188.19  C  6379.93    188.19   6377.90    190.22   6377.90    192.72  " /><path style="stroke-width: 1.42 ;&st7;   " d=" M  6377.90,   192.72  C  6377.90    195.22   6379.93    197.25   6382.43    197.25  " /><path style="stroke-width: 1.42 ;&st7;   " d=" M  6382.43,   197.25  C  6384.94    197.25   6386.97    195.22   6386.97    192.72  " /><text style="&st18;" transform="matrix(&st16;  6370.64  220.75 )">22</text><text style="&st18;" transform="matrix(&st16;  6380.13  220.75 )">A</text><path style="stroke-width: 1.42 ;&st7;   " d=" M  6386.97,   218.78  C  6386.97    216.28   6384.94    214.25   6382.43    214.25  " /><path style="stroke-width: 1.42 ;&st7;   " d=" M  6382.43,   214.25  C  6379.93    214.25   6377.90    216.28   6377.90    218.78  " /><path style="stroke-width: 1.42 ;&st7;   " d=" M  6377.90,   218.78  C  6377.90    221.29   6379.93    223.31   6382.43    223.31  " /><path style="stroke-width: 1.42 ;&st7;   " d=" M  6382.43,   223.31  C  6384.94    223.31   6386.97    221.29   6386.97    218.78  " /><g ewd:figtype="title"><text style="&st18;" transform="matrix(&st17;  6405.65  217.16 )" ewd:textID="92">No. 20 Junction <tspan x="0 " dy="6.0">Connector</tspan></text><text style="&st18;" transform="matrix(&st17;  6398.54  217.15 )">G108(A)</text></g></g><g ewd:figtype="gp" ewd:figID="254" ewd:code="GD"><path style="stroke-width: 0.85 ;&st7;  " d=" M  6134.56,   710.00  L  6137.39,   710.00  " /><path style="stroke-width: 0.85 ;&st7;  " d=" M  6133.14,   707.17  L  6138.81,   707.17  " /><path style="stroke-width: 0.85 ;&st7;  " d=" M  6131.72,   704.33  L  6140.22,   704.33  " /><path style="stroke-width: 0.85 ;&st7;  " d=" M  6127.47,   701.50  L  6144.47,   701.50  " /><path style="stroke-width: 0.85 ;&st7;  " d=" M  6135.97,   697.25  L  6135.97,   701.50  " /></g><g ewd:figtype="gp" ewd:figID="255" ewd:code="GD"><path style="stroke-width: 0.85 ;&st7;  " d=" M  6314.44,   697.25  L  6314.44,   701.50  " /><path style="stroke-width: 0.85 ;&st7;  " d=" M  6305.94,   701.50  L  6322.94,   701.50  " /><path style="stroke-width: 0.85 ;&st7;  " d=" M  6310.19,   704.33  L  6318.69,   704.33  " /><path style="stroke-width: 0.85 ;&st7;  " d=" M  6311.61,   707.17  L  6317.28,   707.17  " /><path style="stroke-width: 0.85 ;&st7;  " d=" M  6313.03,   710.00  L  6315.86,   710.00  " /></g><g ewd:code="13" ewd:figID="384" ewd:comment="" ewd:figtype="comment"><text style="&st18;" transform="matrix(&st16;  6498.01  471.18 )" ewd:textID="9">*13 :w/ VSC</text></g><g ewd:code="10" ewd:figID="381" ewd:comment="" ewd:figtype="comment"><text style="&st18;" transform="matrix(&st16;  6498.01  462.68 )" ewd:textID="6">*10 :w/o Stop &amp; Start System</text></g><g ewd:code="14" ewd:figID="385" ewd:comment="" ewd:figtype="comment"><text style="&st18;" transform="matrix(&st16;  6498.01  479.67 )" ewd:textID="10">*14 :w/o VSC</text></g><g ewd:code="32" ewd:figID="400" ewd:comment="" ewd:figtype="comment"><text style="&st18;" transform="matrix(&st16;  6498.01  488.17 )" ewd:textID="21">*32 :Europe, Australia</text></g><g ewd:code="9" ewd:figID="312" ewd:comment="" ewd:figtype="comment"><text style="&st18;" transform="matrix(&st16;  6498.01  454.18 )" ewd:textID="5">* 9 :w/ Stop &amp; Start System</text></g><g ewd:code="3" ewd:figID="311" ewd:comment="" ewd:figtype="comment"><text style="&st18;" transform="matrix(&st16;  6498.01  445.68 )">* 3 :A/T, CVT</text></g><g ewd:code="33" ewd:figID="399" ewd:comment="" ewd:figtype="comment"><text style="&st18;" transform="matrix(&st16;  6498.01  496.67 )" ewd:textID="22">*33 :Except Europe, Australia</text></g></svg>