﻿<?xml version="1.0" encoding="utf-8"?>
<!DOCTYPE svg PUBLIC "-//W3C//DTD SVG 1.0//EN" "http://www.w3.org/TR/2001/REC-SVG-20010904/DTD/svg10.dtd"[
	<!ENTITY ns_flows "http://ns.adobe.com/Flows/1.0/">
	<!ENTITY ns_svg "http://www.w3.org/2000/svg">
	<!ENTITY ns_xlink "http://www.w3.org/1999/xlink">
	<!ENTITY st0 "font-size:7px;font-family:'MS-PGothic';adobe-font-script:japanese;">
	<!ENTITY st1 "font-size:6px;font-family:'ArialMT';">
	<!-- White fill  -->
	<!ENTITY st2 "fill:#FFFFFF;stroke:#000000; stroke-width:1.41;stroke-linecap:round;stroke-linejoin:round;">
	<!-- Yellow fill  -->
	<!ENTITY st3 "fill:#FFFFCC;stroke:#FFFFCC; stroke-width:0.1;stroke-linecap:round;stroke-linejoin:round;">
	<!-- Gray fill  -->
	<!ENTITY st4 "fill:#CCCCCC;stroke:#CCCCCC; stroke-width:0.1;stroke-linecap:round;stroke-linejoin:round;">
	<!-- Light-blue fill -->
	<!ENTITY st5 "fill:#CCECF4;stroke:#000000; stroke-width:1.133;stroke-linecap:round;stroke-linejoin:round;">
	<!ENTITY st6 "fill:none;stroke-linecap:butt; stroke-linejoin:round;">
	<!ENTITY st7 "fill:none;stroke:#000000;stroke-linecap:round;stroke-linejoin:round;">
	<!ENTITY st8 "enable-background:new    ;">
	<!-- Black fill -->
	<!ENTITY st9 "fill:#000000;stroke:#000000; stroke-linecap:round;stroke-linejoin:round;">
	<!-- SRS note   -->
	<!ENTITY st10 "font-size:9px;font-family:'ArialMT';">
	<!ENTITY st11 "font-size:9px;font-family:'Svg Symbol';">
	<!ENTITY st12 "font-size:6px;font-family:'Svg Symbol';">
	<!ENTITY st13 "fill:none;stroke:#ff0000;stroke-linecap:round;stroke-linejoin:round;">
	<!-- Yellow fill  -->
	<!ENTITY st14 "fill:#FFFF00;stroke:#FFFF00; stroke-width:0.1;stroke-linecap:round;stroke-linejoin:round;">
	<!ENTITY st15 "font-size:6px;font-family:'MS-PGothic';adobe-font-script:japanese;">
	<!ENTITY st16 "1.00 0.00 0.00 1.00">
	<!ENTITY st17 "0.00 -1.00 1.00 0.00">
	<!ENTITY st18 "font-size:6px;font-family:'Arial';">
	<!ENTITY st19 "font-size:9px;font-family:'Arial';">
	<!ENTITY st20 "font-size:6px;font-family:'MS-PGothic','MS PGothic';adobe-font-script:japanese;">
	<!ENTITY st21 "font-size:7px;font-family:'MS-PGothic','MS PGothic';adobe-font-script:japanese;">
	<!ATTLIST svg
		xmlns:ewd CDATA #FIXED "http://shcl.co.jp/ewd"
		xmlns:a CDATA #FIXED "http://ns.adobe.com/AdobeSVGViewerExtensions/3.0/"
		ewd:ver CDATA #IMPLIED
	>
	<!ATTLIST a
		ewd:lineID CDATA #IMPLIED
		ewd:groupID CDATA #IMPLIED
		ewd:figtype CDATA #IMPLIED
		ewd:code CDATA #IMPLIED
		ewd:figID CDATA #IMPLIED
		ewd:pinNo CDATA #IMPLIED
		ewd:comment CDATA #IMPLIED >
	<!ATTLIST g
		ewd:lineID CDATA #IMPLIED
		ewd:groupID CDATA #IMPLIED
		ewd:figtype CDATA #IMPLIED
		ewd:code CDATA #IMPLIED
		ewd:figID CDATA #IMPLIED
		ewd:pinNo CDATA #IMPLIED
		ewd:comment CDATA #IMPLIED >
	<!ATTLIST text
		ewd:textID CDATA #IMPLIED >
	<!ATTLIST title
		ewd:textID CDATA #IMPLIED >
]>
<!-- Generator: Shintec Hozumi YS   -->
<svg onload="call_execInitLoadProc_svg('system')" style="overflow:visible;  enable-background:new 0 0 10711.044 710.000" viewBox="0 0 10711.044 710.000" height="710.000" width="10711.044" xml:space="preserve" ewd:ver="2.1.2.9" xmlns="&ns_svg;" xmlns:a="http://ns.adobe.com/AdobeSVGViewerExtensions/3.0/" xmlns:ewd="http://shcl.co.jp/ewd" xmlns:xlink="&ns_xlink;">
<path style="stroke-width: 1.42 ;&st7;  " d=" M  3348.44,   554.19  L  3356.94,   554.19  " /><text style="&st18;" transform="matrix(&st17;  3353.24  589.76 )">L</text><text style="&st18;" transform="matrix(&st17;  3132.28  646.76 )">B-DG</text><text style="&st18;" transform="matrix(&st17;  3166.28  646.76 )">B-DG</text><text style="&st18;" transform="matrix(&st16;  3232.4  457.01 )">B-L</text><text style="&st18;" transform="matrix(&st16;  3370.53  32.08 )" ewd:textID="14">Certification ECU</text><text style="&st18;" transform="matrix(&st16;  3370.52  24.98 )">G82(A),G83(B),G84(C)</text><g ewd:code="B85,B86,C3" ewd:figID="3" ewd:comment="7,6" ewd:figtype="conn"><path style="stroke-width: 0.85 ;&st7;  " d=" M  3161.47,   528.70  L  3178.47,   528.70  " /><path style="stroke-width: 0.85 ;&st7;  " d=" M  3161.47,   548.53  L  3178.47,   548.53  " /><path style="stroke-width: 0.85 ;&st7;  " d=" M  3169.97,   528.70  L  3169.97,   511.70  " /><path style="stroke-width: 0.85 ;&st7;  " d=" M  3169.97,   554.19  L  3169.97,   571.19  " /><path style="stroke-width: 0.85 ;&st7;  " d=" M  3169.97,   534.36  L  3169.97,   537.20  " /><path style="stroke-width: 0.85 ;&st7;  " d=" M  3169.97,   540.03  L  3169.97,   542.86  " /><path style="stroke-width: 0.85 ;&st7;  " d=" M  3169.97,   545.69  L  3169.97,   548.53  " /><path style="stroke-width: 1.42 ;&st7;  " d=" M  3174.22,   534.36  L  3165.72,   534.36  L  3165.72,   532.95  L  3174.22,   532.95  L  3174.22,   534.36  " /><path style="stroke-width: 1.42 ;&st7;  " d=" M  3174.22,   554.19  L  3174.22,   552.78  L  3165.72,   552.78  L  3165.72,   554.19  L  3174.22,   554.19  " /><path style="stroke-width: 1.42 ;&st7;  " d=" M  3152.97,   511.70  L  3186.97,   511.70  L  3186.97,   571.19  L  3152.97,   571.19  L  3152.97,   511.70  " /><text style="&st18;" transform="matrix(&st16;  3161.28  577.69 )">1</text><text style="&st18;" transform="matrix(&st16;  3161.28  586.76 )">1</text><path style="stroke-width: 1.42 ;&st7;   " d=" M  3174.50,   575.72  C  3174.50    573.22   3172.47    571.19   3169.97    571.19  " /><path style="stroke-width: 1.42 ;&st7;   " d=" M  3169.97,   571.19  C  3167.47    571.19   3165.44    573.22   3165.44    575.72  " /><path style="stroke-width: 1.42 ;&st7;   " d=" M  3165.44,   575.72  C  3165.44    578.23   3167.47    580.26   3169.97    580.26  " /><path style="stroke-width: 1.42 ;&st7;   " d=" M  3169.97,   580.26  C  3172.47    580.26   3174.50    578.23   3174.50    575.72  " /><text style="&st18;" transform="matrix(&st16;  3167.55  586.76 )">C</text><path style="stroke-width: 1.42 ;&st7;   " d=" M  3174.50,   584.79  C  3174.50    582.28   3172.47    580.26   3169.97    580.26  " /><path style="stroke-width: 1.42 ;&st7;   " d=" M  3169.97,   580.26  C  3167.47    580.26   3165.44    582.28   3165.44    584.79  " /><path style="stroke-width: 1.42 ;&st7;   " d=" M  3165.44,   584.79  C  3165.44    587.29   3167.47    589.32   3169.97    589.32  " /><path style="stroke-width: 1.42 ;&st7;   " d=" M  3169.97,   589.32  C  3172.47    589.32   3174.50    587.29   3174.50    584.79  " /><text style="&st18;" transform="matrix(&st16;  3167.78  577.69 )">B</text><text style="&st18;" transform="matrix(&st16;  3161.28  509.14 )">1</text><path style="stroke-width: 1.42 ;&st7;   " d=" M  3174.50,   507.17  C  3174.50    504.66   3172.47    502.63   3169.97    502.63  " /><path style="stroke-width: 1.42 ;&st7;   " d=" M  3169.97,   502.63  C  3167.47    502.63   3165.44    504.66   3165.44    507.17  " /><path style="stroke-width: 1.42 ;&st7;   " d=" M  3165.44,   507.17  C  3165.44    509.67   3167.47    511.70   3169.97    511.70  " /><path style="stroke-width: 1.42 ;&st7;   " d=" M  3169.97,   511.70  C  3172.47    511.70   3174.50    509.67   3174.50    507.17  " /><text style="&st18;" transform="matrix(&st16;  3167.59  509.14 )">D</text><g ewd:figtype="title"><text style="&st18;" transform="matrix(&st17;  3201.69  574.1 )" ewd:textID="10">Battery</text><text style="&st18;" transform="matrix(&st17;  3194.58  574.09 )">B85(B),B86(C),C3(D)</text></g><g ewd:code="" ewd:figID="241" ewd:comment="7" ewd:figtype="commref"><text style="&st18;" transform="matrix(&st16;  3175.06  586.76 )">(*7)</text></g><g ewd:code="" ewd:figID="242" ewd:comment="6" ewd:figtype="commref"><text style="&st18;" transform="matrix(&st16;  3175.06  577.69 )">(*6)</text></g></g><g ewd:figtype="conn" ewd:figID="50" ewd:code="B6,C5"><path style="stroke-width: 0.85 ;&st7;  " d=" M  3356.94,   647.68  L  3356.94,   622.18  " /><path style="stroke-width: 1.42 ;&st7;  " d=" M  3314.45,   632.10  L  3310.20,   649.09  " /><path style="stroke-width: 0.85 ;&st7;  " d=" M  3368.27,   664.67  L  3382.43,   664.67  " /><path style="stroke-width: 0.85 ;&st7;  " d=" M  3315.86,   647.68  L  3335.69,   647.68  " /><path style="stroke-width: 0.85 ;&st7;  " d=" M  3352.69,   647.68  L  3361.19,   647.68  " /><path style="stroke-width: 0.85 ;&st7;   " d=" M  3378.19,   647.68  C  3378.19    645.72   3376.60    644.14   3374.64    644.14  " /><path style="stroke-width: 0.85 ;&st7;   " d=" M  3374.64,   644.14  C  3372.69    644.14   3371.10    645.72   3371.10    647.68  " /><path style="stroke-width: 0.85 ;&st7;   " d=" M  3371.10,   647.68  C  3371.10    648.67   3371.46    649.51   3372.17    650.21  " /><path style="stroke-width: 0.85 ;&st7;   " d=" M  3372.17,   650.21  C  3373.56    648.84   3373.59    646.60   3372.22    645.20  " /><path style="stroke-width: 0.85 ;&st7;   " d=" M  3372.22,   645.20  C  3370.85    643.80   3368.61    643.78   3367.21    645.15  " /><path style="stroke-width: 0.85 ;&st7;   " d=" M  3367.21,   645.15  C  3365.81    646.52   3365.79    648.76   3367.16    650.16  " /><path style="stroke-width: 0.85 ;&st7;   " d=" M  3367.16,   650.16  C  3367.17    650.17   3367.19    650.19   3367.21    650.21  " /><path style="stroke-width: 0.85 ;&st7;   " d=" M  3367.21,   650.21  C  3368.61    648.84   3368.63    646.60   3367.26    645.20  " /><path style="stroke-width: 0.85 ;&st7;   " d=" M  3367.26,   645.20  C  3365.89    643.80   3363.65    643.78   3362.25    645.15  " /><path style="stroke-width: 0.85 ;&st7;   " d=" M  3362.25,   645.15  C  3361.54    645.84   3361.19    646.69   3361.19    647.68  " /><path style="stroke-width: 0.85 ;&st7;   " d=" M  3352.69,   647.68  C  3352.69    645.72   3351.10    644.14   3349.15    644.14  " /><path style="stroke-width: 0.85 ;&st7;   " d=" M  3349.15,   644.14  C  3347.19    644.14   3345.61    645.72   3345.61    647.68  " /><path style="stroke-width: 0.85 ;&st7;   " d=" M  3345.61,   647.68  C  3345.61    648.67   3345.96    649.51   3346.67    650.21  " /><path style="stroke-width: 0.85 ;&st7;   " d=" M  3346.67,   650.21  C  3348.07    648.84   3348.09    646.60   3346.72    645.20  " /><path style="stroke-width: 0.85 ;&st7;   " d=" M  3346.72,   645.20  C  3345.35    643.80   3343.11    643.78   3341.71    645.15  " /><path style="stroke-width: 0.85 ;&st7;   " d=" M  3341.71,   645.15  C  3340.32    646.52   3340.29    648.76   3341.66    650.16  " /><path style="stroke-width: 0.85 ;&st7;   " d=" M  3341.66,   650.16  C  3341.68    650.17   3341.69    650.19   3341.71    650.21  " /><path style="stroke-width: 0.85 ;&st7;   " d=" M  3341.71,   650.21  C  3343.11    648.84   3343.13    646.60   3341.76    645.20  " /><path style="stroke-width: 0.85 ;&st7;   " d=" M  3341.76,   645.20  C  3340.39    643.80   3338.15    643.78   3336.75    645.15  " /><path style="stroke-width: 0.85 ;&st7;   " d=" M  3336.75,   645.15  C  3336.05    645.84   3335.69    646.69   3335.69    647.68  " /><path style="stroke-width: 0.85 ;&st7;   " d=" M  3315.86,   630.68  C  3315.86    629.90   3315.23    629.26   3314.45    629.26  " /><path style="stroke-width: 0.85 ;&st7;   " d=" M  3314.45,   629.26  C  3313.66    629.26   3313.03    629.90   3313.03    630.68  " /><path style="stroke-width: 0.85 ;&st7;   " d=" M  3313.03,   630.68  C  3313.03    631.46   3313.66    632.10   3314.45    632.10  " /><path style="stroke-width: 0.85 ;&st7;   " d=" M  3314.45,   632.10  C  3315.23    632.10   3315.86    631.46   3315.86    630.68  " /><path style="stroke-width: 0.85 ;&st7;   " d=" M  3315.86,   647.68  C  3315.86    646.89   3315.23    646.26   3314.45    646.26  " /><path style="stroke-width: 0.85 ;&st7;   " d=" M  3314.45,   646.26  C  3313.66    646.26   3313.03    646.89   3313.03    647.68  " /><path style="stroke-width: 0.85 ;&st7;   " d=" M  3313.03,   647.68  C  3313.03    648.46   3313.66    649.09   3314.45    649.09  " /><path style="stroke-width: 0.85 ;&st7;   " d=" M  3314.45,   649.09  C  3315.23    649.09   3315.86    648.46   3315.86    647.68  " /><path style="stroke-width: 1.42 ;&st7;   " d=" M  3365.44,   664.67  C  3365.44    659.98   3361.63    656.18   3356.94    656.18  " /><path style="stroke-width: 1.42 ;&st7;   " d=" M  3356.94,   656.18  C  3352.25    656.18   3348.44    659.98   3348.44    664.67  " /><path style="stroke-width: 1.42 ;&st7;   " d=" M  3348.44,   664.67  C  3348.44    669.37   3352.25    673.17   3356.94    673.17  " /><path style="stroke-width: 1.42 ;&st7;   " d=" M  3356.94,   673.17  C  3361.63    673.17   3365.44    669.37   3365.44    664.67  " /><path style="stroke-width: 0.85 ;&st7;  " d=" M  3381.24,   663.67  L  3380.97,   664.14  L  3380.88,   664.67  L  3380.97,   665.21  L  3381.24,   665.68  L  3381.65,   666.02  L  3382.16,   666.21  L  3382.70,   666.21  L  3383.21,   666.02  L  3383.63,   665.68  L  3383.90,   665.21  L  3383.99,   664.67  L  3383.90,   664.14  L  3383.63,   663.67  L  3383.21,   663.33  L  3382.70,   663.14  L  3382.16,   663.14  L  3381.65,   663.33  L  3381.24,   663.67  L  3381.63,   664.38  L  3381.63,   664.97  L  3382.01,   665.41  L  3382.58,   665.51  L  3383.08,   665.22  L  3383.28,   664.67  L  3383.08,   664.13  L  3382.58,   663.84  L  3382.01,   663.94  L  3382.43,   664.67  " /><path style="stroke-width: 0.85 ;&st7;  " d=" M  3330.25,   646.67  L  3329.98,   647.14  L  3329.88,   647.68  L  3329.98,   648.21  L  3330.25,   648.68  L  3330.66,   649.03  L  3331.17,   649.21  L  3331.71,   649.21  L  3332.22,   649.03  L  3332.63,   648.68  L  3332.91,   648.21  L  3333.00,   647.68  L  3332.91,   647.14  L  3332.63,   646.67  L  3332.22,   646.33  L  3331.71,   646.14  L  3331.17,   646.14  L  3330.66,   646.33  L  3330.25,   646.67  L  3330.64,   647.39  L  3330.64,   647.97  L  3331.02,   648.41  L  3331.59,   648.51  L  3332.09,   648.22  L  3332.29,   647.68  L  3332.09,   647.13  L  3331.59,   646.84  L  3331.02,   646.94  L  3331.44,   647.68  " /><path style="stroke-width: 0.85 ;&st7;  " d=" M  3331.44,   647.68  L  3331.44,   664.67  L  3345.61,   664.67  " /><path style="stroke-width: 1.42 ;&st7;  " d=" M  3390.93,   681.67  L  3297.45,   681.67  L  3297.45,   622.18  L  3390.93,   622.18  L  3390.93,   681.67  " /><path style="stroke-width: 1.42 ;&st7;  " d=" M  3349.57,   660.42  L  3345.61,   660.42  L  3345.61,   668.92  L  3349.57,   668.92  " /><path style="stroke-width: 1.42 ;&st7;  " d=" M  3364.30,   660.42  L  3368.27,   660.42  L  3368.27,   668.92  L  3364.30,   668.92  " /><path style="stroke-width: 0.85 ;&st7;  " d=" M  3314.44,   622.18  L  3314.44,   629.26  " /><text style="&st18;" transform="matrix(&st16;  3354.21  666.64 )">M</text><path style="stroke-width: 0.85 ;&st7;  " d=" M  3355.75,   646.67  L  3355.47,   647.14  L  3355.38,   647.68  L  3355.47,   648.21  L  3355.75,   648.68  L  3356.16,   649.03  L  3356.67,   649.21  L  3357.21,   649.21  L  3357.72,   649.03  L  3358.13,   648.68  L  3358.40,   648.21  L  3358.50,   647.68  L  3358.40,   647.14  L  3358.13,   646.67  L  3357.72,   646.33  L  3357.21,   646.14  L  3356.67,   646.14  L  3356.16,   646.33  L  3355.75,   646.67  L  3356.14,   647.39  L  3356.14,   647.97  L  3356.51,   648.41  L  3357.08,   648.51  L  3357.59,   648.22  L  3357.79,   647.68  L  3357.59,   647.13  L  3357.08,   646.84  L  3356.51,   646.94  L  3356.94,   647.68  " /><text style="&st18;" transform="matrix(&st16;  3305.75  619.62 )">1</text><text style="&st18;" transform="matrix(&st16;  3312.26  619.62 )">B</text><path style="stroke-width: 1.42 ;&st7;   " d=" M  3318.98,   617.65  C  3318.98    615.15   3316.95    613.12   3314.45    613.12  " /><path style="stroke-width: 1.42 ;&st7;   " d=" M  3314.45,   613.12  C  3311.94    613.12   3309.91    615.15   3309.91    617.65  " /><path style="stroke-width: 1.42 ;&st7;   " d=" M  3309.91,   617.65  C  3309.91    620.15   3311.94    622.18   3314.45    622.18  " /><path style="stroke-width: 1.42 ;&st7;   " d=" M  3314.45,   622.18  C  3316.95    622.18   3318.98    620.15   3318.98    617.65  " /><text style="&st18;" transform="matrix(&st16;  3348.25  619.62 )">1</text><text style="&st18;" transform="matrix(&st16;  3354.63  619.62 )">A</text><path style="stroke-width: 1.42 ;&st7;   " d=" M  3361.47,   617.65  C  3361.47    615.15   3359.44    613.12   3356.94    613.12  " /><path style="stroke-width: 1.42 ;&st7;   " d=" M  3356.94,   613.12  C  3354.44    613.12   3352.41    615.15   3352.41    617.65  " /><path style="stroke-width: 1.42 ;&st7;   " d=" M  3352.41,   617.65  C  3352.41    620.15   3354.44    622.18   3356.94    622.18  " /><path style="stroke-width: 1.42 ;&st7;   " d=" M  3356.94,   622.18  C  3359.44    622.18   3361.47    620.15   3361.47    617.65  " /><g ewd:figtype="title"><text style="&st18;" transform="matrix(&st17;  3398.54  684.57 )">B6(A),C5(B)</text><text style="&st18;" transform="matrix(&st17;  3405.65  684.58 )" ewd:textID="79">Starter Assembly</text></g></g><g ewd:figtype="w2w" ewd:figID="130" ewd:code="BA3"><path style="stroke-width: 1.42 ;&st7;  " d=" M  3352.69,   545.13  L  3356.94,   549.38  L  3361.19,   545.13  " /><path style="stroke-width: 1.42 ;&st7;  " d=" M  3361.19,   548.53  L  3356.94,   552.78  L  3352.69,   548.53  " /><text style="&st18;" transform="matrix(&st16;  3344.31  560.41 )">6</text></g><g ewd:figtype="gp" ewd:figID="188" ewd:code="BE"><path style="stroke-width: 0.85 ;&st7;  " d=" M  3135.97,   697.25  L  3135.97,   701.50  " /><path style="stroke-width: 0.85 ;&st7;  " d=" M  3127.48,   701.50  L  3144.47,   701.50  " /><path style="stroke-width: 0.85 ;&st7;  " d=" M  3131.73,   704.33  L  3140.22,   704.33  " /><path style="stroke-width: 0.85 ;&st7;  " d=" M  3133.14,   707.17  L  3138.81,   707.17  " /><path style="stroke-width: 0.85 ;&st7;  " d=" M  3134.56,   710.00  L  3137.39,   710.00  " /></g><g ewd:figtype="gp" ewd:figID="189" ewd:code="BF"><path style="stroke-width: 0.85 ;&st7;  " d=" M  3169.97,   697.25  L  3169.97,   701.50  " /><path style="stroke-width: 0.85 ;&st7;  " d=" M  3161.47,   701.50  L  3178.47,   701.50  " /><path style="stroke-width: 0.85 ;&st7;  " d=" M  3165.72,   704.33  L  3174.22,   704.33  " /><path style="stroke-width: 0.85 ;&st7;  " d=" M  3167.14,   707.17  L  3172.80,   707.17  " /><path style="stroke-width: 0.85 ;&st7;  " d=" M  3168.55,   710.00  L  3171.39,   710.00  " /></g><g ewd:figtype="annex" ewd:figID="240" ewd:code=" "><path style="stroke-width: 0.85 ;&st7;  " d=" M  3378.18,   693.00  L  3386.68,   693.00  " /><path style="stroke-width: 0.85 ;&st7;  " d=" M  3378.18,   693.00  L  3386.68,   693.00  " /><path style="stroke-width: 0.85 ;&st7;  " d=" M  3378.18,   647.68  L  3382.43,   647.68  L  3382.43,   690.17  " /><path style="stroke-width: 0.85 ;&st7;  " d=" M  3378.18,   647.68  L  3382.43,   647.68  L  3382.43,   690.17  " /><path style="stroke-width: 0.85 ;&st7;  " d=" M  3379.60,   695.84  L  3385.27,   695.84  " /><path style="stroke-width: 0.85 ;&st7;  " d=" M  3379.60,   695.84  L  3385.27,   695.84  " /><path style="stroke-width: 0.85 ;&st7;  " d=" M  3373.93,   690.17  L  3390.93,   690.17  " /><path style="stroke-width: 0.85 ;&st7;  " d=" M  3373.93,   690.17  L  3390.93,   690.17  " /><path style="stroke-width: 0.85 ;&st7;  " d=" M  3381.02,   698.67  L  3383.85,   698.67  " /><path style="stroke-width: 0.85 ;&st7;  " d=" M  3381.02,   698.67  L  3383.85,   698.67  " /><path style="stroke-width: 0.85 ;&st7;  " d=" M  3378.18,   693.00  L  3386.68,   693.00  " /><path style="stroke-width: 0.85 ;&st7;  " d=" M  3378.18,   693.00  L  3386.68,   693.00  " /><path style="stroke-width: 0.85 ;&st7;  " d=" M  3378.18,   647.68  L  3382.43,   647.68  L  3382.43,   690.17  " /><path style="stroke-width: 0.85 ;&st7;  " d=" M  3378.18,   647.68  L  3382.43,   647.68  L  3382.43,   690.17  " /><path style="stroke-width: 0.85 ;&st7;  " d=" M  3379.60,   695.84  L  3385.27,   695.84  " /><path style="stroke-width: 0.85 ;&st7;  " d=" M  3373.93,   690.17  L  3390.93,   690.17  " /><path style="stroke-width: 0.85 ;&st7;  " d=" M  3373.93,   690.17  L  3390.93,   690.17  " /><path style="stroke-width: 0.85 ;&st7;  " d=" M  3379.60,   695.84  L  3385.27,   695.84  " /><path style="stroke-width: 0.85 ;&st7;  " d=" M  3381.02,   698.67  L  3383.85,   698.67  " /><path style="stroke-width: 0.85 ;&st7;  " d=" M  3381.02,   698.67  L  3383.85,   698.67  " /></g><g ewd:code="6" ewd:figID="238" ewd:comment="" ewd:figtype="comment"><text style="&st18;" transform="matrix(&st16;  3192.06  335.2 )">* 6 :4WD</text></g><g ewd:code="7" ewd:figID="239" ewd:comment="" ewd:figtype="comment"><text style="&st18;" transform="matrix(&st16;  3192.06  343.7 )">* 7 :2WD</text></g></svg>