﻿<?xml version="1.0" encoding="utf-8"?>
<!DOCTYPE svg PUBLIC "-//W3C//DTD SVG 1.0//EN" "http://www.w3.org/TR/2001/REC-SVG-20010904/DTD/svg10.dtd"[
	<!ENTITY ns_flows "http://ns.adobe.com/Flows/1.0/">
	<!ENTITY ns_svg "http://www.w3.org/2000/svg">
	<!ENTITY ns_xlink "http://www.w3.org/1999/xlink">
	<!ENTITY st0 "font-size:7px;font-family:'MS-PGothic';adobe-font-script:japanese;">
	<!ENTITY st1 "font-size:6px;font-family:'ArialMT';">
	<!-- White fill  -->
	<!ENTITY st2 "fill:#FFFFFF;stroke:#000000; stroke-width:1.41;stroke-linecap:round;stroke-linejoin:round;">
	<!-- Yellow fill  -->
	<!ENTITY st3 "fill:#FFFFCC;stroke:#FFFFCC; stroke-width:0.1;stroke-linecap:round;stroke-linejoin:round;">
	<!-- Gray fill  -->
	<!ENTITY st4 "fill:#CCCCCC;stroke:#CCCCCC; stroke-width:0.1;stroke-linecap:round;stroke-linejoin:round;">
	<!-- Light-blue fill -->
	<!ENTITY st5 "fill:#CCECF4;stroke:#000000; stroke-width:1.133;stroke-linecap:round;stroke-linejoin:round;">
	<!ENTITY st6 "fill:none;stroke-linecap:butt; stroke-linejoin:round;">
	<!ENTITY st7 "fill:none;stroke:#000000;stroke-linecap:round;stroke-linejoin:round;">
	<!ENTITY st8 "enable-background:new    ;">
	<!-- Black fill -->
	<!ENTITY st9 "fill:#000000;stroke:#000000; stroke-linecap:round;stroke-linejoin:round;">
	<!-- SRS note   -->
	<!ENTITY st10 "font-size:9px;font-family:'ArialMT';">
	<!ENTITY st11 "font-size:9px;font-family:'Svg Symbol';">
	<!ENTITY st12 "font-size:6px;font-family:'Svg Symbol';">
	<!ENTITY st13 "fill:none;stroke:#ff0000;stroke-linecap:round;stroke-linejoin:round;">
	<!-- Yellow fill  -->
	<!ENTITY st14 "fill:#FFFF00;stroke:#FFFF00; stroke-width:0.1;stroke-linecap:round;stroke-linejoin:round;">
	<!ENTITY st15 "font-size:6px;font-family:'MS-PGothic';adobe-font-script:japanese;">
	<!ENTITY st16 "1.00 0.00 0.00 1.00">
	<!ENTITY st17 "0.00 -1.00 1.00 0.00">
	<!ENTITY st18 "font-size:6px;font-family:'Arial';">
	<!ENTITY st19 "font-size:9px;font-family:'Arial';">
	<!ENTITY st20 "font-size:6px;font-family:'MS-PGothic','MS PGothic';adobe-font-script:japanese;">
	<!ENTITY st21 "font-size:7px;font-family:'MS-PGothic','MS PGothic';adobe-font-script:japanese;">
	<!ATTLIST svg
		xmlns:ewd CDATA #FIXED "http://shcl.co.jp/ewd"
		xmlns:a CDATA #FIXED "http://ns.adobe.com/AdobeSVGViewerExtensions/3.0/"
		ewd:ver CDATA #IMPLIED
	>
	<!ATTLIST a
		ewd:lineID CDATA #IMPLIED
		ewd:groupID CDATA #IMPLIED
		ewd:figtype CDATA #IMPLIED
		ewd:code CDATA #IMPLIED
		ewd:figID CDATA #IMPLIED
		ewd:pinNo CDATA #IMPLIED
		ewd:comment CDATA #IMPLIED >
	<!ATTLIST g
		ewd:lineID CDATA #IMPLIED
		ewd:groupID CDATA #IMPLIED
		ewd:figtype CDATA #IMPLIED
		ewd:code CDATA #IMPLIED
		ewd:figID CDATA #IMPLIED
		ewd:pinNo CDATA #IMPLIED
		ewd:comment CDATA #IMPLIED >
	<!ATTLIST text
		ewd:textID CDATA #IMPLIED >
	<!ATTLIST title
		ewd:textID CDATA #IMPLIED >
]>
<!-- Generator: Shintec Hozumi YS   -->
<svg onload="call_execInitLoadProc_svg('system')" style="overflow:visible;  enable-background:new 0 0 482.005 710.000" viewBox="0 0 482.005 710.000" height="710.000" width="482.005" xml:space="preserve" ewd:ver="2.1.2.9" xmlns="&ns_svg;" xmlns:a="http://ns.adobe.com/AdobeSVGViewerExtensions/3.0/" xmlns:ewd="http://shcl.co.jp/ewd" xmlns:xlink="&ns_xlink;">
<path style="stroke-width: 1.42 ;&st7;  " d=" M   174.94,   562.69  L   169.97,   567.66  " /><path style="stroke-width: 1.42 ;&st7;  " d=" M   182.00,   579.69  L   186.97,   574.72  " /><path style="stroke-width: 1.42 ;&st7;  " d=" M   288.95,   367.22  L   280.45,   367.22  " /><path style="stroke-width: 1.42 ;&st7;  " d=" M   169.97,   574.72  L   174.94,   579.69  " /><path style="stroke-width: 1.42 ;&st7;  " d=" M   186.97,   567.66  L   182.00,   562.69  " /><text style="&st18;" transform="matrix(&st17;  174.77  653.63 )">W-B</text><text style="&st18;" transform="matrix(&st17;  276.76  653.63 )">W-B</text><text style="&st18;" transform="matrix(&st17;  276.76  568.65 )">W-B</text><text style="&st18;" transform="matrix(&st17;  276.76  500.66 )">W-B</text><text style="&st18;" transform="matrix(&st16;  235.89  338.03 )">L</text><text style="&st18;" transform="matrix(&st16;  233.68  219.05 )">LG</text><text style="&st18;" transform="matrix(&st17;  174.77  487.89 )">B</text><text style="&st18;" transform="matrix(&st17;  276.76  390.04 )">L</text><text style="&st18;" transform="matrix(&st17;  174.77  368.84 )">R</text><text style="&st18;" transform="matrix(&st17;  353.24  190.44 )">Y</text><text style="&st18;" transform="matrix(&st17;  268.26  147.83 )">L</text><text style="&st18;" transform="matrix(&st17;  174.77  122.45 )">Y</text><text style="&st18;" transform="matrix(&st17;  132.28  653.63 )">W-B</text><text style="&st18;" transform="matrix(&st17;  143.61  652.39 )">(*1)</text><text style="&st18;" transform="matrix(&st17;  186.11  652.39 )">(*2)</text><g ewd:figtype="conn" ewd:figID="1" ewd:code="G180"><path style="stroke-width: 1.42 ;&st7;  " d=" M   341.36,   460.71  L   318.70,   455.04  " /><path style="stroke-width: 0.85 ;&st7;  " d=" M   348.44,   460.71  L   344.19,   460.71  " /><path style="stroke-width: 0.85 ;&st7;  " d=" M   318.70,   460.71  L   314.45,   460.71  " /><path style="stroke-width: 0.85 ;&st7;   " d=" M   344.19,   460.71  C   344.19    459.93    343.56    459.29    342.78    459.29  " /><path style="stroke-width: 0.85 ;&st7;   " d=" M   342.78,   459.29  C   341.99    459.29    341.36    459.93    341.36    460.71  " /><path style="stroke-width: 0.85 ;&st7;   " d=" M   341.36,   460.71  C   341.36    461.49    341.99    462.12    342.78    462.12  " /><path style="stroke-width: 0.85 ;&st7;   " d=" M   342.78,   462.12  C   343.56    462.12    344.19    461.49    344.19    460.71  " /><path style="stroke-width: 0.85 ;&st7;   " d=" M   321.53,   460.71  C   321.53    459.93    320.90    459.29    320.11    459.29  " /><path style="stroke-width: 0.85 ;&st7;   " d=" M   320.11,   459.29  C   319.33    459.29    318.70    459.93    318.70    460.71  " /><path style="stroke-width: 0.85 ;&st7;   " d=" M   318.70,   460.71  C   318.70    461.49    319.33    462.12    320.11    462.12  " /><path style="stroke-width: 0.85 ;&st7;   " d=" M   320.11,   462.12  C   320.90    462.12    321.53    461.49    321.53    460.71  " /><path style="stroke-width: 1.42 ;&st7;  " d=" M   254.96,   409.72  L   254.96,   469.21  L   382.44,   469.21  L   382.44,   409.72  L   254.96,   409.72  " /><path style="stroke-width: 0.85 ;&st7;  " d=" M   356.94,   409.72  L   356.94,   426.71  " /><path style="stroke-width: 1.42 ;&st7;  " d=" M   271.95,   426.71  L   365.44,   426.71  L   365.44,   443.71  L   271.95,   443.71  L   271.95,   426.71  " /><path style="stroke-width: 0.85 ;&st7;  " d=" M   280.45,   409.72  L   280.45,   426.71  " /><path style="stroke-width: 0.85 ;&st7;  " d=" M   356.94,   443.71  L   356.94,   460.71  L   348.44,   460.71  " /><path style="stroke-width: 0.85 ;&st7;  " d=" M   314.45,   460.71  L   305.95,   460.71  L   305.95,   443.71  " /><path style="stroke-width: 0.85 ;&st7;  " d=" M   280.45,   443.71  L   280.45,   469.21  " /><text style="&st18;" transform="matrix(&st16;  283.04  465.52 )">E</text><text style="&st18;" transform="matrix(&st16;  283.04  417.91 )">D</text><text style="&st18;" transform="matrix(&st16;  359.52  417.91 )">IG</text><text style="&st18;" transform="matrix(&st16;  274.27  477.4 )">3</text><text style="&st18;" transform="matrix(&st16;  274.27  406.03 )">6</text><text style="&st18;" transform="matrix(&st16;  350.76  406.03 )">8</text><g ewd:figtype="title"><text style="&st18;" transform="matrix(&st16;  384.7  427.27 )" ewd:textID="5">Front Wiper Deicer Switch</text><text style="&st18;" transform="matrix(&st16;  384.69  420.44 )">G180</text></g></g><g ewd:figtype="rb" ewd:figID="2" ewd:code="FUSE71"><path style="stroke-width: 1.42 ;&st7;  " d=" M   180.59,   103.77  L   176.35,   103.77  " /><path style="stroke-width: 1.42 ;&st7;  " d=" M   180.59,    95.27  L   176.35,    95.27  " /><path style="stroke-width: 1.42 ;&st7;   " d=" M   184.84,    99.52  C   184.84     97.17    182.94     95.27    180.59     95.27  " /><path style="stroke-width: 1.42 ;&st7;   " d=" M   180.59,   103.77  C   182.94    103.77    184.84    101.87    184.84     99.52  " /><path style="stroke-width: 1.42 ;&st7;   " d=" M   172.10,    99.52  C   172.10    101.87    174.00    103.77    176.35    103.77  " /><path style="stroke-width: 1.42 ;&st7;   " d=" M   176.35,    95.27  C   174.00     95.27    172.10     97.17    172.10     99.52  " /><path style="stroke-width: 0.28 ;&st9;  " d=" M   178.47,    90.37  L   175.64,    87.54  L   175.64,    91.79  L   178.47,    94.62  L   181.30,    91.79  L   181.30,    87.54  L   178.47,    90.37  " /><text style="&st18;" transform="matrix(&st16;  170.43  32.08 )">(BAT)</text><text style="&st18;" transform="matrix(&st16;  176.67  101.49 )">2</text><text style="&st18;" transform="matrix(&st16;  139.99  56.17 )">20A <tspan x="0 " dy="6.0">DEICER</tspan></text><text style="&st18;" transform="matrix(&st16;  172.29  86.47 )">2</text><path style="stroke-width: 0.85 ;&st7;  " d=" M   178.47,    78.27  L   178.47,    95.27  " /><path style="stroke-width: 0.85 ;&st7;  " d=" M   178.47,    69.77  L   178.47,    78.27  " /><path style="stroke-width: 0.85 ;&st7;   " d=" M   179.89,    68.36  C   179.89     67.57    179.25     66.94    178.47     66.94  " /><path style="stroke-width: 0.85 ;&st7;   " d=" M   178.47,    66.94  C   177.69     66.94    177.05     67.57    177.05     68.36  " /><path style="stroke-width: 0.85 ;&st7;   " d=" M   177.05,    68.36  C   177.05     69.14    177.69     69.77    178.47     69.77  " /><path style="stroke-width: 0.85 ;&st7;   " d=" M   178.47,    69.77  C   179.25     69.77    179.89     69.14    179.89     68.36  " /><path style="stroke-width: 0.85 ;&st7;   " d=" M   179.89,    45.69  C   179.89     44.91    179.25     44.28    178.47     44.28  " /><path style="stroke-width: 0.85 ;&st7;   " d=" M   178.47,    44.28  C   177.69     44.28    177.05     44.91    177.05     45.69  " /><path style="stroke-width: 0.85 ;&st7;   " d=" M   177.05,    45.69  C   177.05     46.48    177.69     47.11    178.47     47.11  " /><path style="stroke-width: 0.85 ;&st7;   " d=" M   178.47,    47.11  C   179.25     47.11    179.89     46.48    179.89     45.69  " /><path style="stroke-width: 1.42 ;&st7;  " d=" M   191.22,    78.27  L   191.22,    35.78  L   165.72,    35.78  L   165.72,    78.27  L   191.22,    78.27  " /><path style="stroke-width: 1.42 ;&st7;   " d=" M   178.47,    66.94  C   181.21     65.33    182.12     61.80    180.51     59.06  " /><path style="stroke-width: 1.42 ;&st7;   " d=" M   180.51,    59.06  C   179.99     58.18    179.35     57.55    178.47     57.03  " /><path style="stroke-width: 1.42 ;&st7;   " d=" M   178.47,    47.11  C   175.73     48.72    174.82     52.25    176.43     54.99  " /><path style="stroke-width: 1.42 ;&st7;   " d=" M   176.43,    54.99  C   176.95     55.87    177.59     56.51    178.47     57.03  " /></g><g ewd:figtype="conn" ewd:figID="3" ewd:code="A70"><path style="stroke-width: 0.85 ;&st7;  " d=" M   271.95,   180.26  L   271.95,   197.25  " /><path style="stroke-width: 1.42 ;&st7;  " d=" M   263.46,   180.26  L   280.45,   180.26  L   280.45,   197.25  L   263.46,   197.25  L   263.46,   180.26  " /><text style="&st18;" transform="matrix(&st16;  262.67  205.45 )">14</text><text style="&st18;" transform="matrix(&st16;  262.67  176.57 )">21</text><g ewd:figtype="title"><text style="&st18;" transform="matrix(&st17;  295.17  200.16 )" ewd:textID="6">No. 1 <tspan x="0 " dy="6.0">Junction Connector</tspan></text><text style="&st18;" transform="matrix(&st17;  288.06  200.15 )">A70</text></g></g><g ewd:code="2" ewd:figID="4" ewd:comment="3,4" ewd:figtype="rb"><path style="stroke-width: 1.42 ;&st7;  " d=" M   206.09,   324.73  L   201.84,   324.73  " /><path style="stroke-width: 1.42 ;&st7;  " d=" M   206.09,   316.23  L   201.84,   316.23  " /><path style="stroke-width: 1.42 ;&st7;  " d=" M   180.59,   324.73  L   176.35,   324.73  " /><path style="stroke-width: 1.42 ;&st7;  " d=" M   180.59,   316.23  L   176.35,   316.23  " /><path style="stroke-width: 1.42 ;&st7;  " d=" M   206.09,   248.24  L   201.84,   248.24  " /><path style="stroke-width: 1.42 ;&st7;  " d=" M   206.09,   239.75  L   201.84,   239.75  " /><path style="stroke-width: 1.42 ;&st7;  " d=" M   180.59,   248.24  L   176.35,   248.24  " /><path style="stroke-width: 1.42 ;&st7;  " d=" M   180.59,   239.75  L   176.35,   239.75  " /><path style="stroke-width: 1.42 ;&st7;   " d=" M   210.34,   320.48  C   210.34    318.13    208.44    316.23    206.09    316.23  " /><path style="stroke-width: 1.42 ;&st7;   " d=" M   206.09,   324.73  C   208.44    324.73    210.34    322.83    210.34    320.48  " /><path style="stroke-width: 1.42 ;&st7;   " d=" M   197.59,   320.48  C   197.59    322.83    199.49    324.73    201.84    324.73  " /><path style="stroke-width: 1.42 ;&st7;   " d=" M   201.84,   316.23  C   199.49    316.23    197.59    318.13    197.59    320.48  " /><path style="stroke-width: 1.42 ;&st7;   " d=" M   184.84,   320.48  C   184.84    318.13    182.94    316.23    180.59    316.23  " /><path style="stroke-width: 1.42 ;&st7;   " d=" M   180.59,   324.73  C   182.94    324.73    184.84    322.83    184.84    320.48  " /><path style="stroke-width: 1.42 ;&st7;   " d=" M   172.10,   320.48  C   172.10    322.83    174.00    324.73    176.35    324.73  " /><path style="stroke-width: 1.42 ;&st7;   " d=" M   176.35,   316.23  C   174.00    316.23    172.10    318.13    172.10    320.48  " /><path style="stroke-width: 1.42 ;&st7;   " d=" M   210.34,   243.99  C   210.34    241.65    208.44    239.75    206.09    239.75  " /><path style="stroke-width: 1.42 ;&st7;   " d=" M   206.09,   248.24  C   208.44    248.24    210.34    246.34    210.34    243.99  " /><path style="stroke-width: 1.42 ;&st7;   " d=" M   197.59,   243.99  C   197.59    246.34    199.49    248.24    201.84    248.24  " /><path style="stroke-width: 1.42 ;&st7;   " d=" M   201.84,   239.75  C   199.49    239.75    197.59    241.65    197.59    243.99  " /><path style="stroke-width: 1.42 ;&st7;   " d=" M   184.84,   243.99  C   184.84    241.65    182.94    239.75    180.59    239.75  " /><path style="stroke-width: 1.42 ;&st7;   " d=" M   180.59,   248.24  C   182.94    248.24    184.84    246.34    184.84    243.99  " /><path style="stroke-width: 1.42 ;&st7;   " d=" M   172.10,   243.99  C   172.10    246.34    174.00    248.24    176.35    248.24  " /><path style="stroke-width: 1.42 ;&st7;   " d=" M   176.35,   239.75  C   174.00    239.75    172.10    241.65    172.10    243.99  " /><path style="stroke-width: 0.85 ;&st7;  " d=" M   203.97,   299.24  L   203.97,   316.23  " /><path style="stroke-width: 0.85 ;&st7;  " d=" M   178.47,   299.24  L   178.47,   316.23  " /><path style="stroke-width: 0.85 ;&st7;  " d=" M   203.97,   248.24  L   203.97,   265.24  " /><path style="stroke-width: 0.85 ;&st7;  " d=" M   178.47,   248.24  L   178.47,   265.24  " /><path style="stroke-width: 0.28 ;&st9;  " d=" M   203.97,   311.34  L   201.13,   308.50  L   201.13,   312.75  L   203.97,   315.59  L   206.80,   312.75  L   206.80,   308.50  L   203.97,   311.34  " /><path style="stroke-width: 0.28 ;&st9;  " d=" M   178.47,   311.34  L   175.64,   308.50  L   175.64,   312.75  L   178.47,   315.59  L   181.30,   312.75  L   181.30,   308.50  L   178.47,   311.34  " /><path style="stroke-width: 0.28 ;&st9;  " d=" M   203.97,   253.14  L   206.80,   255.97  L   206.80,   251.72  L   203.97,   248.89  L   201.13,   251.72  L   201.13,   255.97  L   203.97,   253.14  " /><path style="stroke-width: 0.28 ;&st9;  " d=" M   178.47,   253.14  L   181.30,   255.97  L   181.30,   251.72  L   178.47,   248.89  L   175.64,   251.72  L   175.64,   255.97  L   178.47,   253.14  " /><g ewd:code="" ewd:figID="22" ewd:comment="3,4" ewd:figtype="commref"><text style="&st18;" transform="matrix(&st17;  220.1  308.86 )" ewd:textID="4">DEICER Relay (*3) <tspan x="0 " dy="6.0">DEICER/STRG HTR </tspan><tspan x="0 " dy="6.0">Relay (*4)</tspan></text></g><text style="&st18;" transform="matrix(&st16;  202.17  322.45 )">2</text><text style="&st18;" transform="matrix(&st16;  176.67  322.45 )">2</text><text style="&st18;" transform="matrix(&st16;  202.17  245.96 )">2</text><text style="&st18;" transform="matrix(&st16;  176.67  245.96 )">2</text><text style="&st18;" transform="matrix(&st16;  197.78  261.55 )">1</text><text style="&st18;" transform="matrix(&st16;  172.29  261.55 )">5</text><text style="&st18;" transform="matrix(&st16;  197.78  307.43 )">2</text><text style="&st18;" transform="matrix(&st16;  172.29  307.43 )">3</text><path style="stroke-width: 0.85 ;&st7;  " d=" M   203.97,   290.74  L   203.97,   299.24  " /><path style="stroke-width: 0.85 ;&st7;  " d=" M   203.97,   265.24  L   203.97,   273.74  " /><path style="stroke-width: 0.85 ;&st7;  " d=" M   178.47,   269.49  L   178.47,   265.24  " /><path style="stroke-width: 0.85 ;&st7;  " d=" M   178.47,   299.24  L   178.47,   294.99  " /><path style="stroke-width: 1.42 ;&st7;  " d=" M   178.47,   292.15  L   172.80,   269.49  " /><path style="stroke-width: 0.85 ;&st7;   " d=" M   203.97,   290.74  C   205.92    290.74    207.51    289.15    207.51    287.20  " /><path style="stroke-width: 0.85 ;&st7;   " d=" M   207.51,   287.20  C   207.51    285.24    205.92    283.65    203.97    283.65  " /><path style="stroke-width: 0.85 ;&st7;   " d=" M   203.97,   283.65  C   202.98    283.65    202.13    284.01    201.44    284.72  " /><path style="stroke-width: 0.85 ;&st7;   " d=" M   201.44,   284.72  C   202.81    286.11    205.05    286.14    206.44    284.77  " /><path style="stroke-width: 0.85 ;&st7;   " d=" M   206.44,   284.77  C   207.84    283.40    207.86    281.16    206.50    279.76  " /><path style="stroke-width: 0.85 ;&st7;   " d=" M   206.50,   279.76  C   205.13    278.36    202.88    278.34    201.49    279.71  " /><path style="stroke-width: 0.85 ;&st7;   " d=" M   201.49,   279.71  C   201.47    279.73    201.45    279.74    201.44    279.76  " /><path style="stroke-width: 0.85 ;&st7;   " d=" M   201.44,   279.76  C   202.81    281.16    205.05    281.18    206.44    279.81  " /><path style="stroke-width: 0.85 ;&st7;   " d=" M   206.44,   279.81  C   207.84    278.44    207.86    276.20    206.50    274.80  " /><path style="stroke-width: 0.85 ;&st7;   " d=" M   206.50,   274.80  C   205.80    274.09    204.96    273.74    203.97    273.74  " /><path style="stroke-width: 0.85 ;&st7;   " d=" M   179.89,   270.91  C   179.89    270.12    179.25    269.49    178.47    269.49  " /><path style="stroke-width: 0.85 ;&st7;   " d=" M   178.47,   269.49  C   177.69    269.49    177.05    270.12    177.05    270.91  " /><path style="stroke-width: 0.85 ;&st7;   " d=" M   177.05,   270.91  C   177.05    271.69    177.69    272.32    178.47    272.32  " /><path style="stroke-width: 0.85 ;&st7;   " d=" M   178.47,   272.32  C   179.25    272.32    179.89    271.69    179.89    270.91  " /><path style="stroke-width: 0.85 ;&st7;   " d=" M   179.89,   293.57  C   179.89    292.79    179.25    292.15    178.47    292.15  " /><path style="stroke-width: 0.85 ;&st7;   " d=" M   178.47,   292.15  C   177.69    292.15    177.05    292.79    177.05    293.57  " /><path style="stroke-width: 0.85 ;&st7;   " d=" M   177.05,   293.57  C   177.05    294.35    177.69    294.99    178.47    294.99  " /><path style="stroke-width: 0.85 ;&st7;   " d=" M   178.47,   294.99  C   179.25    294.99    179.89    294.35    179.89    293.57  " /><path style="stroke-width: 1.42 ;&st7;  " d=" M   212.46,   265.24  L   169.97,   265.24  L   169.97,   299.24  L   212.46,   299.24  L   212.46,   265.24  " /></g><g ewd:figtype="conn" ewd:figID="5" ewd:code="A8"><path style="stroke-width: 1.42 ;&st7;  " d=" M   161.47,   418.22  L   161.47,   452.21  L   195.47,   452.21  L   195.47,   418.22  L   161.47,   418.22  " /><g ewd:lineID="3"><text style="&st18;" transform="matrix(&st16;  172.29  460.4 )">1</text><text style="&st18;" transform="matrix(&st16;  176.36  448.51 )">E</text></g><g ewd:lineID="4"><text style="&st18;" transform="matrix(&st16;  172.29  414.53 )">2</text><text style="&st18;" transform="matrix(&st16;  176.28  425.85 )">B</text></g><g ewd:figtype="title"><text style="&st18;" transform="matrix(&st17;  157.78  455.12 )" ewd:textID="9">Windshield Deicer (Windshield Glass)</text><text style="&st18;" transform="matrix(&st17;  150.67  455.11 )">A8</text></g></g><g ewd:figtype="conn" ewd:figID="6" ewd:code="G95"><path style="stroke-width: 0.85 ;&st7;  " d=" M   280.45,   520.20  L   280.45,   537.20  " /><path style="stroke-width: 1.42 ;&st7;  " d=" M   271.95,   520.20  L   288.95,   520.20  L   288.95,   537.20  L   271.95,   537.20  L   271.95,   520.20  " /><text style="&st18;" transform="matrix(&st16;  274.27  545.39 )">9</text><text style="&st18;" transform="matrix(&st16;  274.27  516.51 )">7</text><g ewd:figtype="title"><text style="&st18;" transform="matrix(&st16;  291.2  522.14 )">G95</text><text style="&st18;" transform="matrix(&st16;  291.21  529.25 )" ewd:textID="7">No. 8 <tspan x="0 " dy="6.0">Junction Connector</tspan></text></g></g><g ewd:figtype="conn" ewd:figID="7" ewd:code="G98"><path style="stroke-width: 0.85 ;&st7;  " d=" M   280.45,   596.69  L   280.45,   613.68  " /><path style="stroke-width: 1.42 ;&st7;  " d=" M   271.95,   596.69  L   288.95,   596.69  L   288.95,   613.68  L   271.95,   613.68  L   271.95,   596.69  " /><text style="&st18;" transform="matrix(&st16;  274.27  593.0 )">7</text><text style="&st18;" transform="matrix(&st16;  274.27  621.88 )">6</text><g ewd:figtype="title"><text style="&st18;" transform="matrix(&st16;  291.2  598.63 )">G98</text><text style="&st18;" transform="matrix(&st16;  291.21  605.74 )" ewd:textID="8">No. 11 <tspan x="0 " dy="6.0">Junction Connector</tspan></text></g></g><g ewd:figtype="jb" ewd:figID="10" ewd:code="3"><path style="stroke-width: 1.42 ;&st7;  " d=" M   359.07,   120.77  L   354.82,   120.77  " /><path style="stroke-width: 1.42 ;&st7;  " d=" M   359.07,   112.27  L   354.82,   112.27  " /><path style="stroke-width: 0.85 ;&st7;  " d=" M   356.94,    69.77  L   356.94,   112.27  " /><path style="stroke-width: 1.42 ;&st7;  " d=" M   274.08,   120.77  L   269.83,   120.77  " /><path style="stroke-width: 1.42 ;&st7;  " d=" M   274.08,   112.27  L   269.83,   112.27  " /><path style="stroke-width: 1.42 ;&st7;   " d=" M   363.31,   116.52  C   363.31    114.17    361.41    112.27    359.07    112.27  " /><path style="stroke-width: 1.42 ;&st7;   " d=" M   359.07,   120.77  C   361.41    120.77    363.31    118.86    363.31    116.52  " /><path style="stroke-width: 1.42 ;&st7;   " d=" M   350.57,   116.52  C   350.57    118.86    352.47    120.77    354.82    120.77  " /><path style="stroke-width: 1.42 ;&st7;   " d=" M   354.82,   112.27  C   352.47    112.27    350.57    114.17    350.57    116.52  " /><path style="stroke-width: 0.85 ;&st7;   " d=" M   358.36,    68.36  C   358.36     67.57    357.72     66.94    356.94     66.94  " /><path style="stroke-width: 0.85 ;&st7;   " d=" M   356.94,    66.94  C   356.16     66.94    355.52     67.57    355.52     68.36  " /><path style="stroke-width: 0.85 ;&st7;   " d=" M   355.52,    68.36  C   355.52     69.14    356.16     69.77    356.94     69.77  " /><path style="stroke-width: 0.85 ;&st7;   " d=" M   356.94,    69.77  C   357.72     69.77    358.36     69.14    358.36     68.36  " /><path style="stroke-width: 0.85 ;&st7;   " d=" M   358.36,    45.69  C   358.36     44.91    357.72     44.28    356.94     44.28  " /><path style="stroke-width: 0.85 ;&st7;   " d=" M   356.94,    44.28  C   356.16     44.28    355.52     44.91    355.52     45.69  " /><path style="stroke-width: 0.85 ;&st7;   " d=" M   355.52,    45.69  C   355.52     46.48    356.16     47.11    356.94     47.11  " /><path style="stroke-width: 0.85 ;&st7;   " d=" M   356.94,    47.11  C   357.72     47.11    358.36     46.48    358.36     45.69  " /><path style="stroke-width: 1.42 ;&st7;   " d=" M   356.94,    66.94  C   359.68     65.33    360.59     61.80    358.98     59.06  " /><path style="stroke-width: 1.42 ;&st7;   " d=" M   358.98,    59.06  C   358.46     58.18    357.82     57.55    356.94     57.03  " /><path style="stroke-width: 1.42 ;&st7;   " d=" M   356.94,    47.11  C   354.20     48.72    353.29     52.25    354.90     54.99  " /><path style="stroke-width: 1.42 ;&st7;   " d=" M   354.90,    54.99  C   355.42     55.87    356.06     56.51    356.94     57.03  " /><path style="stroke-width: 1.42 ;&st7;   " d=" M   278.33,   116.52  C   278.33    114.17    276.43    112.27    274.08    112.27  " /><path style="stroke-width: 1.42 ;&st7;   " d=" M   274.08,   120.77  C   276.43    120.77    278.33    118.86    278.33    116.52  " /><path style="stroke-width: 1.42 ;&st7;   " d=" M   265.58,   116.52  C   265.58    118.86    267.48    120.77    269.83    120.77  " /><path style="stroke-width: 1.42 ;&st7;   " d=" M   269.83,   112.27  C   267.48    112.27    265.58    114.17    265.58    116.52  " /><path style="stroke-width: 0.85 ;&st7;  " d=" M   356.94,    95.27  L   271.95,    95.27  L   271.95,   112.27  " /><path style="stroke-width: 0.85 ;&st7;  " d=" M   355.75,    94.27  L   355.48,    94.74  L   355.38,    95.27  L   355.48,    95.80  L   355.75,    96.27  L   356.16,    96.62  L   356.67,    96.81  L   357.21,    96.81  L   357.72,    96.62  L   358.13,    96.27  L   358.40,    95.80  L   358.50,    95.27  L   358.40,    94.74  L   358.13,    94.27  L   357.72,    93.92  L   357.21,    93.73  L   356.67,    93.73  L   356.16,    93.92  L   355.75,    94.27  L   356.14,    94.98  L   356.14,    95.56  L   356.52,    96.01  L   357.09,    96.11  L   357.59,    95.82  L   357.79,    95.27  L   357.59,    94.72  L   357.09,    94.43  L   356.52,    94.53  L   356.94,    95.27  " /><path style="stroke-width: 0.28 ;&st9;  " d=" M   356.94,   107.37  L   354.11,   104.54  L   354.11,   108.79  L   356.94,   111.62  L   359.77,   108.79  L   359.77,   104.54  L   356.94,   107.37  " /><path style="stroke-width: 1.42 ;&st7;  " d=" M   369.69,    78.27  L   369.69,    35.78  L   344.19,    35.78  L   344.19,    78.27  L   369.69,    78.27  " /><path style="stroke-width: 0.28 ;&st9;  " d=" M   271.95,   107.37  L   269.12,   104.54  L   269.12,   108.79  L   271.95,   111.62  L   274.79,   108.79  L   274.79,   104.54  L   271.95,   107.37  " /><text style="&st18;" transform="matrix(&st16;  351.73  32.08 )">(IG)</text><text style="&st18;" transform="matrix(&st16;  343.33  118.49 )">19</text><text style="&st18;" transform="matrix(&st16;  352.97  118.49 )">3C</text><text style="&st18;" transform="matrix(&st16;  373.36  53.34 )">7.5A <tspan x="0 " dy="6.0">ECU-IG </tspan><tspan x="0 " dy="6.0">NO.3</tspan></text><text style="&st18;" transform="matrix(&st16;  258.35  118.49 )">25</text><text style="&st18;" transform="matrix(&st16;  268.22  118.49 )">3B</text><text style="&st18;" transform="matrix(&st16;  350.76  86.47 )">2</text></g><g ewd:figtype="w2w" ewd:figID="11" ewd:code="AG14"><path style="stroke-width: 1.42 ;&st7;  " d=" M   284.70,   372.89  L   280.45,   368.64  L   276.20,   372.89  " /><path style="stroke-width: 1.42 ;&st7;  " d=" M   284.70,   376.29  L   280.45,   372.04  L   276.20,   376.29  " /><text style="&st18;" transform="matrix(&st16;  267.82  364.94 )">5</text></g><g ewd:figtype="gp" ewd:figID="12" ewd:code="AG"><path style="stroke-width: 0.85 ;&st7;  " d=" M   135.98,   697.25  L   135.98,   701.50  " /><path style="stroke-width: 0.85 ;&st7;  " d=" M   127.48,   701.50  L   144.48,   701.50  " /><path style="stroke-width: 0.85 ;&st7;  " d=" M   131.73,   704.33  L   140.23,   704.33  " /><path style="stroke-width: 0.85 ;&st7;  " d=" M   133.14,   707.17  L   138.81,   707.17  " /><path style="stroke-width: 0.85 ;&st7;  " d=" M   134.56,   710.00  L   137.39,   710.00  " /></g><g ewd:figtype="gp" ewd:figID="13" ewd:code="AB"><path style="stroke-width: 0.85 ;&st7;  " d=" M   177.05,   710.00  L   179.89,   710.00  " /><path style="stroke-width: 0.85 ;&st7;  " d=" M   175.64,   707.17  L   181.30,   707.17  " /><path style="stroke-width: 0.85 ;&st7;  " d=" M   174.22,   704.33  L   182.72,   704.33  " /><path style="stroke-width: 0.85 ;&st7;  " d=" M   169.97,   701.50  L   186.97,   701.50  " /><path style="stroke-width: 0.85 ;&st7;  " d=" M   178.47,   697.25  L   178.47,   701.50  " /></g><g ewd:figtype="gp" ewd:figID="14" ewd:code="GD"><path style="stroke-width: 0.85 ;&st7;  " d=" M   279.04,   710.00  L   281.87,   710.00  " /><path style="stroke-width: 0.85 ;&st7;  " d=" M   277.62,   707.17  L   283.29,   707.17  " /><path style="stroke-width: 0.85 ;&st7;  " d=" M   276.20,   704.33  L   284.70,   704.33  " /><path style="stroke-width: 0.85 ;&st7;  " d=" M   271.95,   701.50  L   288.95,   701.50  " /><path style="stroke-width: 0.85 ;&st7;  " d=" M   280.45,   697.25  L   280.45,   701.50  " /></g><g ewd:code="4" ewd:figID="20" ewd:comment="" ewd:figtype="comment"><text style="&st18;" transform="matrix(&st16;  13.59  165.23 )" ewd:textID="3">* 4 :w/o Heated Steering Wheel System</text></g><g ewd:code="2" ewd:figID="18" ewd:comment="" ewd:figtype="comment"><text style="&st18;" transform="matrix(&st16;  13.59  148.23 )" ewd:textID="1">* 2 :Except 2AR-FE</text></g><g ewd:code="1" ewd:figID="19" ewd:comment="" ewd:figtype="comment"><text style="&st18;" transform="matrix(&st16;  13.59  139.73 )">* 1 :2AR-FE</text></g><g ewd:code="3" ewd:figID="21" ewd:comment="" ewd:figtype="comment"><text style="&st18;" transform="matrix(&st16;  13.59  156.73 )" ewd:textID="2">* 3 :w/ Heated Steering Wheel System</text></g></svg>