﻿<?xml version="1.0" encoding="utf-8"?>
<!DOCTYPE svg PUBLIC "-//W3C//DTD SVG 1.0//EN" "http://www.w3.org/TR/2001/REC-SVG-20010904/DTD/svg10.dtd"[
	<!ENTITY ns_flows "http://ns.adobe.com/Flows/1.0/">
	<!ENTITY ns_svg "http://www.w3.org/2000/svg">
	<!ENTITY ns_xlink "http://www.w3.org/1999/xlink">
	<!ENTITY st0 "font-size:7px;font-family:'MS-PGothic';adobe-font-script:japanese;">
	<!ENTITY st1 "font-size:6px;font-family:'ArialMT';">
	<!-- White fill  -->
	<!ENTITY st2 "fill:#FFFFFF;stroke:#000000; stroke-width:1.41;stroke-linecap:round;stroke-linejoin:round;">
	<!-- Yellow fill  -->
	<!ENTITY st3 "fill:#FFFFCC;stroke:#FFFFCC; stroke-width:0.1;stroke-linecap:round;stroke-linejoin:round;">
	<!-- Gray fill  -->
	<!ENTITY st4 "fill:#CCCCCC;stroke:#CCCCCC; stroke-width:0.1;stroke-linecap:round;stroke-linejoin:round;">
	<!-- Light-blue fill -->
	<!ENTITY st5 "fill:#CCECF4;stroke:#000000; stroke-width:1.133;stroke-linecap:round;stroke-linejoin:round;">
	<!ENTITY st6 "fill:none;stroke-linecap:butt; stroke-linejoin:round;">
	<!ENTITY st7 "fill:none;stroke:#000000;stroke-linecap:round;stroke-linejoin:round;">
	<!ENTITY st8 "enable-background:new    ;">
	<!-- Black fill -->
	<!ENTITY st9 "fill:#000000;stroke:#000000; stroke-linecap:round;stroke-linejoin:round;">
	<!-- SRS note   -->
	<!ENTITY st10 "font-size:9px;font-family:'ArialMT';">
	<!ENTITY st11 "font-size:9px;font-family:'Svg Symbol';">
	<!ENTITY st12 "font-size:6px;font-family:'Svg Symbol';">
	<!ENTITY st13 "fill:none;stroke:#ff0000;stroke-linecap:round;stroke-linejoin:round;">
	<!-- Yellow fill  -->
	<!ENTITY st14 "fill:#FFFF00;stroke:#FFFF00; stroke-width:0.1;stroke-linecap:round;stroke-linejoin:round;">
	<!ENTITY st15 "font-size:6px;font-family:'MS-PGothic';adobe-font-script:japanese;">
	<!ENTITY st16 "1.00 0.00 0.00 1.00">
	<!ENTITY st17 "0.00 -1.00 1.00 0.00">
	<!ENTITY st18 "font-size:6px;font-family:'Arial';">
	<!ENTITY st19 "font-size:9px;font-family:'Arial';">
	<!ENTITY st20 "font-size:6px;font-family:'MS-PGothic','MS PGothic';adobe-font-script:japanese;">
	<!ENTITY st21 "font-size:7px;font-family:'MS-PGothic','MS PGothic';adobe-font-script:japanese;">
	<!ATTLIST svg
		xmlns:ewd CDATA #FIXED "http://shcl.co.jp/ewd"
		xmlns:a CDATA #FIXED "http://ns.adobe.com/AdobeSVGViewerExtensions/3.0/"
		ewd:ver CDATA #IMPLIED
	>
	<!ATTLIST a
		ewd:lineID CDATA #IMPLIED
		ewd:groupID CDATA #IMPLIED
		ewd:figtype CDATA #IMPLIED
		ewd:code CDATA #IMPLIED
		ewd:figID CDATA #IMPLIED
		ewd:pinNo CDATA #IMPLIED
		ewd:comment CDATA #IMPLIED >
	<!ATTLIST g
		ewd:lineID CDATA #IMPLIED
		ewd:groupID CDATA #IMPLIED
		ewd:figtype CDATA #IMPLIED
		ewd:code CDATA #IMPLIED
		ewd:figID CDATA #IMPLIED
		ewd:pinNo CDATA #IMPLIED
		ewd:comment CDATA #IMPLIED >
	<!ATTLIST text
		ewd:textID CDATA #IMPLIED >
	<!ATTLIST title
		ewd:textID CDATA #IMPLIED >
]>
<!-- Generator: Shintec Hozumi YS   -->
<svg onload="call_execInitLoadProc_svg('system')" style="overflow:visible;  enable-background:new 0 0 9323.650 710.000" viewBox="0 0 9323.650 710.000" height="710.000" width="9323.650" xml:space="preserve" ewd:ver="2.1.2.9" xmlns="&ns_svg;" xmlns:a="http://ns.adobe.com/AdobeSVGViewerExtensions/3.0/" xmlns:ewd="http://shcl.co.jp/ewd" xmlns:xlink="&ns_xlink;">
<path style="stroke-width: 1.42 ;&st7;  " d=" M  3297.45,   418.22  L  3288.95,   418.22  " /><path style="stroke-width: 1.42 ;&st7;  " d=" M  3285.42,   324.73  L  3280.45,   329.70  " /><path style="stroke-width: 1.42 ;&st7;  " d=" M  3292.48,   341.73  L  3297.45,   336.76  " /><path style="stroke-width: 1.42 ;&st7;  " d=" M  3280.45,   336.76  L  3285.42,   341.73  " /><path style="stroke-width: 1.42 ;&st7;  " d=" M  3297.45,   329.70  L  3292.48,   324.73  " /><path style="stroke-width: 1.42 ;&st7;  " d=" M  3297.45,   151.23  L  3292.48,   146.26  " /><path style="stroke-width: 1.42 ;&st7;  " d=" M  3280.45,   158.29  L  3285.42,   163.26  " /><path style="stroke-width: 1.42 ;&st7;  " d=" M  3292.48,   163.26  L  3297.45,   158.29  " /><path style="stroke-width: 1.42 ;&st7;  " d=" M  3285.42,   146.26  L  3280.45,   151.23  " /><path style="stroke-width: 1.42 ;&st7;  " d=" M  3297.45,   219.22  L  3292.48,   214.25  " /><path style="stroke-width: 1.42 ;&st7;  " d=" M  3280.45,   226.28  L  3285.42,   231.25  " /><path style="stroke-width: 1.42 ;&st7;  " d=" M  3292.48,   231.25  L  3297.45,   226.28  " /><path style="stroke-width: 1.42 ;&st7;  " d=" M  3285.42,   214.25  L  3280.45,   219.22  " /><path style="stroke-width: 1.42 ;&st7;  " d=" M  3297.45,   287.21  L  3292.48,   282.24  " /><path style="stroke-width: 1.42 ;&st7;  " d=" M  3280.45,   294.27  L  3285.42,   299.24  " /><path style="stroke-width: 1.42 ;&st7;  " d=" M  3292.48,   299.24  L  3297.45,   294.27  " /><path style="stroke-width: 1.42 ;&st7;  " d=" M  3285.42,   282.24  L  3280.45,   287.21  " /><text style="&st18;" transform="matrix(&st16;  3486.46  210.55 )">W-B</text><text style="&st18;" transform="matrix(&st16;  3480.57  221.88 )">(*66 *76)</text><text style="&st18;" transform="matrix(&st16;  3043.34  527.83 )" ewd:textID="77">4WD ECU Assembly</text><text style="&st18;" transform="matrix(&st16;  3043.34  493.84 )" ewd:textID="226">Steering Lock <tspan x="0 " dy="6.0">Actuator Assembly</tspan></text><text style="&st18;" transform="matrix(&st16;  3043.34  204.89 )" ewd:textID="142">Heater Switch <tspan x="0 " dy="6.0">Assembly</tspan></text><text style="&st18;" transform="matrix(&st16;  3043.34  417.35 )" ewd:textID="82">Airbag Sensor <tspan x="0 " dy="6.0">Assembly</tspan></text><text style="&st18;" transform="matrix(&st16;  3043.34  170.89 )" ewd:textID="237">Traction Control <tspan x="0 " dy="6.0">Switch</tspan></text><text style="&st18;" transform="matrix(&st16;  3043.34  561.83 )" ewd:textID="91">Blower Resistor</text><text style="&st18;" transform="matrix(&st16;  3119.82  121.29 )">I6</text><text style="&st18;" transform="matrix(&st16;  3486.46  134.07 )">W-B</text><text style="&st18;" transform="matrix(&st16;  3119.82  128.4 )" ewd:textID="119">Front Door Outside <tspan x="0 " dy="6.0">Handle Assembly RH</tspan></text><text style="&st18;" transform="matrix(&st16;  3488.87  40.58 )">BR</text><text style="&st18;" transform="matrix(&st16;  3488.87  346.53 )">BR</text><text style="&st18;" transform="matrix(&st16;  3119.82  162.39 )" ewd:textID="190">Outer Rear View <tspan x="0 " dy="6.0">Mirror Assembly RH</tspan></text><text style="&st18;" transform="matrix(&st16;  3119.82  230.38 )" ewd:textID="117">Front Door Lock with <tspan x="0 " dy="6.0">Motor Assembly RH</tspan></text><text style="&st18;" transform="matrix(&st16;  3119.82  223.28 )">I10</text><text style="&st18;" transform="matrix(&st16;  3488.87  74.58 )">BR</text><text style="&st18;" transform="matrix(&st16;  3248.5  329.53 )">W-B</text><text style="&st18;" transform="matrix(&st16;  3119.82  155.29 )">I8</text><text style="&st18;" transform="matrix(&st17;  3285.26  373.18 )">W-B</text><text style="&st18;" transform="matrix(&st16;  3119.82  340.86 )" ewd:textID="123">Front Power Window <tspan x="0 " dy="6.0">Regulator Motor </tspan><tspan x="0 " dy="6.0">Assembly RH</tspan></text><text style="&st18;" transform="matrix(&st16;  3119.82  333.76 )">I3</text><text style="&st18;" transform="matrix(&st16;  3248.5  287.04 )">W-B</text><text style="&st18;" transform="matrix(&st16;  3119.82  298.37 )" ewd:textID="196">Power Window <tspan x="0 " dy="6.0">Regulator Master </tspan><tspan x="0 " dy="6.0">Switch Assembly</tspan></text><text style="&st18;" transform="matrix(&st17;  3285.26  198.96 )">W-B</text><text style="&st18;" transform="matrix(&st16;  3248.5  117.07 )">W-B</text><text style="&st18;" transform="matrix(&st16;  3248.5  151.06 )">W-B</text><text style="&st18;" transform="matrix(&st16;  3248.5  219.05 )">W-B</text><text style="&st18;" transform="matrix(&st16;  3246.6  340.86 )">(RHD)</text><text style="&st18;" transform="matrix(&st17;  3285.26  317.94 )">W-B</text><text style="&st18;" transform="matrix(&st17;  3285.26  619.64 )">W-B</text><text style="&st18;" transform="matrix(&st16;  3488.87  312.54 )">BR</text><text style="&st18;" transform="matrix(&st16;  3248.5  176.56 )">W-B</text><text style="&st18;" transform="matrix(&st16;  3248.19  255.88 )">(*29)</text><text style="&st18;" transform="matrix(&st16;  3248.5  244.55 )">W-B</text><text style="&st18;" transform="matrix(&st16;  3486.46  414.52 )">W-B</text><text style="&st18;" transform="matrix(&st16;  3488.87  448.51 )">BR</text><text style="&st18;" transform="matrix(&st16;  3488.87  482.51 )">BR</text><text style="&st18;" transform="matrix(&st16;  3119.82  291.27 )">I5</text><text style="&st18;" transform="matrix(&st16;  3486.46  525.0 )">W-B</text><text style="&st18;" transform="matrix(&st16;  3486.15  536.33 )">(*44)</text><text style="&st18;" transform="matrix(&st16;  3486.46  558.99 )">W-B</text><text style="&st18;" transform="matrix(&st16;  3486.46  176.56 )">W-B</text><text style="&st18;" transform="matrix(&st16;  3486.15  570.33 )">(*45)</text><text style="&st18;" transform="matrix(&st16;  3486.46  380.52 )">W-B</text><text style="&st18;" transform="matrix(&st17;  3285.26  266.95 )">W-B</text><text style="&st18;" transform="matrix(&st16;  3246.6  298.37 )">(RHD)</text><text style="&st18;" transform="matrix(&st16;  3043.33  554.72 )">G56</text><text style="&st18;" transform="matrix(&st16;  3043.33  520.73 )">G86</text><text style="&st18;" transform="matrix(&st16;  3043.33  486.73 )">G5</text><text style="&st18;" transform="matrix(&st16;  3043.33  452.74 )">G54</text><text style="&st18;" transform="matrix(&st16;  3043.33  410.25 )">G92</text><text style="&st18;" transform="matrix(&st16;  3043.34  459.84 )" ewd:textID="90">Blower Assembly</text><text style="&st18;" transform="matrix(&st16;  3043.33  197.78 )">G1</text><text style="&st18;" transform="matrix(&st16;  3043.33  163.79 )">G51</text><text style="&st18;" transform="matrix(&st16;  3043.34  136.9 )" ewd:textID="108">Downhill Assist <tspan x="0 " dy="6.0">Control Switch</tspan></text><text style="&st18;" transform="matrix(&st16;  3043.33  129.79 )">G29</text><text style="&st18;" transform="matrix(&st16;  3043.33  95.8 )">G12</text><text style="&st18;" transform="matrix(&st16;  3043.34  102.9 )" ewd:textID="227">Steering <tspan x="0 " dy="6.0">Sensor</tspan></text><text style="&st18;" transform="matrix(&st16;  3043.34  68.91 )" ewd:textID="188">Outer Mirror <tspan x="0 " dy="6.0">Switch Assembly</tspan></text><text style="&st18;" transform="matrix(&st16;  3043.33  61.8 )">G39</text><text style="&st18;" transform="matrix(&st16;  3486.46  253.05 )">W-B</text><text style="&st18;" transform="matrix(&st16;  3486.15  493.84 )">(*45)</text><text style="&st18;" transform="matrix(&st16;  3486.15  459.84 )">(*44)</text><text style="&st18;" transform="matrix(&st16;  3078.53  626.98 )">W-B</text><text style="&st18;" transform="matrix(&st16;  3129.52  626.98 )">W-B</text><text style="&st18;" transform="matrix(&st16;  3231.51  626.98 )">W-B</text><text style="&st18;" transform="matrix(&st16;  3467.66  51.91 )">(4WD *14,*16,*78)</text><text style="&st18;" transform="matrix(&st16;  3480.57  85.91 )">(*13,*15)</text><text style="&st18;" transform="matrix(&st16;  3486.15  145.4 )">(*45)</text><text style="&st18;" transform="matrix(&st16;  3480.57  187.89 )">(*67 *76)</text><text style="&st18;" transform="matrix(&st16;  3480.57  323.87 )">(*13,*15)</text><text style="&st18;" transform="matrix(&st16;  3484.41  357.86 )">(4WD)</text><text style="&st18;" transform="matrix(&st16;  3486.15  391.86 )">(*38)</text><text style="&st18;" transform="matrix(&st16;  3486.15  425.85 )">(*38)</text><text style="&st18;" transform="matrix(&st16;  3248.19  128.4 )">(*30)</text><text style="&st18;" transform="matrix(&st16;  3242.61  187.89 )">(*24,*77)</text><path style="stroke-width: 1.42 ;&st7;  " d=" M  3118.98,   112.27  L  3118.98,   137.76  L  3203.96,   137.76  L  3203.96,   112.27  L  3118.98,   112.27  " /><path style="stroke-width: 1.42 ;&st7;  " d=" M  3118.98,   146.26  L  3118.98,   197.25  L  3203.96,   197.25  L  3203.96,   146.26  L  3118.98,   146.26  " /><path style="stroke-width: 1.42 ;&st7;  " d=" M  3118.98,   214.25  L  3118.98,   265.24  L  3203.96,   265.24  L  3203.96,   214.25  L  3118.98,   214.25  " /><path style="stroke-width: 1.42 ;&st7;  " d=" M  3118.98,   324.73  L  3118.98,   358.73  L  3203.96,   358.73  L  3203.96,   324.73  L  3118.98,   324.73  " /><path style="stroke-width: 1.42 ;&st7;  " d=" M  3118.98,   282.24  L  3118.98,   316.23  L  3203.96,   316.23  L  3203.96,   282.24  L  3118.98,   282.24  " /><path style="stroke-width: 1.42 ;&st7;  " d=" M  3016.99,   545.69  L  3016.99,   571.19  L  3101.98,   571.19  L  3101.98,   545.69  L  3016.99,   545.69  " /><path style="stroke-width: 1.42 ;&st7;  " d=" M  3016.99,   511.70  L  3016.99,   537.20  L  3101.98,   537.20  L  3101.98,   511.70  L  3016.99,   511.70  " /><path style="stroke-width: 1.42 ;&st7;  " d=" M  3016.99,   477.71  L  3016.99,   503.20  L  3101.98,   503.20  L  3101.98,   477.71  L  3016.99,   477.71  " /><path style="stroke-width: 1.42 ;&st7;  " d=" M  3016.99,   443.71  L  3016.99,   469.21  L  3101.98,   469.21  L  3101.98,   443.71  L  3016.99,   443.71  " /><path style="stroke-width: 1.42 ;&st7;  " d=" M  3016.99,   401.22  L  3016.99,   426.71  L  3101.98,   426.71  L  3101.98,   401.22  L  3016.99,   401.22  " /><path style="stroke-width: 1.42 ;&st7;  " d=" M  3016.99,   188.75  L  3016.99,   214.25  L  3101.98,   214.25  L  3101.98,   188.75  L  3016.99,   188.75  " /><path style="stroke-width: 1.42 ;&st7;  " d=" M  3016.99,   154.76  L  3016.99,   180.26  L  3101.98,   180.26  L  3101.98,   154.76  L  3016.99,   154.76  " /><path style="stroke-width: 1.42 ;&st7;  " d=" M  3016.99,   120.77  L  3016.99,   146.26  L  3101.98,   146.26  L  3101.98,   120.77  L  3016.99,   120.77  " /><path style="stroke-width: 1.42 ;&st7;  " d=" M  3016.99,    86.77  L  3016.99,   112.27  L  3101.98,   112.27  L  3101.98,    86.77  L  3016.99,    86.77  " /><path style="stroke-width: 1.42 ;&st7;  " d=" M  3016.99,    52.78  L  3016.99,    78.27  L  3101.98,    78.27  L  3101.98,    52.78  L  3016.99,    52.78  " /><text style="&st18;" transform="matrix(&st16;  3185.21  122.73 )">(GND)</text><text style="&st18;" transform="matrix(&st16;  3194.29  156.73 )">(E)</text><text style="&st18;" transform="matrix(&st16;  3194.29  224.72 )">(E)</text><text style="&st18;" transform="matrix(&st16;  3185.21  335.2 )">(GND)</text><text style="&st18;" transform="matrix(&st16;  3194.29  292.71 )">(E)</text><text style="&st18;" transform="matrix(&st16;  3194.91  182.22 )">(-)</text><text style="&st18;" transform="matrix(&st16;  3194.29  250.21 )">(E)</text><text style="&st18;" transform="matrix(&st16;  3018.73  556.16 )">(E)</text><text style="&st18;" transform="matrix(&st16;  3018.73  522.17 )">(GND)</text><text style="&st18;" transform="matrix(&st16;  3018.73  488.17 )">(GND)</text><text style="&st18;" transform="matrix(&st16;  3018.73  454.18 )">(GND)</text><text style="&st18;" transform="matrix(&st16;  3018.73  411.69 )">(E2)</text><text style="&st18;" transform="matrix(&st16;  3018.73  199.22 )">(E)</text><text style="&st18;" transform="matrix(&st16;  3018.73  165.23 )">(E)</text><text style="&st18;" transform="matrix(&st16;  3018.73  131.23 )">(E)</text><text style="&st18;" transform="matrix(&st16;  3018.73  97.24 )">(ESS)</text><text style="&st18;" transform="matrix(&st16;  3018.73  63.24 )">(E)</text><g ewd:figtype="conn" ewd:figID="22" ewd:code="G104"><path style="stroke-width: 0.85 ;&st7;  " d=" M  3432.23,   451.21  L  3431.96,   451.68  L  3431.87,   452.21  L  3431.96,   452.74  L  3432.23,   453.21  L  3432.65,   453.56  L  3433.16,   453.75  L  3433.69,   453.75  L  3434.20,   453.56  L  3434.62,   453.21  L  3434.89,   452.74  L  3434.98,   452.21  L  3434.89,   451.68  L  3434.62,   451.21  L  3434.20,   450.86  L  3433.69,   450.67  L  3433.16,   450.67  L  3432.65,   450.86  L  3432.23,   451.21  L  3432.63,   451.92  L  3432.63,   452.50  L  3433.00,   452.95  L  3433.57,   453.05  L  3434.08,   452.76  L  3434.27,   452.21  L  3434.08,   451.66  L  3433.57,   451.37  L  3433.00,   451.47  L  3433.42,   452.21  " /><path style="stroke-width: 0.85 ;&st7;  " d=" M  3433.42,   452.21  L  3441.92,   452.21  " /><path style="stroke-width: 0.85 ;&st7;  " d=" M  3432.23,   417.21  L  3431.96,   417.68  L  3431.87,   418.22  L  3431.96,   418.75  L  3432.23,   419.22  L  3432.65,   419.56  L  3433.16,   419.75  L  3433.69,   419.75  L  3434.20,   419.56  L  3434.62,   419.22  L  3434.89,   418.75  L  3434.98,   418.22  L  3434.89,   417.68  L  3434.62,   417.21  L  3434.20,   416.87  L  3433.69,   416.68  L  3433.16,   416.68  L  3432.65,   416.87  L  3432.23,   417.21  L  3432.63,   417.92  L  3432.63,   418.51  L  3433.00,   418.95  L  3433.57,   419.05  L  3434.08,   418.76  L  3434.27,   418.22  L  3434.08,   417.67  L  3433.57,   417.38  L  3433.00,   417.48  L  3433.42,   418.22  " /><path style="stroke-width: 0.85 ;&st7;  " d=" M  3433.42,   418.22  L  3441.92,   418.22  " /><path style="stroke-width: 0.85 ;&st7;  " d=" M  3432.23,   383.22  L  3431.96,   383.69  L  3431.87,   384.22  L  3431.96,   384.75  L  3432.23,   385.22  L  3432.65,   385.57  L  3433.16,   385.76  L  3433.69,   385.76  L  3434.20,   385.57  L  3434.62,   385.22  L  3434.89,   384.75  L  3434.98,   384.22  L  3434.89,   383.69  L  3434.62,   383.22  L  3434.20,   382.87  L  3433.69,   382.69  L  3433.16,   382.69  L  3432.65,   382.87  L  3432.23,   383.22  L  3432.63,   383.93  L  3432.63,   384.51  L  3433.00,   384.96  L  3433.57,   385.06  L  3434.08,   384.77  L  3434.27,   384.22  L  3434.08,   383.67  L  3433.57,   383.39  L  3433.00,   383.48  L  3433.42,   384.22  " /><path style="stroke-width: 0.85 ;&st7;  " d=" M  3433.42,   384.22  L  3441.92,   384.22  " /><path style="stroke-width: 0.85 ;&st7;  " d=" M  3432.23,   349.22  L  3431.96,   349.69  L  3431.87,   350.23  L  3431.96,   350.76  L  3432.23,   351.23  L  3432.65,   351.58  L  3433.16,   351.76  L  3433.69,   351.76  L  3434.20,   351.58  L  3434.62,   351.23  L  3434.89,   350.76  L  3434.98,   350.23  L  3434.89,   349.69  L  3434.62,   349.22  L  3434.20,   348.88  L  3433.69,   348.69  L  3433.16,   348.69  L  3432.65,   348.88  L  3432.23,   349.22  L  3432.63,   349.94  L  3432.63,   350.52  L  3433.00,   350.96  L  3433.57,   351.06  L  3434.08,   350.77  L  3434.27,   350.23  L  3434.08,   349.68  L  3433.57,   349.39  L  3433.00,   349.49  L  3433.42,   350.23  " /><path style="stroke-width: 0.85 ;&st7;  " d=" M  3433.42,   350.23  L  3441.92,   350.23  " /><path style="stroke-width: 0.85 ;&st7;  " d=" M  3432.23,   315.23  L  3431.96,   315.70  L  3431.87,   316.23  L  3431.96,   316.77  L  3432.23,   317.24  L  3432.65,   317.58  L  3433.16,   317.77  L  3433.69,   317.77  L  3434.20,   317.58  L  3434.62,   317.24  L  3434.89,   316.77  L  3434.98,   316.23  L  3434.89,   315.70  L  3434.62,   315.23  L  3434.20,   314.88  L  3433.69,   314.70  L  3433.16,   314.70  L  3432.65,   314.88  L  3432.23,   315.23  L  3432.63,   315.94  L  3432.63,   316.52  L  3433.00,   316.97  L  3433.57,   317.07  L  3434.08,   316.78  L  3434.27,   316.23  L  3434.08,   315.69  L  3433.57,   315.40  L  3433.00,   315.50  L  3433.42,   316.23  " /><path style="stroke-width: 0.85 ;&st7;  " d=" M  3433.42,   316.23  L  3441.92,   316.23  " /><path style="stroke-width: 0.85 ;&st7;  " d=" M  3432.23,   255.74  L  3431.96,   256.21  L  3431.87,   256.74  L  3431.96,   257.28  L  3432.23,   257.75  L  3432.65,   258.09  L  3433.16,   258.28  L  3433.69,   258.28  L  3434.20,   258.09  L  3434.62,   257.75  L  3434.89,   257.28  L  3434.98,   256.74  L  3434.89,   256.21  L  3434.62,   255.74  L  3434.20,   255.39  L  3433.69,   255.21  L  3433.16,   255.21  L  3432.65,   255.39  L  3432.23,   255.74  L  3432.63,   256.45  L  3432.63,   257.03  L  3433.00,   257.48  L  3433.57,   257.58  L  3434.08,   257.29  L  3434.27,   256.74  L  3434.08,   256.20  L  3433.57,   255.91  L  3433.00,   256.01  L  3433.42,   256.74  " /><path style="stroke-width: 1.42 ;&st7;  " d=" M  3424.93,    35.78  L  3441.92,    35.78  L  3441.92,   537.20  L  3424.93,   537.20  L  3424.93,    35.78  " /><path style="stroke-width: 0.85 ;&st7;  " d=" M  3432.23,   179.25  L  3431.96,   179.72  L  3431.87,   180.26  L  3431.96,   180.79  L  3432.23,   181.26  L  3432.65,   181.60  L  3433.16,   181.79  L  3433.69,   181.79  L  3434.20,   181.60  L  3434.62,   181.26  L  3434.89,   180.79  L  3434.98,   180.26  L  3434.89,   179.72  L  3434.62,   179.25  L  3434.20,   178.91  L  3433.69,   178.72  L  3433.16,   178.72  L  3432.65,   178.91  L  3432.23,   179.25  L  3432.63,   179.96  L  3432.63,   180.55  L  3433.00,   180.99  L  3433.57,   181.09  L  3434.08,   180.80  L  3434.27,   180.26  L  3434.08,   179.71  L  3433.57,   179.42  L  3433.00,   179.52  L  3433.42,   180.26  " /><path style="stroke-width: 0.85 ;&st7;  " d=" M  3433.42,   180.26  L  3441.92,   180.26  " /><path style="stroke-width: 0.85 ;&st7;  " d=" M  3441.92,    44.28  L  3433.42,    44.28  L  3433.42,   528.70  L  3441.92,   528.70  " /><path style="stroke-width: 0.85 ;&st7;  " d=" M  3433.42,    78.27  L  3441.92,    78.27  " /><path style="stroke-width: 0.85 ;&st7;  " d=" M  3432.23,    77.27  L  3431.96,    77.74  L  3431.87,    78.27  L  3431.96,    78.81  L  3432.23,    79.28  L  3432.65,    79.62  L  3433.16,    79.81  L  3433.69,    79.81  L  3434.20,    79.62  L  3434.62,    79.28  L  3434.89,    78.81  L  3434.98,    78.27  L  3434.89,    77.74  L  3434.62,    77.27  L  3434.20,    76.92  L  3433.69,    76.74  L  3433.16,    76.74  L  3432.65,    76.92  L  3432.23,    77.27  L  3432.63,    77.98  L  3432.63,    78.56  L  3433.00,    79.01  L  3433.57,    79.11  L  3434.08,    78.82  L  3434.27,    78.27  L  3434.08,    77.73  L  3433.57,    77.44  L  3433.00,    77.54  L  3433.42,    78.27  " /><path style="stroke-width: 0.85 ;&st7;  " d=" M  3432.23,   136.76  L  3431.96,   137.23  L  3431.87,   137.76  L  3431.96,   138.30  L  3432.23,   138.77  L  3432.65,   139.11  L  3433.16,   139.30  L  3433.69,   139.30  L  3434.20,   139.11  L  3434.62,   138.77  L  3434.89,   138.30  L  3434.98,   137.76  L  3434.89,   137.23  L  3434.62,   136.76  L  3434.20,   136.41  L  3433.69,   136.23  L  3433.16,   136.23  L  3432.65,   136.41  L  3432.23,   136.76  L  3432.63,   137.47  L  3432.63,   138.05  L  3433.00,   138.50  L  3433.57,   138.60  L  3434.08,   138.31  L  3434.27,   137.76  L  3434.08,   137.22  L  3433.57,   136.93  L  3433.00,   137.03  L  3433.42,   137.76  " /><path style="stroke-width: 0.85 ;&st7;  " d=" M  3433.42,   137.76  L  3441.92,   137.76  " /><path style="stroke-width: 0.85 ;&st7;  " d=" M  3433.42,   256.74  L  3441.92,   256.74  " /><text style="&st18;" transform="matrix(&st16;  3444.51  448.52 )">18</text><text style="&st18;" transform="matrix(&st16;  3444.51  380.53 )">15</text><text style="&st18;" transform="matrix(&st16;  3444.51  312.54 )">19</text><text style="&st18;" transform="matrix(&st16;  3444.51  176.56 )">14</text><text style="&st18;" transform="matrix(&st16;  3444.51  134.07 )">13</text><text style="&st18;" transform="matrix(&st16;  3444.51  74.58 )">17</text><text style="&st18;" transform="matrix(&st16;  3444.51  525.01 )">22</text><text style="&st18;" transform="matrix(&st16;  3444.51  414.53 )">16</text><text style="&st18;" transform="matrix(&st16;  3444.51  346.54 )">20</text><text style="&st18;" transform="matrix(&st16;  3444.51  40.59 )">12</text><text style="&st18;" transform="matrix(&st16;  3444.51  253.05 )">21</text><g ewd:figtype="title"><text style="&st18;" transform="matrix(&st17;  3414.13  191.65 )">G104</text><text style="&st18;" transform="matrix(&st17;  3421.23  191.66 )" ewd:textID="176">No. 17 Junction Connector</text></g></g><g ewd:figtype="w2w" ewd:figID="45" ewd:code="IG2"><path style="stroke-width: 1.42 ;&st7;  " d=" M  3293.20,   427.28  L  3288.95,   423.03  L  3284.70,   427.28  " /><path style="stroke-width: 1.42 ;&st7;  " d=" M  3293.20,   423.88  L  3288.95,   419.63  L  3284.70,   423.88  " /><text style="&st18;" transform="matrix(&st16;  3273.22  415.94 )">12</text></g><g ewd:figtype="gp" ewd:figID="78" ewd:code="GC"><path style="stroke-width: 0.85 ;&st7;  " d=" M  3288.95,   697.25  L  3288.95,   701.50  " /><path style="stroke-width: 0.85 ;&st7;  " d=" M  3280.45,   701.50  L  3297.45,   701.50  " /><path style="stroke-width: 0.85 ;&st7;  " d=" M  3284.70,   704.33  L  3293.20,   704.33  " /><path style="stroke-width: 0.85 ;&st7;  " d=" M  3286.12,   707.17  L  3291.78,   707.17  " /><path style="stroke-width: 0.85 ;&st7;  " d=" M  3287.53,   710.00  L  3290.37,   710.00  " /></g></svg>