﻿<?xml version="1.0" encoding="utf-8"?>
<!DOCTYPE svg PUBLIC "-//W3C//DTD SVG 1.0//EN" "http://www.w3.org/TR/2001/REC-SVG-20010904/DTD/svg10.dtd"[
	<!ENTITY ns_flows "http://ns.adobe.com/Flows/1.0/">
	<!ENTITY ns_svg "http://www.w3.org/2000/svg">
	<!ENTITY ns_xlink "http://www.w3.org/1999/xlink">
	<!ENTITY st0 "font-size:7px;font-family:'MS-PGothic';adobe-font-script:japanese;">
	<!ENTITY st1 "font-size:6px;font-family:'ArialMT';">
	<!-- White fill  -->
	<!ENTITY st2 "fill:#FFFFFF;stroke:#000000; stroke-width:1.41;stroke-linecap:round;stroke-linejoin:round;">
	<!-- Yellow fill  -->
	<!ENTITY st3 "fill:#FFFFCC;stroke:#FFFFCC; stroke-width:0.1;stroke-linecap:round;stroke-linejoin:round;">
	<!-- Gray fill  -->
	<!ENTITY st4 "fill:#CCCCCC;stroke:#CCCCCC; stroke-width:0.1;stroke-linecap:round;stroke-linejoin:round;">
	<!-- Light-blue fill -->
	<!ENTITY st5 "fill:#CCECF4;stroke:#000000; stroke-width:1.133;stroke-linecap:round;stroke-linejoin:round;">
	<!ENTITY st6 "fill:none;stroke-linecap:butt; stroke-linejoin:round;">
	<!ENTITY st7 "fill:none;stroke:#000000;stroke-linecap:round;stroke-linejoin:round;">
	<!ENTITY st8 "enable-background:new    ;">
	<!-- Black fill -->
	<!ENTITY st9 "fill:#000000;stroke:#000000; stroke-linecap:round;stroke-linejoin:round;">
	<!-- SRS note   -->
	<!ENTITY st10 "font-size:9px;font-family:'ArialMT';">
	<!ENTITY st11 "font-size:9px;font-family:'Svg Symbol';">
	<!ENTITY st12 "font-size:6px;font-family:'Svg Symbol';">
	<!ENTITY st13 "fill:none;stroke:#ff0000;stroke-linecap:round;stroke-linejoin:round;">
	<!-- Yellow fill  -->
	<!ENTITY st14 "fill:#FFFF00;stroke:#FFFF00; stroke-width:0.1;stroke-linecap:round;stroke-linejoin:round;">
	<!ENTITY st15 "font-size:6px;font-family:'MS-PGothic';adobe-font-script:japanese;">
	<!ENTITY st16 "1.00 0.00 0.00 1.00">
	<!ENTITY st17 "0.00 -1.00 1.00 0.00">
	<!ENTITY st18 "font-size:6px;font-family:'Arial';">
	<!ENTITY st19 "font-size:9px;font-family:'Arial';">
	<!ENTITY st20 "font-size:6px;font-family:'MS-PGothic','MS PGothic';adobe-font-script:japanese;">
	<!ENTITY st21 "font-size:7px;font-family:'MS-PGothic','MS PGothic';adobe-font-script:japanese;">
	<!ATTLIST svg
		xmlns:ewd CDATA #FIXED "http://shcl.co.jp/ewd"
		xmlns:a CDATA #FIXED "http://ns.adobe.com/AdobeSVGViewerExtensions/3.0/"
		ewd:ver CDATA #IMPLIED
	>
	<!ATTLIST a
		ewd:lineID CDATA #IMPLIED
		ewd:groupID CDATA #IMPLIED
		ewd:figtype CDATA #IMPLIED
		ewd:code CDATA #IMPLIED
		ewd:figID CDATA #IMPLIED
		ewd:pinNo CDATA #IMPLIED
		ewd:comment CDATA #IMPLIED >
	<!ATTLIST g
		ewd:lineID CDATA #IMPLIED
		ewd:groupID CDATA #IMPLIED
		ewd:figtype CDATA #IMPLIED
		ewd:code CDATA #IMPLIED
		ewd:figID CDATA #IMPLIED
		ewd:pinNo CDATA #IMPLIED
		ewd:comment CDATA #IMPLIED >
	<!ATTLIST text
		ewd:textID CDATA #IMPLIED >
	<!ATTLIST title
		ewd:textID CDATA #IMPLIED >
]>
<!-- Generator: Shintec Hozumi YS   -->
<svg onload="call_execInitLoadProc_svg('system')" style="overflow:visible;  enable-background:new 0 0 3620.920 710.000" viewBox="0 0 3620.920 710.000" height="710.000" width="3620.920" xml:space="preserve" ewd:ver="2.1.2.9" xmlns="&ns_svg;" xmlns:a="http://ns.adobe.com/AdobeSVGViewerExtensions/3.0/" xmlns:ewd="http://shcl.co.jp/ewd" xmlns:xlink="&ns_xlink;">
<text style="&st18;" transform="matrix(&st17;  1194.6  198.82 )">L</text><text style="&st18;" transform="matrix(&st17;  1205.94  209.1 )">(LHD *8)</text><text style="&st18;" transform="matrix(&st17;  1220.1  198.82 )">L</text><text style="&st18;" transform="matrix(&st17;  1231.43  209.14 )">(RHD *8)</text><text style="&st18;" transform="matrix(&st17;  1109.62  224.71 )">G</text><text style="&st18;" transform="matrix(&st17;  1120.95  234.6 )">(LHD *8)</text><text style="&st18;" transform="matrix(&st17;  1058.63  224.71 )">G</text><text style="&st18;" transform="matrix(&st17;  1069.96  234.63 )">(RHD *8)</text><text style="&st18;" transform="matrix(&st17;  1330.58  200.8 )">BE</text><text style="&st18;" transform="matrix(&st17;  1341.91  201.97 )">(*7)</text><text style="&st18;" transform="matrix(&st17;  1330.58  283.93 )">B</text><text style="&st18;" transform="matrix(&st17;  1341.91  294.09 )">(LHD *7)</text><text style="&st18;" transform="matrix(&st17;  1330.58  368.8 )">L</text><text style="&st18;" transform="matrix(&st17;  1341.91  379.07 )">(LHD *7)</text><text style="&st18;" transform="matrix(&st17;  1271.09  283.81 )">L</text><text style="&st18;" transform="matrix(&st17;  1282.42  294.12 )">(RHD *7)</text><path style="stroke-width: 1.42 ;&st7;  " d=" M  1415.73,   622.18  L  1410.76,   627.15  " /><path style="stroke-width: 1.42 ;&st7;  " d=" M  1422.79,   639.18  L  1427.76,   634.21  " /><path style="stroke-width: 1.42 ;&st7;  " d=" M  1410.76,   634.21  L  1415.73,   639.18  " /><path style="stroke-width: 1.42 ;&st7;  " d=" M  1427.76,   627.15  L  1422.79,   622.18  " /><text style="&st18;" transform="matrix(&st17;  1415.57  379.51 )">LG</text><text style="&st18;" transform="matrix(&st17;  1415.57  292.35 )">R</text><text style="&st18;" transform="matrix(&st17;  1475.06  175.58 )">GR</text><text style="&st18;" transform="matrix(&st17;  1415.57  156.25 )">P</text><text style="&st18;" transform="matrix(&st17;  1415.57  662.13 )">W-B</text><path style="stroke-width: 1.42 ;&st7;  " d=" M  1410.76,   401.22  L  1419.26,   401.22  " /><text style="&st18;" transform="matrix(&st16;  1228.88  24.98 )">G78(A),G202(C)</text><text style="&st18;" transform="matrix(&st16;  1228.89  32.08 )" ewd:textID="28">Main Body ECU</text><text style="&st18;" transform="matrix(&st17;  1415.57  446.18 )">W</text><text style="&st18;" transform="matrix(&st17;  1426.9  448.42 )">(*1)</text><text style="&st18;" transform="matrix(&st17;  1426.9  605.65 )">(*1)</text><text style="&st18;" transform="matrix(&st17;  1415.57  606.89 )">W-B</text><g ewd:figtype="conn" ewd:figID="2" ewd:code="G78,G202"><g ewd:lineID="136"><text style="&st18;" transform="matrix(&st16;  1220.44  74.58 )">IG</text></g><g ewd:lineID="141"><text style="&st18;" transform="matrix(&st16;  1411.14  74.58 )">BCTL</text><text style="&st18;" transform="matrix(&st16;  1470.52  74.58 )">BCTY</text></g></g><g ewd:code="N24,N38" ewd:figID="9" ewd:comment="11,12" ewd:figtype="conn"><path style="stroke-width: 0.85 ;&st7; stroke-dasharray:3, 1.5;" d=" M  1427.76,   320.20  L  1461.76,   320.20  " /><path style="stroke-width: 0.85 ;&st7; stroke-dasharray:3, 1.5;" d=" M  1427.76,   311.13  L  1461.76,   311.13  " /><path style="stroke-width: 0.85 ;&st7;  " d=" M  1418.07,   332.23  L  1417.80,   332.70  L  1417.70,   333.23  L  1417.80,   333.76  L  1418.07,   334.23  L  1418.48,   334.58  L  1418.99,   334.77  L  1419.53,   334.77  L  1420.04,   334.58  L  1420.45,   334.23  L  1420.73,   333.76  L  1420.82,   333.23  L  1420.73,   332.70  L  1420.45,   332.23  L  1420.04,   331.88  L  1419.53,   331.69  L  1418.99,   331.69  L  1418.48,   331.88  L  1418.07,   332.23  L  1418.46,   332.94  L  1418.46,   333.52  L  1418.84,   333.97  L  1419.41,   334.07  L  1419.91,   333.78  L  1420.11,   333.23  L  1419.91,   332.68  L  1419.41,   332.39  L  1418.84,   332.49  L  1419.26,   333.23  " /><path style="stroke-width: 0.85 ;&st7;  " d=" M  1419.26,   333.23  L  1478.75,   333.23  L  1478.75,   324.73  " /><path style="stroke-width: 0.85 ;&st7;  " d=" M  1419.26,   324.73  L  1419.26,   341.73  " /><path style="stroke-width: 1.42 ;&st7;  " d=" M  1410.76,   324.73  L  1410.76,   341.73  L  1487.25,   341.73  L  1487.25,   324.73  L  1410.76,   324.73  " /><text style="&st18;" transform="matrix(&st16;  1410.57  357.3 )">8</text><text style="&st18;" transform="matrix(&st16;  1410.57  348.23 )">8</text><text style="&st18;" transform="matrix(&st16;  1417.07  357.3 )">B</text><path style="stroke-width: 1.42 ;&st7;   " d=" M  1423.80,   346.26  C  1423.80    343.76   1421.77    341.73   1419.26    341.73  " /><path style="stroke-width: 1.42 ;&st7;   " d=" M  1419.26,   341.73  C  1416.76    341.73   1414.73    343.76   1414.73    346.26  " /><path style="stroke-width: 1.42 ;&st7;   " d=" M  1414.73,   346.26  C  1414.73    348.76   1416.76    350.79   1419.26    350.79  " /><path style="stroke-width: 1.42 ;&st7;   " d=" M  1419.26,   350.79  C  1421.77    350.79   1423.80    348.76   1423.80    346.26  " /><path style="stroke-width: 1.42 ;&st7;   " d=" M  1423.80,   355.33  C  1423.80    352.82   1421.77    350.79   1419.26    350.79  " /><path style="stroke-width: 1.42 ;&st7;   " d=" M  1419.26,   350.79  C  1416.76    350.79   1414.73    352.82   1414.73    355.33  " /><path style="stroke-width: 1.42 ;&st7;   " d=" M  1414.73,   355.33  C  1414.73    357.83   1416.76    359.86   1419.26    359.86  " /><path style="stroke-width: 1.42 ;&st7;   " d=" M  1419.26,   359.86  C  1421.77    359.86   1423.80    357.83   1423.80    355.33  " /><text style="&st18;" transform="matrix(&st16;  1416.96  348.23 )">A</text><text style="&st18;" transform="matrix(&st16;  1410.57  322.17 )">9</text><text style="&st18;" transform="matrix(&st16;  1410.57  313.1 )">9</text><path style="stroke-width: 1.42 ;&st7;   " d=" M  1423.80,   320.20  C  1423.80    317.70   1421.77    315.67   1419.26    315.67  " /><path style="stroke-width: 1.42 ;&st7;   " d=" M  1419.26,   315.67  C  1416.76    315.67   1414.73    317.70   1414.73    320.20  " /><path style="stroke-width: 1.42 ;&st7;   " d=" M  1414.73,   320.20  C  1414.73    322.70   1416.76    324.73   1419.26    324.73  " /><path style="stroke-width: 1.42 ;&st7;   " d=" M  1419.26,   324.73  C  1421.77    324.73   1423.80    322.70   1423.80    320.20  " /><path style="stroke-width: 1.42 ;&st7;   " d=" M  1423.80,   311.13  C  1423.80    308.63   1421.77    306.60   1419.26    306.60  " /><path style="stroke-width: 1.42 ;&st7;   " d=" M  1419.26,   306.60  C  1416.76    306.60   1414.73    308.63   1414.73    311.13  " /><path style="stroke-width: 1.42 ;&st7;   " d=" M  1414.73,   311.13  C  1414.73    313.64   1416.76    315.67   1419.26    315.67  " /><path style="stroke-width: 1.42 ;&st7;   " d=" M  1419.26,   315.67  C  1421.77    315.67   1423.80    313.64   1423.80    311.13  " /><text style="&st18;" transform="matrix(&st16;  1416.96  313.1 )">A</text><text style="&st18;" transform="matrix(&st16;  1417.07  322.17 )">B</text><text style="&st18;" transform="matrix(&st16;  1466.96  322.17 )">11</text><text style="&st18;" transform="matrix(&st16;  1466.96  313.1 )">11</text><path style="stroke-width: 1.42 ;&st7;   " d=" M  1483.29,   311.13  C  1483.29    308.63   1481.26    306.60   1478.75    306.60  " /><path style="stroke-width: 1.42 ;&st7;   " d=" M  1478.75,   306.60  C  1476.25    306.60   1474.22    308.63   1474.22    311.13  " /><path style="stroke-width: 1.42 ;&st7;   " d=" M  1474.22,   311.13  C  1474.22    313.64   1476.25    315.67   1478.75    315.67  " /><path style="stroke-width: 1.42 ;&st7;   " d=" M  1478.75,   315.67  C  1481.26    315.67   1483.29    313.64   1483.29    311.13  " /><path style="stroke-width: 1.42 ;&st7;   " d=" M  1483.29,   320.20  C  1483.29    317.70   1481.26    315.67   1478.75    315.67  " /><path style="stroke-width: 1.42 ;&st7;   " d=" M  1478.75,   315.67  C  1476.25    315.67   1474.22    317.70   1474.22    320.20  " /><path style="stroke-width: 1.42 ;&st7;   " d=" M  1474.22,   320.20  C  1474.22    322.70   1476.25    324.73   1478.75    324.73  " /><path style="stroke-width: 1.42 ;&st7;   " d=" M  1478.75,   324.73  C  1481.26    324.73   1483.29    322.70   1483.29    320.20  " /><text style="&st18;" transform="matrix(&st16;  1476.45  313.1 )">A</text><text style="&st18;" transform="matrix(&st16;  1476.56  322.17 )">B</text><g ewd:figtype="title"><text style="&st18;" transform="matrix(&st17;  1401.12  344.63 )" ewd:textID="47">No. 33 <tspan x="0 " dy="6.0">Junction Connector</tspan></text><text style="&st18;" transform="matrix(&st17;  1394.3  344.63 )">N24(A),N38(B)</text></g><g ewd:code="" ewd:figID="145" ewd:comment="12" ewd:figtype="commref"><text style="&st18;" transform="matrix(&st16;  1483.85  322.17 )">(*12)</text></g><g ewd:code="" ewd:figID="146" ewd:comment="11" ewd:figtype="commref"><text style="&st18;" transform="matrix(&st16;  1483.85  313.1 )">(*11)</text></g><g ewd:code="" ewd:figID="147" ewd:comment="12" ewd:figtype="commref"><text style="&st18;" transform="matrix(&st16;  1424.36  357.3 )">(*12)</text></g><g ewd:code="" ewd:figID="148" ewd:comment="11" ewd:figtype="commref"><text style="&st18;" transform="matrix(&st16;  1424.36  348.23 )">(*11)</text></g></g><g ewd:figtype="conn" ewd:figID="12" ewd:code="G87"><path style="stroke-width: 1.42 ;&st7;  " d=" M  1317.28,   409.72  L  1317.28,   443.71  L  1351.27,   443.71  L  1351.27,   409.72  L  1317.28,   409.72  " /><g ewd:lineID="33,34"><text style="&st18;" transform="matrix(&st16;  1325.58  407.15 )">3</text><path style="stroke-width: 1.42 ;&st7;   " d=" M  1338.81,   405.18  C  1338.81    402.68   1336.78    400.65   1334.28    400.65  " /><path style="stroke-width: 1.42 ;&st7;   " d=" M  1334.28,   400.65  C  1331.77    400.65   1329.74    402.68   1329.74    405.18  " /><path style="stroke-width: 1.42 ;&st7;   " d=" M  1329.74,   405.18  C  1329.74    407.69   1331.77    409.72   1334.28    409.72  " /><path style="stroke-width: 1.42 ;&st7;   " d=" M  1334.28,   409.72  C  1336.78    409.72   1338.81    407.69   1338.81    405.18  " /><text style="&st18;" transform="matrix(&st16;  1331.86  407.15 )">C</text><text style="&st18;" transform="matrix(&st16;  1327.82  417.35 )">IG41</text></g><g ewd:figtype="title"><text style="&st18;" transform="matrix(&st17;  1365.99  446.62 )" ewd:textID="19">Engine Stop <tspan x="0 " dy="6.0">and Start ECU</tspan></text><text style="&st18;" transform="matrix(&st17;  1358.89  446.61 )">G87(C)</text></g></g><g ewd:figtype="conn" ewd:figID="13" ewd:code="G186"><path style="stroke-width: 1.42 ;&st7;  " d=" M  1325.78,   316.23  L  1342.78,   316.23  L  1342.78,   333.23  L  1325.78,   333.23  L  1325.78,   316.23  " /><path style="stroke-width: 0.85 ;&st7;  " d=" M  1334.28,   316.23  L  1334.28,   333.23  " /><text style="&st18;" transform="matrix(&st16;  1324.99  341.42 )">21</text><text style="&st18;" transform="matrix(&st16;  1324.99  312.54 )">22</text><g ewd:figtype="title"><text style="&st18;" transform="matrix(&st17;  1357.49  336.14 )" ewd:textID="48">No. 37 <tspan x="0 " dy="6.0">Junction Connector</tspan></text><text style="&st18;" transform="matrix(&st17;  1350.39  336.13 )">G186</text></g></g><g ewd:figtype="conn" ewd:figID="14" ewd:code="G100"><path style="stroke-width: 1.42 ;&st7;  " d=" M  1104.81,   256.74  L  1121.81,   256.74  L  1121.81,   273.74  L  1104.81,   273.74  L  1104.81,   256.74  " /><path style="stroke-width: 0.85 ;&st7;  " d=" M  1113.31,   256.74  L  1113.31,   273.74  " /><text style="&st18;" transform="matrix(&st16;  1104.03  253.05 )">12</text><text style="&st18;" transform="matrix(&st16;  1104.03  281.93 )">18</text><g ewd:figtype="title"><text style="&st18;" transform="matrix(&st17;  1129.42  276.64 )">G100</text><text style="&st18;" transform="matrix(&st17;  1136.53  276.65 )" ewd:textID="42">No. 13 <tspan x="0 " dy="6.0">Junction Connector</tspan></text></g></g><g ewd:figtype="conn" ewd:figID="15" ewd:code="G96"><path style="stroke-width: 1.42 ;&st7;  " d=" M  1053.82,   256.74  L  1070.82,   256.74  L  1070.82,   273.74  L  1053.82,   273.74  L  1053.82,   256.74  " /><path style="stroke-width: 0.85 ;&st7;  " d=" M  1062.32,   256.74  L  1062.32,   273.74  " /><text style="&st18;" transform="matrix(&st16;  1053.04  281.93 )">12</text><text style="&st18;" transform="matrix(&st16;  1053.04  253.05 )">15</text><g ewd:figtype="title"><text style="&st18;" transform="matrix(&st17;  1078.43  276.64 )">G96</text><text style="&st18;" transform="matrix(&st17;  1085.54  276.65 )" ewd:textID="38">No. 9 <tspan x="0 " dy="6.0">Junction Connector</tspan></text></g></g><g ewd:figtype="conn" ewd:figID="21" ewd:code="N1"><path style="stroke-width: 1.42 ;&st7;  " d=" M  1402.27,   171.76  L  1402.27,   256.74  L  1436.26,   256.74  L  1436.26,   171.76  L  1402.27,   171.76  " /><path style="stroke-width: 0.85 ;&st7;  " d=" M  1419.26,   201.50  L  1419.26,   205.75  " /><path style="stroke-width: 0.85 ;&st7;  " d=" M  1419.26,   188.75  L  1419.26,   193.00  " /><path style="stroke-width: 1.42 ;&st7;   " d=" M  1427.76,   197.25  C  1427.76    192.56   1423.96    188.75   1419.26    188.75  " /><path style="stroke-width: 1.42 ;&st7;   " d=" M  1419.26,   188.75  C  1414.57    188.75   1410.76    192.56   1410.76    197.25  " /><path style="stroke-width: 1.42 ;&st7;   " d=" M  1410.76,   197.25  C  1410.76    201.95   1414.57    205.75   1419.26    205.75  " /><path style="stroke-width: 1.42 ;&st7;   " d=" M  1419.26,   205.75  C  1423.96    205.75   1427.76    201.95   1427.76    197.25  " /><path style="stroke-width: 0.85 ;&st7;   " d=" M  1416.85,   197.25  C  1417.65    198.59   1419.37    199.04   1420.71    198.24  " /><path style="stroke-width: 0.85 ;&st7;   " d=" M  1420.71,   198.24  C  1422.05    197.45   1422.50    195.72   1421.70    194.39  " /><path style="stroke-width: 0.85 ;&st7;   " d=" M  1421.70,   194.39  C  1421.18    193.50   1420.30    193.00   1419.26    193.00  " /><path style="stroke-width: 0.85 ;&st7;   " d=" M  1419.26,   201.50  C  1420.82    201.51   1422.09    200.26   1422.10    198.70  " /><path style="stroke-width: 0.85 ;&st7;   " d=" M  1422.10,   198.70  C  1422.11    197.15   1420.85    195.88   1419.30    195.87  " /><path style="stroke-width: 0.85 ;&st7;   " d=" M  1419.30,   195.87  C  1418.26    195.86   1417.38    196.36   1416.86    197.25  " /><path style="stroke-width: 0.85 ;&st7;  " d=" M  1419.26,   218.50  L  1419.26,   205.75  " /><path style="stroke-width: 0.85 ;&st7;   " d=" M  1420.68,   219.92  C  1420.68    219.13   1420.05    218.50   1419.26    218.50  " /><path style="stroke-width: 0.85 ;&st7;   " d=" M  1419.26,   218.50  C  1418.48    218.50   1417.85    219.13   1417.85    219.92  " /><path style="stroke-width: 0.85 ;&st7;   " d=" M  1417.85,   219.92  C  1417.85    220.70   1418.48    221.33   1419.26    221.33  " /><path style="stroke-width: 0.85 ;&st7;   " d=" M  1419.26,   221.33  C  1420.05    221.33   1420.68    220.70   1420.68    219.92  " /><path style="stroke-width: 1.42 ;&st7;  " d=" M  1419.26,   241.16  L  1424.93,   218.50  " /><path style="stroke-width: 0.85 ;&st7;  " d=" M  1419.26,   256.74  L  1419.26,   243.99  " /><path style="stroke-width: 0.85 ;&st7;   " d=" M  1420.68,   242.58  C  1420.68    241.80   1420.05    241.16   1419.26    241.16  " /><path style="stroke-width: 0.85 ;&st7;   " d=" M  1419.26,   241.16  C  1418.48    241.16   1417.85    241.80   1417.85    242.58  " /><path style="stroke-width: 0.85 ;&st7;   " d=" M  1417.85,   242.58  C  1417.85    243.36   1418.48    243.99   1419.26    243.99  " /><path style="stroke-width: 0.85 ;&st7;   " d=" M  1419.26,   243.99  C  1420.05    243.99   1420.68    243.36   1420.68    242.58  " /><path style="stroke-width: 0.85 ;&st7;  " d=" M  1419.26,   171.76  L  1419.26,   188.75  " /><text style="&st18;" transform="matrix(&st16;  1421.85  253.05 )">L</text><text style="&st18;" transform="matrix(&st16;  1421.85  179.95 )">B</text><text style="&st18;" transform="matrix(&st16;  1413.08  264.94 )">1</text><text style="&st18;" transform="matrix(&st16;  1413.08  168.07 )">2</text><g ewd:figtype="title"><text style="&st18;" transform="matrix(&st17;  1443.87  259.64 )">N1</text><text style="&st18;" transform="matrix(&st17;  1450.98  259.65 )" ewd:textID="31">No. 2 Room Light Assembly</text></g></g><g ewd:figtype="conn" ewd:figID="22" ewd:code="U12"><path style="stroke-width: 0.85 ;&st7;   " d=" M  1505.67,   483.37  C  1505.67    482.59   1505.03    481.95   1504.25    481.95  " /><path style="stroke-width: 0.85 ;&st7;   " d=" M  1504.25,   481.95  C  1503.47    481.95   1502.83    482.59   1502.83    483.37  " /><path style="stroke-width: 0.85 ;&st7;   " d=" M  1502.83,   483.37  C  1502.83    484.15   1503.47    484.79   1504.25    484.79  " /><path style="stroke-width: 0.85 ;&st7;   " d=" M  1504.25,   484.79  C  1505.03    484.79   1505.67    484.15   1505.67    483.37  " /><path style="stroke-width: 1.42 ;&st7;  " d=" M  1504.25,   504.62  L  1509.91,   481.95  " /><path style="stroke-width: 1.42 ;&st7;  " d=" M  1529.74,   520.20  L  1529.74,   469.21  L  1487.25,   469.21  L  1487.25,   520.20  L  1529.74,   520.20  " /><path style="stroke-width: 0.85 ;&st7;  " d=" M  1504.25,   520.20  L  1504.25,   507.45  " /><path style="stroke-width: 0.85 ;&st7;  " d=" M  1504.25,   481.95  L  1504.25,   469.21  " /><path style="stroke-width: 0.85 ;&st7;   " d=" M  1505.67,   506.03  C  1505.67    505.25   1505.03    504.62   1504.25    504.62  " /><path style="stroke-width: 0.85 ;&st7;   " d=" M  1504.25,   504.62  C  1503.47    504.62   1502.83    505.25   1502.83    506.03  " /><path style="stroke-width: 0.85 ;&st7;   " d=" M  1502.83,   506.03  C  1502.83    506.82   1503.47    507.45   1504.25    507.45  " /><path style="stroke-width: 0.85 ;&st7;   " d=" M  1504.25,   507.45  C  1505.03    507.45   1505.67    506.82   1505.67    506.03  " /><text style="&st18;" transform="matrix(&st17;  1500.55  506.16 )" ewd:textID="15">Courtesy</text><text style="&st18;" transform="matrix(&st16;  1506.83  477.4 )">D+</text><text style="&st18;" transform="matrix(&st16;  1506.83  516.51 )">ACT-</text><text style="&st18;" transform="matrix(&st16;  1498.06  528.39 )">2</text><text style="&st18;" transform="matrix(&st16;  1498.06  465.52 )">3</text><g ewd:figtype="title"><text style="&st18;" transform="matrix(&st17;  1537.36  523.1 )">U12</text><text style="&st18;" transform="matrix(&st17;  1544.46  523.1 )" ewd:textID="13">Back Door Lock Assembly</text></g></g><g ewd:figtype="conn" ewd:figID="35" ewd:code="U27"><path style="stroke:#00A0C6;stroke-width: 5.10 ;&st6;" d=" M  1419.26,   469.21  L  1419.26,   503.20  " /><path style="stroke:#FFE600;stroke-width: 5.10 ;&st6;" d=" M  1419.26,   571.19  L  1419.26,   537.20  " /><path style="stroke-width: 0.85 ;&st7;   " d=" M  1420.68,   508.87  C  1420.68    508.08   1420.05    507.45   1419.26    507.45  " /><path style="stroke-width: 0.85 ;&st7;   " d=" M  1419.26,   507.45  C  1418.48    507.45   1417.85    508.08   1417.85    508.87  " /><path style="stroke-width: 0.85 ;&st7;   " d=" M  1417.85,   508.87  C  1417.85    509.65   1418.48    510.28   1419.26    510.28  " /><path style="stroke-width: 0.85 ;&st7;   " d=" M  1419.26,   510.28  C  1420.05    510.28   1420.68    509.65   1420.68    508.87  " /><path style="stroke-width: 0.85 ;&st7;   " d=" M  1420.68,   531.53  C  1420.68    530.75   1420.05    530.11   1419.26    530.11  " /><path style="stroke-width: 0.85 ;&st7;   " d=" M  1419.26,   530.11  C  1418.48    530.11   1417.85    530.75   1417.85    531.53  " /><path style="stroke-width: 0.85 ;&st7;   " d=" M  1417.85,   531.53  C  1417.85    532.31   1418.48    532.95   1419.26    532.95  " /><path style="stroke-width: 0.85 ;&st7;   " d=" M  1419.26,   532.95  C  1420.05    532.95   1420.68    532.31   1420.68    531.53  " /><path style="stroke-width: 0.85 ;&st7;  " d=" M  1419.26,   507.45  L  1419.26,   503.20  " /><path style="stroke-width: 0.85 ;&st7;  " d=" M  1419.26,   537.20  L  1419.26,   532.95  " /><path style="stroke-width: 1.42 ;&st7;  " d=" M  1419.26,   530.11  L  1424.93,   507.45  " /><path style="stroke-width: 1.42 ;&st7;  " d=" M  1427.76,   537.20  L  1427.76,   503.20  L  1410.76,   503.20  L  1410.76,   537.20  L  1427.76,   537.20  " /><path style="stroke-width: 1.42 ;&st7;  " d=" M  1385.27,   571.19  L  1444.76,   571.19  L  1444.76,   469.21  L  1385.27,   469.21  L  1385.27,   571.19  " /><text style="&st18;" transform="matrix(&st17;  1415.57  487.78 )">L</text><text style="&st18;" transform="matrix(&st17;  1415.57  555.88 )">Y</text><text style="&st18;" transform="matrix(&st16;  1421.85  477.4 )">CTY</text><text style="&st18;" transform="matrix(&st16;  1421.85  567.5 )">E</text><text style="&st18;" transform="matrix(&st17;  1401.14  533.06 )" ewd:textID="26">Full Latch <tspan x="0 " dy="6.0">Switch</tspan></text><text style="&st18;" transform="matrix(&st16;  1410.57  577.69 )">1</text><text style="&st18;" transform="matrix(&st16;  1417.07  577.69 )">B</text><path style="stroke-width: 1.42 ;&st7;   " d=" M  1423.80,   575.72  C  1423.80    573.22   1421.77    571.19   1419.26    571.19  " /><path style="stroke-width: 1.42 ;&st7;   " d=" M  1419.26,   571.19  C  1416.76    571.19   1414.73    573.22   1414.73    575.72  " /><path style="stroke-width: 1.42 ;&st7;   " d=" M  1414.73,   575.72  C  1414.73    578.23   1416.76    580.26   1419.26    580.26  " /><path style="stroke-width: 1.42 ;&st7;   " d=" M  1419.26,   580.26  C  1421.77    580.26   1423.80    578.23   1423.80    575.72  " /><text style="&st18;" transform="matrix(&st16;  1410.57  466.64 )">4</text><text style="&st18;" transform="matrix(&st16;  1417.07  466.64 )">B</text><path style="stroke-width: 1.42 ;&st7;   " d=" M  1423.80,   464.67  C  1423.80    462.17   1421.77    460.14   1419.26    460.14  " /><path style="stroke-width: 1.42 ;&st7;   " d=" M  1419.26,   460.14  C  1416.76    460.14   1414.73    462.17   1414.73    464.67  " /><path style="stroke-width: 1.42 ;&st7;   " d=" M  1414.73,   464.67  C  1414.73    467.18   1416.76    469.21   1419.26    469.21  " /><path style="stroke-width: 1.42 ;&st7;   " d=" M  1419.26,   469.21  C  1421.77    469.21   1423.80    467.18   1423.80    464.67  " /><g ewd:figtype="title"><text style="&st18;" transform="matrix(&st17;  1452.37  574.09 )">U27(B)</text><text style="&st18;" transform="matrix(&st17;  1459.48  574.1 )" ewd:textID="13">Back Door Lock Assembly</text></g></g><g ewd:figtype="conn" ewd:figID="46" ewd:code="G93"><path style="stroke-width: 1.42 ;&st7;  " d=" M  1266.29,   231.25  L  1342.78,   231.25  L  1342.78,   248.24  L  1266.29,   248.24  L  1266.29,   231.25  " /><path style="stroke-width: 0.85 ;&st7;  " d=" M  1334.28,   231.25  L  1334.28,   248.24  " /><path style="stroke-width: 0.85 ;&st7;  " d=" M  1333.08,   238.74  L  1332.81,   239.21  L  1332.72,   239.75  L  1332.81,   240.28  L  1333.08,   240.75  L  1333.50,   241.09  L  1334.00,   241.28  L  1334.55,   241.28  L  1335.06,   241.09  L  1335.47,   240.75  L  1335.74,   240.28  L  1335.83,   239.75  L  1335.74,   239.21  L  1335.47,   238.74  L  1335.06,   238.40  L  1334.55,   238.21  L  1334.00,   238.21  L  1333.50,   238.40  L  1333.08,   238.74  L  1333.48,   239.45  L  1333.48,   240.04  L  1333.85,   240.48  L  1334.42,   240.58  L  1334.93,   240.29  L  1335.13,   239.75  L  1334.93,   239.20  L  1334.42,   238.91  L  1333.85,   239.01  L  1334.28,   239.75  " /><path style="stroke-width: 0.85 ;&st7;  " d=" M  1334.28,   239.75  L  1274.79,   239.75  L  1274.79,   248.24  " /><text style="&st18;" transform="matrix(&st16;  1265.5  256.44 )">16</text><text style="&st18;" transform="matrix(&st16;  1324.99  256.44 )">22</text><text style="&st18;" transform="matrix(&st16;  1324.99  227.56 )">19</text><g ewd:figtype="title"><text style="&st18;" transform="matrix(&st17;  1350.39  251.14 )">G93</text><text style="&st18;" transform="matrix(&st17;  1357.49  251.15 )" ewd:textID="35">No. 6 <tspan x="0 " dy="6.0">Junction Connector</tspan></text></g></g><g ewd:figtype="jb" ewd:figID="52" ewd:code="3"><path style="stroke-width: 1.42 ;&st7;  " d=" M  1225.92,   129.26  L  1221.67,   129.26  " /><path style="stroke-width: 1.42 ;&st7;  " d=" M  1225.92,   137.76  L  1221.67,   137.76  " /><path style="stroke-width: 1.42 ;&st7;   " d=" M  1221.67,   129.26  C  1219.32    129.26   1217.42    131.17   1217.42    133.51  " /><path style="stroke-width: 1.42 ;&st7;   " d=" M  1217.42,   133.51  C  1217.42    135.86   1219.32    137.76   1221.67    137.76  " /><path style="stroke-width: 1.42 ;&st7;   " d=" M  1225.92,   137.76  C  1228.27    137.76   1230.17    135.86   1230.17    133.51  " /><path style="stroke-width: 1.42 ;&st7;   " d=" M  1230.17,   133.51  C  1230.17    131.17   1228.27    129.26   1225.92    129.26  " /><path style="stroke-width: 0.28 ;&st9;  " d=" M  1223.80,   124.37  L  1220.96,   121.54  L  1220.96,   125.79  L  1223.80,   128.62  L  1226.63,   125.79  L  1226.63,   121.54  L  1223.80,   124.37  " /><path style="stroke-width: 0.85 ;&st7;  " d=" M  1223.80,    78.27  L  1223.80,   129.26  " /><text style="&st18;" transform="matrix(&st16;  1219.86  135.48 )">3D</text><text style="&st18;" transform="matrix(&st16;  1210.19  135.48 )">40</text><text style="&st18;" transform="matrix(&st16;  1214.51  86.47 )">32</text></g><g ewd:figtype="jb" ewd:figID="53" ewd:code="3"><path style="stroke-width: 0.85 ;&st7;  " d=" M  1113.31,   146.26  L  1113.31,   154.76  " /><path style="stroke-width: 1.42 ;&st7;  " d=" M  1115.44,   171.76  L  1111.19,   171.76  " /><path style="stroke-width: 1.42 ;&st7;  " d=" M  1115.44,   180.26  L  1111.19,   180.26  " /><path style="stroke-width: 0.85 ;&st7;  " d=" M  1113.31,   154.76  L  1113.31,   171.76  " /><path style="stroke-width: 1.42 ;&st7;   " d=" M  1113.31,   123.60  C  1110.58    125.21   1109.66    128.74   1111.28    131.48  " /><path style="stroke-width: 1.42 ;&st7;   " d=" M  1111.28,   131.48  C  1111.80    132.36   1112.43    132.99   1113.31    133.51  " /><path style="stroke-width: 1.42 ;&st7;   " d=" M  1113.31,   143.43  C  1116.05    141.81   1116.96    138.29   1115.35    135.55  " /><path style="stroke-width: 1.42 ;&st7;   " d=" M  1115.35,   135.55  C  1114.83    134.67   1114.20    134.03   1113.31    133.51  " /><path style="stroke-width: 0.85 ;&st7;   " d=" M  1114.73,   122.18  C  1114.73    121.40   1114.10    120.77   1113.31    120.77  " /><path style="stroke-width: 0.85 ;&st7;   " d=" M  1113.31,   120.77  C  1112.53    120.77   1111.90    121.40   1111.90    122.18  " /><path style="stroke-width: 0.85 ;&st7;   " d=" M  1111.90,   122.18  C  1111.90    122.96   1112.53    123.60   1113.31    123.60  " /><path style="stroke-width: 0.85 ;&st7;   " d=" M  1113.31,   123.60  C  1114.10    123.60   1114.73    122.96   1114.73    122.18  " /><path style="stroke-width: 0.85 ;&st7;   " d=" M  1114.73,   144.84  C  1114.73    144.06   1114.10    143.43   1113.31    143.43  " /><path style="stroke-width: 0.85 ;&st7;   " d=" M  1113.31,   143.43  C  1112.53    143.43   1111.90    144.06   1111.90    144.84  " /><path style="stroke-width: 0.85 ;&st7;   " d=" M  1111.90,   144.84  C  1111.90    145.63   1112.53    146.26   1113.31    146.26  " /><path style="stroke-width: 0.85 ;&st7;   " d=" M  1113.31,   146.26  C  1114.10    146.26   1114.73    145.63   1114.73    144.84  " /><path style="stroke-width: 1.42 ;&st7;   " d=" M  1111.19,   171.76  C  1108.84    171.76   1106.94    173.66   1106.94    176.01  " /><path style="stroke-width: 1.42 ;&st7;   " d=" M  1106.94,   176.01  C  1106.94    178.35   1108.84    180.26   1111.19    180.26  " /><path style="stroke-width: 1.42 ;&st7;   " d=" M  1115.44,   180.26  C  1117.79    180.26   1119.69    178.35   1119.69    176.01  " /><path style="stroke-width: 1.42 ;&st7;   " d=" M  1119.69,   176.01  C  1119.69    173.66   1117.79    171.76   1115.44    171.76  " /><path style="stroke-width: 0.28 ;&st9;  " d=" M  1113.31,   166.86  L  1110.48,   164.03  L  1110.48,   168.28  L  1113.31,   171.11  L  1116.15,   168.28  L  1116.15,   164.03  L  1113.31,   166.86  " /><path style="stroke-width: 1.42 ;&st7;  " d=" M  1100.57,   112.27  L  1100.57,   154.76  L  1126.06,   154.76  L  1126.06,   112.27  L  1100.57,   112.27  " /><text style="&st18;" transform="matrix(&st16;  1129.74  129.83 )">5A <tspan x="0 " dy="6.0">ECU-IG </tspan><tspan x="0 " dy="6.0">NO.2</tspan></text><text style="&st18;" transform="matrix(&st16;  1109.34  177.98 )">3C</text><text style="&st18;" transform="matrix(&st16;  1099.71  177.98 )">15</text><text style="&st18;" transform="matrix(&st16;  1107.13  162.95 )">2</text><text style="&st18;" transform="matrix(&st16;  1108.1  108.57 )">(IG)</text></g><g ewd:figtype="jb" ewd:figID="59" ewd:code="3"><path style="stroke-width: 1.42 ;&st7;  " d=" M  1480.88,   137.76  L  1476.63,   137.76  " /><path style="stroke-width: 1.42 ;&st7;  " d=" M  1480.88,   129.26  L  1476.63,   129.26  " /><path style="stroke-width: 1.42 ;&st7;  " d=" M  1421.39,   137.76  L  1417.14,   137.76  " /><path style="stroke-width: 1.42 ;&st7;  " d=" M  1421.39,   129.26  L  1417.14,   129.26  " /><path style="stroke-width: 1.42 ;&st7;   " d=" M  1485.13,   133.51  C  1485.13    131.17   1483.22    129.26   1480.88    129.26  " /><path style="stroke-width: 1.42 ;&st7;   " d=" M  1480.88,   137.76  C  1483.22    137.76   1485.13    135.86   1485.13    133.51  " /><path style="stroke-width: 1.42 ;&st7;   " d=" M  1472.38,   133.51  C  1472.38    135.86   1474.28    137.76   1476.63    137.76  " /><path style="stroke-width: 1.42 ;&st7;   " d=" M  1476.63,   129.26  C  1474.28    129.26   1472.38    131.17   1472.38    133.51  " /><path style="stroke-width: 1.42 ;&st7;   " d=" M  1425.64,   133.51  C  1425.64    131.17   1423.73    129.26   1421.39    129.26  " /><path style="stroke-width: 1.42 ;&st7;   " d=" M  1421.39,   137.76  C  1423.73    137.76   1425.64    135.86   1425.64    133.51  " /><path style="stroke-width: 1.42 ;&st7;   " d=" M  1412.89,   133.51  C  1412.89    135.86   1414.79    137.76   1417.14    137.76  " /><path style="stroke-width: 1.42 ;&st7;   " d=" M  1417.14,   129.26  C  1414.79    129.26   1412.89    131.17   1412.89    133.51  " /><path style="stroke-width: 0.85 ;&st7;  " d=" M  1478.75,    78.27  L  1478.75,   129.26  " /><path style="stroke-width: 0.85 ;&st7;  " d=" M  1419.26,    78.27  L  1419.26,   129.26  " /><path style="stroke-width: 0.28 ;&st9;  " d=" M  1478.75,   124.37  L  1475.92,   121.54  L  1475.92,   125.79  L  1478.75,   128.62  L  1481.59,   125.79  L  1481.59,   121.54  L  1478.75,   124.37  " /><path style="stroke-width: 0.28 ;&st9;  " d=" M  1419.26,   124.37  L  1416.43,   121.54  L  1416.43,   125.79  L  1419.26,   128.62  L  1422.10,   125.79  L  1422.10,   121.54  L  1419.26,   124.37  " /><text style="&st18;" transform="matrix(&st16;  1469.47  86.47 )">20</text><text style="&st18;" transform="matrix(&st16;  1465.14  135.48 )">33</text><text style="&st18;" transform="matrix(&st16;  1475.09  135.48 )">3E</text><text style="&st18;" transform="matrix(&st16;  1405.65  135.48 )">25</text><text style="&st18;" transform="matrix(&st16;  1415.6  135.48 )">3E</text><text style="&st18;" transform="matrix(&st16;  1413.08  86.47 )">4</text></g><g ewd:figtype="w2w" ewd:figID="73" ewd:code="UN2"><path style="stroke-width: 1.42 ;&st7;  " d=" M  1423.51,   395.55  L  1419.26,   399.80  L  1415.01,   395.55  " /><path style="stroke-width: 1.42 ;&st7;  " d=" M  1415.01,   392.15  L  1419.26,   396.40  L  1423.51,   392.15  " /><text style="&st18;" transform="matrix(&st16;  1406.63  407.44 )">9</text></g><g ewd:figtype="gp" ewd:figID="89" ewd:code="UA"><path style="stroke-width: 0.85 ;&st7;  " d=" M  1417.85,   710.00  L  1420.68,   710.00  " /><path style="stroke-width: 0.85 ;&st7;  " d=" M  1416.43,   707.17  L  1422.10,   707.17  " /><path style="stroke-width: 0.85 ;&st7;  " d=" M  1415.01,   704.33  L  1423.51,   704.33  " /><path style="stroke-width: 0.85 ;&st7;  " d=" M  1410.76,   701.50  L  1427.76,   701.50  " /><path style="stroke-width: 0.85 ;&st7;  " d=" M  1419.26,   697.25  L  1419.26,   701.50  " /></g><g ewd:code="6" ewd:figID="150" ewd:comment="" ewd:figtype="comment"><text style="&st18;" transform="matrix(&st16;  1126.91  513.67 )" ewd:textID="6">* 6 :w/o Foot Light</text></g><g ewd:code="2" ewd:figID="110" ewd:comment="" ewd:figtype="comment"><text style="&st18;" transform="matrix(&st16;  1126.91  488.17 )" ewd:textID="2">* 2 :w/o Power Back Door</text></g><g ewd:code="12" ewd:figID="144" ewd:comment="" ewd:figtype="comment"><text style="&st18;" transform="matrix(&st16;  1126.91  547.66 )" ewd:textID="12">*12 :From Aug. 2016 Production</text></g><g ewd:code="4" ewd:figID="141" ewd:comment="" ewd:figtype="comment"><text style="&st18;" transform="matrix(&st16;  1126.91  496.67 )" ewd:textID="4">* 4 :w/o Entry &amp; Start System</text></g><g ewd:code="8" ewd:figID="140" ewd:comment="" ewd:figtype="comment"><text style="&st18;" transform="matrix(&st16;  1126.91  530.67 )" ewd:textID="8">* 8 :w/o Stop &amp; Start System</text></g><g ewd:code="11" ewd:figID="143" ewd:comment="" ewd:figtype="comment"><text style="&st18;" transform="matrix(&st16;  1126.91  539.16 )" ewd:textID="11">*11 :Before Aug. 2016 Production</text></g><g ewd:code="5" ewd:figID="151" ewd:comment="" ewd:figtype="comment"><text style="&st18;" transform="matrix(&st16;  1126.91  505.17 )" ewd:textID="5">* 5 :w/ Foot Light</text></g><g ewd:code="1" ewd:figID="111" ewd:comment="" ewd:figtype="comment"><text style="&st18;" transform="matrix(&st16;  1126.91  479.67 )" ewd:textID="1">* 1 :w/ Power Back Door</text></g><g ewd:code="7" ewd:figID="142" ewd:comment="" ewd:figtype="comment"><text style="&st18;" transform="matrix(&st16;  1126.91  522.17 )" ewd:textID="7">* 7 :w/ Stop &amp; Start System</text></g></svg>