﻿<?xml version="1.0" encoding="utf-8"?>
<!DOCTYPE svg PUBLIC "-//W3C//DTD SVG 1.0//EN" "http://www.w3.org/TR/2001/REC-SVG-20010904/DTD/svg10.dtd"[
	<!ENTITY ns_flows "http://ns.adobe.com/Flows/1.0/">
	<!ENTITY ns_svg "http://www.w3.org/2000/svg">
	<!ENTITY ns_xlink "http://www.w3.org/1999/xlink">
	<!ENTITY st0 "font-size:7px;font-family:'MS-PGothic';adobe-font-script:japanese;">
	<!ENTITY st1 "font-size:6px;font-family:'ArialMT';">
	<!-- White fill  -->
	<!ENTITY st2 "fill:#FFFFFF;stroke:#000000; stroke-width:1.41;stroke-linecap:round;stroke-linejoin:round;">
	<!-- Yellow fill  -->
	<!ENTITY st3 "fill:#FFFFCC;stroke:#FFFFCC; stroke-width:0.1;stroke-linecap:round;stroke-linejoin:round;">
	<!-- Gray fill  -->
	<!ENTITY st4 "fill:#CCCCCC;stroke:#CCCCCC; stroke-width:0.1;stroke-linecap:round;stroke-linejoin:round;">
	<!-- Light-blue fill -->
	<!ENTITY st5 "fill:#CCECF4;stroke:#000000; stroke-width:1.133;stroke-linecap:round;stroke-linejoin:round;">
	<!ENTITY st6 "fill:none;stroke-linecap:butt; stroke-linejoin:round;">
	<!ENTITY st7 "fill:none;stroke:#000000;stroke-linecap:round;stroke-linejoin:round;">
	<!ENTITY st8 "enable-background:new    ;">
	<!-- Black fill -->
	<!ENTITY st9 "fill:#000000;stroke:#000000; stroke-linecap:round;stroke-linejoin:round;">
	<!-- SRS note   -->
	<!ENTITY st10 "font-size:9px;font-family:'ArialMT';">
	<!ENTITY st11 "font-size:9px;font-family:'Svg Symbol';">
	<!ENTITY st12 "font-size:6px;font-family:'Svg Symbol';">
	<!ENTITY st13 "fill:none;stroke:#ff0000;stroke-linecap:round;stroke-linejoin:round;">
	<!-- Yellow fill  -->
	<!ENTITY st14 "fill:#FFFF00;stroke:#FFFF00; stroke-width:0.1;stroke-linecap:round;stroke-linejoin:round;">
	<!ENTITY st15 "font-size:6px;font-family:'MS-PGothic';adobe-font-script:japanese;">
	<!ENTITY st16 "1.00 0.00 0.00 1.00">
	<!ENTITY st17 "0.00 -1.00 1.00 0.00">
	<!ENTITY st18 "font-size:6px;font-family:'Arial';">
	<!ENTITY st19 "font-size:9px;font-family:'Arial';">
	<!ENTITY st20 "font-size:6px;font-family:'MS-PGothic','MS PGothic';adobe-font-script:japanese;">
	<!ENTITY st21 "font-size:7px;font-family:'MS-PGothic','MS PGothic';adobe-font-script:japanese;">
	<!ATTLIST svg
		xmlns:ewd CDATA #FIXED "http://shcl.co.jp/ewd"
		xmlns:a CDATA #FIXED "http://ns.adobe.com/AdobeSVGViewerExtensions/3.0/"
		ewd:ver CDATA #IMPLIED
	>
	<!ATTLIST a
		ewd:lineID CDATA #IMPLIED
		ewd:groupID CDATA #IMPLIED
		ewd:figtype CDATA #IMPLIED
		ewd:code CDATA #IMPLIED
		ewd:figID CDATA #IMPLIED
		ewd:pinNo CDATA #IMPLIED
		ewd:comment CDATA #IMPLIED >
	<!ATTLIST g
		ewd:lineID CDATA #IMPLIED
		ewd:groupID CDATA #IMPLIED
		ewd:figtype CDATA #IMPLIED
		ewd:code CDATA #IMPLIED
		ewd:figID CDATA #IMPLIED
		ewd:pinNo CDATA #IMPLIED
		ewd:comment CDATA #IMPLIED >
	<!ATTLIST text
		ewd:textID CDATA #IMPLIED >
	<!ATTLIST title
		ewd:textID CDATA #IMPLIED >
]>
<!-- Generator: Shintec Hozumi YS   -->
<svg onload="call_execInitLoadProc_svg('system')" style="overflow:visible;  enable-background:new 0 0 4652.095 710.000" viewBox="0 0 4652.095 710.000" height="710.000" width="4652.095" xml:space="preserve" ewd:ver="2.1.2.9" xmlns="&ns_svg;" xmlns:a="http://ns.adobe.com/AdobeSVGViewerExtensions/3.0/" xmlns:ewd="http://shcl.co.jp/ewd" xmlns:xlink="&ns_xlink;">
<path style="stroke-width: 1.42 ;&st7;  " d=" M  4538.24,   146.26  L  4529.74,   146.26  " /><text style="&st18;" transform="matrix(&st17;  4517.55  446.18 )">W</text><text style="&st18;" transform="matrix(&st17;  4585.54  523.75 )">BR</text><text style="&st18;" transform="matrix(&st17;  4526.05  122.38 )">R</text><g ewd:figtype="rb" ewd:figID="13" ewd:code="FUSE11"><path style="stroke-width: 1.42 ;&st7;  " d=" M  4531.87,   103.77  L  4527.62,   103.77  " /><path style="stroke-width: 1.42 ;&st7;  " d=" M  4531.87,    95.27  L  4527.62,    95.27  " /><path style="stroke-width: 1.42 ;&st7;   " d=" M  4536.12,    99.52  C  4536.12     97.17   4534.21     95.27   4531.87     95.27  " /><path style="stroke-width: 1.42 ;&st7;   " d=" M  4531.87,   103.77  C  4534.21    103.77   4536.12    101.87   4536.12     99.52  " /><path style="stroke-width: 1.42 ;&st7;   " d=" M  4523.37,    99.52  C  4523.37    101.87   4525.27    103.77   4527.62    103.77  " /><path style="stroke-width: 1.42 ;&st7;   " d=" M  4527.62,    95.27  C  4525.27     95.27   4523.37     97.17   4523.37     99.52  " /><path style="stroke-width: 0.28 ;&st9;  " d=" M  4529.74,    90.37  L  4526.91,    87.54  L  4526.91,    91.79  L  4529.74,    94.62  L  4532.57,    91.79  L  4532.57,    87.54  L  4529.74,    90.37  " /><text style="&st18;" transform="matrix(&st16;  4546.17  53.34 )">10A <tspan x="0 " dy="6.0">ECU-B </tspan><tspan x="0 " dy="6.0">NO.2</tspan></text><text style="&st18;" transform="matrix(&st16;  4527.94  101.49 )">1</text><text style="&st18;" transform="matrix(&st16;  4523.56  86.47 )">2</text><text style="&st18;" transform="matrix(&st16;  4521.7  32.08 )">(BAT)</text><path style="stroke-width: 0.85 ;&st7;  " d=" M  4529.74,    78.27  L  4529.74,    95.27  " /><path style="stroke-width: 0.85 ;&st7;  " d=" M  4529.74,    69.77  L  4529.74,    78.27  " /><path style="stroke-width: 0.85 ;&st7;   " d=" M  4531.16,    68.36  C  4531.16     67.57   4530.53     66.94   4529.74     66.94  " /><path style="stroke-width: 0.85 ;&st7;   " d=" M  4529.74,    66.94  C  4528.96     66.94   4528.33     67.57   4528.33     68.36  " /><path style="stroke-width: 0.85 ;&st7;   " d=" M  4528.33,    68.36  C  4528.33     69.14   4528.96     69.77   4529.74     69.77  " /><path style="stroke-width: 0.85 ;&st7;   " d=" M  4529.74,    69.77  C  4530.53     69.77   4531.16     69.14   4531.16     68.36  " /><path style="stroke-width: 0.85 ;&st7;   " d=" M  4531.16,    45.69  C  4531.16     44.91   4530.53     44.28   4529.74     44.28  " /><path style="stroke-width: 0.85 ;&st7;   " d=" M  4529.74,    44.28  C  4528.96     44.28   4528.33     44.91   4528.33     45.69  " /><path style="stroke-width: 0.85 ;&st7;   " d=" M  4528.33,    45.69  C  4528.33     46.48   4528.96     47.11   4529.74     47.11  " /><path style="stroke-width: 0.85 ;&st7;   " d=" M  4529.74,    47.11  C  4530.53     47.11   4531.16     46.48   4531.16     45.69  " /><path style="stroke-width: 1.42 ;&st7;   " d=" M  4529.74,    66.94  C  4532.48     65.33   4533.39     61.80   4531.78     59.06  " /><path style="stroke-width: 1.42 ;&st7;   " d=" M  4531.78,    59.06  C  4531.26     58.18   4530.63     57.55   4529.74     57.03  " /><path style="stroke-width: 1.42 ;&st7;   " d=" M  4529.74,    47.11  C  4527.01     48.72   4526.09     52.25   4527.71     54.99  " /><path style="stroke-width: 1.42 ;&st7;   " d=" M  4527.71,    54.99  C  4528.23     55.87   4528.86     56.51   4529.74     57.03  " /><path style="stroke-width: 1.42 ;&st7;  " d=" M  4542.49,    78.27  L  4542.49,    35.78  L  4516.99,    35.78  L  4516.99,    78.27  L  4542.49,    78.27  " /></g><g ewd:figtype="w2w" ewd:figID="63" ewd:code="AG1"><path style="stroke-width: 1.42 ;&st7;  " d=" M  4533.99,   155.33  L  4529.74,   151.08  L  4525.49,   155.33  " /><path style="stroke-width: 1.42 ;&st7;  " d=" M  4533.99,   151.93  L  4529.74,   147.68  L  4525.49,   151.93  " /><text style="&st18;" transform="matrix(&st16;  4514.01  143.98 )">17</text></g><g ewd:figtype="gp" ewd:figID="72" ewd:code="GA"><path style="stroke-width: 0.85 ;&st7;  " d=" M  4587.81,   710.00  L  4590.65,   710.00  " /><path style="stroke-width: 0.85 ;&st7;  " d=" M  4586.40,   707.17  L  4592.06,   707.17  " /><path style="stroke-width: 0.85 ;&st7;  " d=" M  4584.98,   704.33  L  4593.48,   704.33  " /><path style="stroke-width: 0.85 ;&st7;  " d=" M  4580.73,   701.50  L  4597.73,   701.50  " /><path style="stroke-width: 0.85 ;&st7;  " d=" M  4589.23,   697.25  L  4589.23,   701.50  " /></g></svg>