﻿<?xml version="1.0" encoding="utf-8"?>
<!DOCTYPE svg PUBLIC "-//W3C//DTD SVG 1.0//EN" "http://www.w3.org/TR/2001/REC-SVG-20010904/DTD/svg10.dtd"[
	<!ENTITY ns_flows "http://ns.adobe.com/Flows/1.0/">
	<!ENTITY ns_svg "http://www.w3.org/2000/svg">
	<!ENTITY ns_xlink "http://www.w3.org/1999/xlink">
	<!ENTITY st0 "font-size:7px;font-family:'MS-PGothic';adobe-font-script:japanese;">
	<!ENTITY st1 "font-size:6px;font-family:'ArialMT';">
	<!-- White fill  -->
	<!ENTITY st2 "fill:#FFFFFF;stroke:#000000; stroke-width:1.41;stroke-linecap:round;stroke-linejoin:round;">
	<!-- Yellow fill  -->
	<!ENTITY st3 "fill:#FFFFCC;stroke:#FFFFCC; stroke-width:0.1;stroke-linecap:round;stroke-linejoin:round;">
	<!-- Gray fill  -->
	<!ENTITY st4 "fill:#CCCCCC;stroke:#CCCCCC; stroke-width:0.1;stroke-linecap:round;stroke-linejoin:round;">
	<!-- Light-blue fill -->
	<!ENTITY st5 "fill:#CCECF4;stroke:#000000; stroke-width:1.133;stroke-linecap:round;stroke-linejoin:round;">
	<!ENTITY st6 "fill:none;stroke-linecap:butt; stroke-linejoin:round;">
	<!ENTITY st7 "fill:none;stroke:#000000;stroke-linecap:round;stroke-linejoin:round;">
	<!ENTITY st8 "enable-background:new    ;">
	<!-- Black fill -->
	<!ENTITY st9 "fill:#000000;stroke:#000000; stroke-linecap:round;stroke-linejoin:round;">
	<!-- SRS note   -->
	<!ENTITY st10 "font-size:9px;font-family:'ArialMT';">
	<!ENTITY st11 "font-size:9px;font-family:'Svg Symbol';">
	<!ENTITY st12 "font-size:6px;font-family:'Svg Symbol';">
	<!ENTITY st13 "fill:none;stroke:#ff0000;stroke-linecap:round;stroke-linejoin:round;">
	<!-- Yellow fill  -->
	<!ENTITY st14 "fill:#FFFF00;stroke:#FFFF00; stroke-width:0.1;stroke-linecap:round;stroke-linejoin:round;">
	<!ENTITY st15 "font-size:6px;font-family:'MS-PGothic';adobe-font-script:japanese;">
	<!ENTITY st16 "1.00 0.00 0.00 1.00">
	<!ENTITY st17 "0.00 -1.00 1.00 0.00">
	<!ENTITY st18 "font-size:6px;font-family:'Arial';">
	<!ENTITY st19 "font-size:9px;font-family:'Arial';">
	<!ENTITY st20 "font-size:6px;font-family:'MS-PGothic','MS PGothic';adobe-font-script:japanese;">
	<!ENTITY st21 "font-size:7px;font-family:'MS-PGothic','MS PGothic';adobe-font-script:japanese;">
	<!ATTLIST svg
		xmlns:ewd CDATA #FIXED "http://shcl.co.jp/ewd"
		xmlns:a CDATA #FIXED "http://ns.adobe.com/AdobeSVGViewerExtensions/3.0/"
		ewd:ver CDATA #IMPLIED
	>
	<!ATTLIST a
		ewd:lineID CDATA #IMPLIED
		ewd:groupID CDATA #IMPLIED
		ewd:figtype CDATA #IMPLIED
		ewd:code CDATA #IMPLIED
		ewd:figID CDATA #IMPLIED
		ewd:pinNo CDATA #IMPLIED
		ewd:comment CDATA #IMPLIED >
	<!ATTLIST g
		ewd:lineID CDATA #IMPLIED
		ewd:groupID CDATA #IMPLIED
		ewd:figtype CDATA #IMPLIED
		ewd:code CDATA #IMPLIED
		ewd:figID CDATA #IMPLIED
		ewd:pinNo CDATA #IMPLIED
		ewd:comment CDATA #IMPLIED >
	<!ATTLIST text
		ewd:textID CDATA #IMPLIED >
	<!ATTLIST title
		ewd:textID CDATA #IMPLIED >
]>
<!-- Generator: Shintec Hozumi YS   -->
<svg onload="call_execInitLoadProc_svg('system')" style="overflow:visible;  enable-background:new 0 0 4547.903 710.000" viewBox="0 0 4547.903 710.000" height="710.000" width="4547.903" xml:space="preserve" ewd:ver="2.1.2.9" xmlns="&ns_svg;" xmlns:a="http://ns.adobe.com/AdobeSVGViewerExtensions/3.0/" xmlns:ewd="http://shcl.co.jp/ewd" xmlns:xlink="&ns_xlink;">
<text style="&st18;" transform="matrix(&st17;  4381.57  458.16 )">W-B</text><text style="&st18;" transform="matrix(&st17;  4381.57  594.14 )">W-B</text><text style="&st18;" transform="matrix(&st17;  4392.9  594.45 )">(*36)</text><text style="&st18;" transform="matrix(&st17;  4237.1  591.74 )">BR</text><text style="&st18;" transform="matrix(&st17;  4248.43  594.45 )">(*35)</text><text style="&st18;" transform="matrix(&st17;  4347.58  458.16 )">W-B</text><text style="&st18;" transform="matrix(&st17;  4358.91  458.47 )">(*35)</text><text style="&st18;" transform="matrix(&st16;  4166.35  185.06 )">W-B</text><text style="&st18;" transform="matrix(&st16;  4115.36  185.06 )">W-B</text><text style="&st18;" transform="matrix(&st16;  4166.35  210.55 )">W-B</text><text style="&st18;" transform="matrix(&st16;  4115.36  210.55 )">W-B</text><text style="&st18;" transform="matrix(&st16;  4115.05  196.39 )">(*34)</text><text style="&st18;" transform="matrix(&st16;  4166.04  196.39 )">(*34)</text><text style="&st18;" transform="matrix(&st16;  4109.46  221.88 )">(*35,*36)</text><text style="&st18;" transform="matrix(&st16;  4160.46  221.88 )">(*35,*36)</text><text style="&st18;" transform="matrix(&st17;  4392.9  464.06 )">(*35,*36)</text><g ewd:figtype="conn" ewd:figID="30" ewd:code="G137,G139,G141,G143"><path style="stroke-width: 1.42 ;&st7;  " d=" M  4495.75,   503.20  L  4546.74,   503.20  L  4546.74,   460.71  L  4495.75,   460.71  L  4495.75,   503.20  " /><g ewd:figtype="title"><text style="&st18;" transform="matrix(&st17;  4492.05  506.11 )" ewd:textID="57">Radio &amp; Display Receiver Assembly</text><text style="&st18;" transform="matrix(&st17;  4485.23  506.1 )">G141(L),G143(N)</text><text style="&st18;" transform="matrix(&st17;  4477.89  506.11 )" ewd:textID="38">Navigation Receiver Assembly</text><text style="&st18;" transform="matrix(&st17;  4471.06  506.1 )">G137(F),G139(H)</text></g></g><g ewd:figtype="conn" ewd:figID="31" ewd:code="G114"><path style="stroke-width: 0.85 ;&st7;  " d=" M  4385.27,   520.20  L  4385.27,   537.20  " /><path style="stroke-width: 0.85 ;&st7;  " d=" M  4384.07,   527.69  L  4383.80,   528.16  L  4383.71,   528.70  L  4383.80,   529.23  L  4384.07,   529.70  L  4384.49,   530.05  L  4385.00,   530.23  L  4385.53,   530.23  L  4386.04,   530.05  L  4386.46,   529.70  L  4386.73,   529.23  L  4386.82,   528.70  L  4386.73,   528.16  L  4386.46,   527.69  L  4386.04,   527.35  L  4385.53,   527.16  L  4385.00,   527.16  L  4384.49,   527.35  L  4384.07,   527.69  L  4384.47,   528.41  L  4384.47,   528.99  L  4384.84,   529.43  L  4385.41,   529.53  L  4385.92,   529.24  L  4386.12,   528.70  L  4385.92,   528.15  L  4385.41,   527.86  L  4384.84,   527.96  L  4385.27,   528.70  " /><path style="stroke-width: 1.42 ;&st7;  " d=" M  4342.77,   537.20  L  4393.76,   537.20  L  4393.76,   520.20  L  4342.77,   520.20  L  4342.77,   537.20  " /><path style="stroke-width: 0.85 ;&st7;  " d=" M  4385.27,   528.70  L  4351.27,   528.70  L  4351.27,   520.20  " /><text style="&st18;" transform="matrix(&st16;  4341.99  516.51 )">11</text><text style="&st18;" transform="matrix(&st16;  4375.98  545.39 )">12</text><text style="&st18;" transform="matrix(&st16;  4375.98  516.51 )">10</text><g ewd:figtype="title"><text style="&st18;" transform="matrix(&st17;  4408.48  540.1 )" ewd:textID="52">No. 26 Junction Connector</text><text style="&st18;" transform="matrix(&st17;  4401.38  540.09 )">G114</text></g></g><g ewd:figtype="conn" ewd:figID="33" ewd:code="G46,G48,G141,G143"><path style="stroke-width: 1.42 ;&st7;  " d=" M  4215.29,   503.20  L  4266.29,   503.20  L  4266.29,   460.71  L  4215.29,   460.71  L  4215.29,   503.20  " /><g ewd:comment="22,21" ewd:lineID="101"><text style="&st18;" transform="matrix(&st16;  4232.1  518.77 )">7</text><text style="&st18;" transform="matrix(&st16;  4232.1  509.7 )">7</text><path style="stroke-width: 1.42 ;&st7;   " d=" M  4245.32,   516.80  C  4245.32    514.30   4243.29    512.27   4240.79    512.27  " /><path style="stroke-width: 1.42 ;&st7;   " d=" M  4240.79,   512.27  C  4238.29    512.27   4236.26    514.30   4236.26    516.80  " /><path style="stroke-width: 1.42 ;&st7;   " d=" M  4236.26,   516.80  C  4236.26    519.30   4238.29    521.33   4240.79    521.33  " /><path style="stroke-width: 1.42 ;&st7;   " d=" M  4240.79,   521.33  C  4243.29    521.33   4245.32    519.30   4245.32    516.80  " /><path style="stroke-width: 1.42 ;&st7;   " d=" M  4245.32,   507.73  C  4245.32    505.23   4243.29    503.20   4240.79    503.20  " /><path style="stroke-width: 1.42 ;&st7;   " d=" M  4240.79,   503.20  C  4238.29    503.20   4236.26    505.23   4236.26    507.73  " /><path style="stroke-width: 1.42 ;&st7;   " d=" M  4236.26,   507.73  C  4236.26    510.24   4238.29    512.27   4240.79    512.27  " /><path style="stroke-width: 1.42 ;&st7;   " d=" M  4240.79,   512.27  C  4243.29    512.27   4245.32    510.24   4245.32    507.73  " /><text style="&st18;" transform="matrix(&st16;  4238.72  518.77 )">L</text><text style="&st18;" transform="matrix(&st16;  4238.49  509.7 )">A</text><text style="&st18;" transform="matrix(&st16;  4232.59  499.5 )">GND1</text><g ewd:code="" ewd:figID="128" ewd:comment="22" ewd:figtype="commref"><text style="&st18;" transform="matrix(&st16;  4245.88  518.77 )">(*22)</text></g><g ewd:code="" ewd:figID="129" ewd:comment="21" ewd:figtype="commref"><text style="&st18;" transform="matrix(&st16;  4245.88  509.7 )">(*21)</text></g></g><g ewd:comment="22,21" ewd:lineID="102"><text style="&st18;" transform="matrix(&st16;  4229.0  449.08 )">23</text><text style="&st18;" transform="matrix(&st16;  4229.0  458.14 )">23</text><path style="stroke-width: 1.42 ;&st7;   " d=" M  4245.32,   447.11  C  4245.32    444.61   4243.29    442.58   4240.79    442.58  " /><path style="stroke-width: 1.42 ;&st7;   " d=" M  4240.79,   442.58  C  4238.29    442.58   4236.26    444.61   4236.26    447.11  " /><path style="stroke-width: 1.42 ;&st7;   " d=" M  4236.26,   447.11  C  4236.26    449.61   4238.29    451.64   4240.79    451.64  " /><path style="stroke-width: 1.42 ;&st7;   " d=" M  4240.79,   451.64  C  4243.29    451.64   4245.32    449.61   4245.32    447.11  " /><path style="stroke-width: 1.42 ;&st7;   " d=" M  4245.32,   456.18  C  4245.32    453.67   4243.29    451.64   4240.79    451.64  " /><path style="stroke-width: 1.42 ;&st7;   " d=" M  4240.79,   451.64  C  4238.29    451.64   4236.26    453.67   4236.26    456.18  " /><path style="stroke-width: 1.42 ;&st7;   " d=" M  4236.26,   456.18  C  4236.26    458.68   4238.29    460.71   4240.79    460.71  " /><path style="stroke-width: 1.42 ;&st7;   " d=" M  4240.79,   460.71  C  4243.29    460.71   4245.32    458.68   4245.32    456.18  " /><text style="&st18;" transform="matrix(&st16;  4238.49  458.14 )">N</text><text style="&st18;" transform="matrix(&st16;  4238.37  449.08 )">C</text><text style="&st18;" transform="matrix(&st16;  4234.07  468.34 )">SWG</text><g ewd:code="" ewd:figID="126" ewd:comment="22" ewd:figtype="commref"><text style="&st18;" transform="matrix(&st16;  4245.88  458.14 )">(*22)</text></g><g ewd:code="" ewd:figID="127" ewd:comment="21" ewd:figtype="commref"><text style="&st18;" transform="matrix(&st16;  4245.88  449.08 )">(*21)</text></g></g><g ewd:figtype="title"><text style="&st18;" transform="matrix(&st17;  4211.6  506.11 )" ewd:textID="57">Radio &amp; Display Receiver Assembly</text><text style="&st18;" transform="matrix(&st17;  4204.78  506.1 )">G141(L),G143(N)</text><text style="&st18;" transform="matrix(&st17;  4197.44  506.11 )" ewd:textID="59">Radio Receiver Assembly</text><text style="&st18;" transform="matrix(&st17;  4190.61  506.1 )">G46(A),G48(C)</text></g></g><g ewd:figtype="gp" ewd:figID="77" ewd:code="GE"><path style="stroke-width: 0.85 ;&st7;  " d=" M  4385.27,   697.25  L  4385.27,   701.50  " /><path style="stroke-width: 0.85 ;&st7;  " d=" M  4376.77,   701.50  L  4393.76,   701.50  " /><path style="stroke-width: 0.85 ;&st7;  " d=" M  4381.02,   704.33  L  4389.51,   704.33  " /><path style="stroke-width: 0.85 ;&st7;  " d=" M  4382.43,   707.17  L  4388.10,   707.17  " /><path style="stroke-width: 0.85 ;&st7;  " d=" M  4383.85,   710.00  L  4386.68,   710.00  " /></g><g ewd:code="21" ewd:figID="137" ewd:comment="" ewd:figtype="comment"><text style="&st18;" transform="matrix(&st16;  4186.39  54.75 )" ewd:textID="9">*21 :Radio Receiver Type</text></g><g ewd:code="23" ewd:figID="136" ewd:comment="" ewd:figtype="comment"><text style="&st18;" transform="matrix(&st16;  4186.39  71.74 )" ewd:textID="11">*23 :Navigation Receiver Type</text></g><g ewd:code="22" ewd:figID="134" ewd:comment="" ewd:figtype="comment"><text style="&st18;" transform="matrix(&st16;  4186.39  63.24 )" ewd:textID="10">*22 :Radio &amp; Display Receiver Type</text></g><g ewd:code="34" ewd:figID="138" ewd:comment="" ewd:figtype="comment"><text style="&st18;" transform="matrix(&st16;  4186.39  80.24 )" ewd:textID="12">*34 :w/ Audio System (Separate Type Amplifier)</text></g><g ewd:code="35" ewd:figID="135" ewd:comment="" ewd:figtype="comment"><text style="&st18;" transform="matrix(&st16;  4186.39  88.74 )" ewd:textID="13">*35 :w/ Audio System (Built-in Type Amplifier)</text></g><g ewd:code="36" ewd:figID="140" ewd:comment="" ewd:figtype="comment"><text style="&st18;" transform="matrix(&st16;  4186.39  97.24 )" ewd:textID="14">*36 :w/o Audio System</text></g></svg>