﻿<?xml version="1.0" encoding="utf-8"?>
<!DOCTYPE svg PUBLIC "-//W3C//DTD SVG 1.0//EN" "http://www.w3.org/TR/2001/REC-SVG-20010904/DTD/svg10.dtd"[
	<!ENTITY ns_flows "http://ns.adobe.com/Flows/1.0/">
	<!ENTITY ns_svg "http://www.w3.org/2000/svg">
	<!ENTITY ns_xlink "http://www.w3.org/1999/xlink">
	<!ENTITY st0 "font-size:7px;font-family:'MS-PGothic';adobe-font-script:japanese;">
	<!ENTITY st1 "font-size:6px;font-family:'ArialMT';">
	<!-- White fill  -->
	<!ENTITY st2 "fill:#FFFFFF;stroke:#000000; stroke-width:1.41;stroke-linecap:round;stroke-linejoin:round;">
	<!-- Yellow fill  -->
	<!ENTITY st3 "fill:#FFFFCC;stroke:#FFFFCC; stroke-width:0.1;stroke-linecap:round;stroke-linejoin:round;">
	<!-- Gray fill  -->
	<!ENTITY st4 "fill:#CCCCCC;stroke:#CCCCCC; stroke-width:0.1;stroke-linecap:round;stroke-linejoin:round;">
	<!-- Light-blue fill -->
	<!ENTITY st5 "fill:#CCECF4;stroke:#000000; stroke-width:1.133;stroke-linecap:round;stroke-linejoin:round;">
	<!ENTITY st6 "fill:none;stroke-linecap:butt; stroke-linejoin:round;">
	<!ENTITY st7 "fill:none;stroke:#000000;stroke-linecap:round;stroke-linejoin:round;">
	<!ENTITY st8 "enable-background:new    ;">
	<!-- Black fill -->
	<!ENTITY st9 "fill:#000000;stroke:#000000; stroke-linecap:round;stroke-linejoin:round;">
	<!-- SRS note   -->
	<!ENTITY st10 "font-size:9px;font-family:'ArialMT';">
	<!ENTITY st11 "font-size:9px;font-family:'Svg Symbol';">
	<!ENTITY st12 "font-size:6px;font-family:'Svg Symbol';">
	<!ENTITY st13 "fill:none;stroke:#ff0000;stroke-linecap:round;stroke-linejoin:round;">
	<!-- Yellow fill  -->
	<!ENTITY st14 "fill:#FFFF00;stroke:#FFFF00; stroke-width:0.1;stroke-linecap:round;stroke-linejoin:round;">
	<!ENTITY st15 "font-size:6px;font-family:'MS-PGothic';adobe-font-script:japanese;">
	<!ENTITY st16 "1.00 0.00 0.00 1.00">
	<!ENTITY st17 "0.00 -1.00 1.00 0.00">
	<!ENTITY st18 "font-size:6px;font-family:'Arial';">
	<!ENTITY st19 "font-size:9px;font-family:'Arial';">
	<!ENTITY st20 "font-size:6px;font-family:'MS-PGothic','MS PGothic';adobe-font-script:japanese;">
	<!ENTITY st21 "font-size:7px;font-family:'MS-PGothic','MS PGothic';adobe-font-script:japanese;">
	<!ATTLIST svg
		xmlns:ewd CDATA #FIXED "http://shcl.co.jp/ewd"
		xmlns:a CDATA #FIXED "http://ns.adobe.com/AdobeSVGViewerExtensions/3.0/"
		ewd:ver CDATA #IMPLIED
	>
	<!ATTLIST a
		ewd:lineID CDATA #IMPLIED
		ewd:groupID CDATA #IMPLIED
		ewd:figtype CDATA #IMPLIED
		ewd:code CDATA #IMPLIED
		ewd:figID CDATA #IMPLIED
		ewd:pinNo CDATA #IMPLIED
		ewd:comment CDATA #IMPLIED >
	<!ATTLIST g
		ewd:lineID CDATA #IMPLIED
		ewd:groupID CDATA #IMPLIED
		ewd:figtype CDATA #IMPLIED
		ewd:code CDATA #IMPLIED
		ewd:figID CDATA #IMPLIED
		ewd:pinNo CDATA #IMPLIED
		ewd:comment CDATA #IMPLIED >
	<!ATTLIST text
		ewd:textID CDATA #IMPLIED >
	<!ATTLIST title
		ewd:textID CDATA #IMPLIED >
]>
<!-- Generator: Shintec Hozumi YS   -->
<svg onload="call_execInitLoadProc_svg('system')" style="overflow:visible;  enable-background:new 0 0 5143.228 710.000" viewBox="0 0 5143.228 710.000" height="710.000" width="5143.228" xml:space="preserve" ewd:ver="2.1.2.9" xmlns="&ns_svg;" xmlns:a="http://ns.adobe.com/AdobeSVGViewerExtensions/3.0/" xmlns:ewd="http://shcl.co.jp/ewd" xmlns:xlink="&ns_xlink;">
<text style="&st18;" transform="matrix(&st17;  4084.12  383.71 )" ewd:textID="1">(Shielded)</text><path style="stroke-width: 1.42 ;&st7;  " d=" M  4091.34,   409.72  L  4096.32,   404.75  " /><path style="stroke-width: 1.42 ;&st7;  " d=" M  4079.32,   404.75  L  4084.29,   409.72  " /><path style="stroke-width: 1.42 ;&st7;  " d=" M  4084.29,   392.72  L  4079.32,   397.69  " /><path style="stroke-width: 1.42 ;&st7;  " d=" M  4257.79,   363.70  L  4252.82,   358.73  " /><path style="stroke-width: 1.42 ;&st7;  " d=" M  4240.79,   370.75  L  4245.76,   375.72  " /><path style="stroke-width: 1.42 ;&st7;  " d=" M  4252.82,   375.72  L  4257.79,   370.75  " /><path style="stroke-width: 1.42 ;&st7;  " d=" M  4245.76,   358.73  L  4240.79,   363.70  " /><path style="stroke-width: 1.42 ;&st7;  " d=" M  4291.78,   363.70  L  4286.81,   358.73  " /><path style="stroke-width: 1.42 ;&st7;  " d=" M  4274.79,   370.75  L  4279.76,   375.72  " /><path style="stroke-width: 1.42 ;&st7;  " d=" M  4286.81,   375.72  L  4291.78,   370.75  " /><path style="stroke-width: 1.42 ;&st7;  " d=" M  4279.76,   358.73  L  4274.79,   363.70  " /><path style="stroke-width: 1.42 ;&st7;  " d=" M  4257.79,   474.18  L  4252.82,   469.21  " /><path style="stroke-width: 1.42 ;&st7;  " d=" M  4240.79,   481.24  L  4245.76,   486.20  " /><path style="stroke-width: 1.42 ;&st7;  " d=" M  4252.82,   486.20  L  4257.79,   481.24  " /><path style="stroke-width: 1.42 ;&st7;  " d=" M  4245.76,   469.21  L  4240.79,   474.18  " /><text style="&st18;" transform="matrix(&st16;  4169.84  609.99 )">W</text><path style="stroke-width: 1.42 ;&st7;  " d=" M  4096.32,   397.69  L  4091.34,   392.72  " /><text style="&st18;" transform="matrix(&st17;  4492.05  190.44 )">B</text><text style="&st18;" transform="matrix(&st17;  4084.12  447.26 )">BR</text><text style="&st18;" transform="matrix(&st17;  4095.45  449.98 )">(*11)</text><text style="&st18;" transform="matrix(&st16;  4104.83  261.54 )" ewd:textID="1">(Shielded)</text><text style="&st18;" transform="matrix(&st16;  4104.83  236.05 )" ewd:textID="1">(Shielded)</text><text style="&st18;" transform="matrix(&st16;  4110.8  272.88 )">(*11)</text><text style="&st18;" transform="matrix(&st16;  4104.28  247.38 )">(*5,*3 *1)</text><text style="&st18;" transform="matrix(&st16;  4203.39  66.08 )">ECM</text><text style="&st18;" transform="matrix(&st16;  4203.38  53.04 )">A61(A),A62(B),B75(D), <tspan x="0 " dy="6.0">B76(E),B77(F),B93(G),B112(H)</tspan></text><text style="&st18;" transform="matrix(&st17;  4245.59  540.75 )">BR</text><text style="&st18;" transform="matrix(&st17;  4095.45  377.74 )">(*11)</text><text style="&st18;" transform="matrix(&st17;  4245.59  430.26 )">BR</text><text style="&st18;" transform="matrix(&st17;  4256.93  432.98 )">(*11)</text><text style="&st18;" transform="matrix(&st17;  4279.59  430.26 )">BR</text><text style="&st18;" transform="matrix(&st17;  4290.92  439.49 )">(*5,*3 *1)</text><text style="&st18;" transform="matrix(&st17;  4466.56  522.0 )">V</text><text style="&st18;" transform="matrix(&st17;  4398.57  522.66 )">W</text><text style="&st18;" transform="matrix(&st17;  4356.08  521.89 )">B</text><text style="&st18;" transform="matrix(&st17;  4398.57  284.7 )">W</text><text style="&st18;" transform="matrix(&st17;  4356.08  283.93 )">Y</text><text style="&st18;" transform="matrix(&st17;  4398.57  182.72 )">W</text><text style="&st18;" transform="matrix(&st17;  4356.08  181.94 )">Y</text><path style="stroke-width: 1.42 ;&st7;  " d=" M  4368.27,   231.25  L  4359.77,   231.25  " /><path style="stroke-width: 1.42 ;&st7;  " d=" M  4410.76,   231.25  L  4402.26,   231.25  " /><text style="&st18;" transform="matrix(&st16;  4170.61  592.99 )">B</text><text style="&st18;" transform="matrix(&st17;  4220.1  438.38 )" ewd:textID="1">(Shielded)</text><text style="&st18;" transform="matrix(&st17;  4231.43  443.53 )">(*3 *6,*3 *2)</text><text style="&st18;" transform="matrix(&st17;  4477.89  195.02 )">(*10)</text><text style="&st18;" transform="matrix(&st17;  4466.56  194.05 )">B-V</text><text style="&st18;" transform="matrix(&st16;  4118.85  609.99 )">W</text><text style="&st18;" transform="matrix(&st16;  4119.62  592.99 )">B</text><text style="&st18;" transform="matrix(&st16;  4163.77  247.38 )">(*5,*3 *1)</text><text style="&st18;" transform="matrix(&st16;  4170.29  272.88 )">(*11)</text><text style="&st18;" transform="matrix(&st16;  4164.32  236.05 )" ewd:textID="1">(Shielded)</text><text style="&st18;" transform="matrix(&st16;  4164.32  261.54 )" ewd:textID="1">(Shielded)</text><text style="&st18;" transform="matrix(&st17;  4016.13  309.42 )">Y</text><text style="&st18;" transform="matrix(&st17;  4027.47  324.54 )">(*3 *6,*3 *2)</text><text style="&st18;" transform="matrix(&st16;  4104.83  287.04 )" ewd:textID="1">(Shielded)</text><text style="&st18;" transform="matrix(&st16;  4100.25  298.37 )">(*3 *6,*3 *2)</text><text style="&st18;" transform="matrix(&st16;  4159.74  298.37 )">(*3 *6,*3 *2)</text><text style="&st18;" transform="matrix(&st16;  4164.32  287.04 )" ewd:textID="1">(Shielded)</text><text style="&st18;" transform="matrix(&st17;  4256.93  543.46 )">(*12)</text><text style="&st18;" transform="matrix(&st17;  4001.97  326.1 )">(*5,*11,*3 *1)</text><g ewd:code="B4,B125" ewd:figID="1" ewd:comment="10,12" ewd:figtype="conn"><path style="stroke-width: 0.85 ;&st7;  " d=" M  4495.75,   282.24  L  4495.75,   269.49  " /><path style="stroke-width: 0.85 ;&st7;  " d=" M  4498.58,   265.24  L  4492.92,   268.07  " /><path style="stroke-width: 0.85 ;&st7;  " d=" M  4492.92,   262.41  L  4498.58,   265.24  " /><path style="stroke-width: 0.85 ;&st7;  " d=" M  4498.58,   259.58  L  4492.92,   262.41  " /><path style="stroke-width: 0.85 ;&st7;  " d=" M  4492.92,   256.74  L  4498.58,   259.58  " /><path style="stroke-width: 0.85 ;&st7;  " d=" M  4498.58,   253.91  L  4492.92,   256.74  " /><path style="stroke-width: 0.85 ;&st7;  " d=" M  4495.75,   252.49  L  4498.58,   253.91  " /><path style="stroke-width: 0.85 ;&st7;  " d=" M  4492.92,   268.07  L  4495.75,   269.49  " /><path style="stroke-width: 0.85 ;&st7;  " d=" M  4495.75,   252.49  L  4495.75,   239.75  " /><path style="stroke-width: 0.85 ;&st7;  " d=" M  4487.25,   252.49  L  4487.25,   269.49  " /><path style="stroke-width: 0.85 ;&st7;  " d=" M  4504.25,   252.49  L  4504.25,   269.49  " /><path style="stroke-width: 0.85 ;&st7;   " d=" M  4504.25,   252.49  C  4504.25    247.80   4500.44    243.99   4495.75    243.99  " /><path style="stroke-width: 0.85 ;&st7;   " d=" M  4495.75,   243.99  C  4491.06    243.99   4487.25    247.80   4487.25    252.49  " /><path style="stroke-width: 0.85 ;&st7;   " d=" M  4487.25,   269.49  C  4487.25    274.18   4491.06    277.99   4495.75    277.99  " /><path style="stroke-width: 0.85 ;&st7;   " d=" M  4495.75,   277.99  C  4500.44    277.99   4504.25    274.18   4504.25    269.49  " /><path style="stroke-width: 1.42 ;&st7;  " d=" M  4483.00,   282.24  L  4483.00,   239.75  L  4508.49,   239.75  L  4508.49,   282.24  L  4483.00,   282.24  " /><text style="&st18;" transform="matrix(&st16;  4487.05  237.18 )">1</text><text style="&st18;" transform="matrix(&st16;  4487.05  228.12 )">2</text><text style="&st18;" transform="matrix(&st16;  4493.44  228.12 )">A</text><path style="stroke-width: 1.42 ;&st7;   " d=" M  4500.28,   226.15  C  4500.28    223.64   4498.25    221.61   4495.75    221.61  " /><path style="stroke-width: 1.42 ;&st7;   " d=" M  4495.75,   221.61  C  4493.25    221.61   4491.22    223.64   4491.22    226.15  " /><path style="stroke-width: 1.42 ;&st7;   " d=" M  4491.22,   226.15  C  4491.22    228.65   4493.25    230.68   4495.75    230.68  " /><path style="stroke-width: 1.42 ;&st7;   " d=" M  4495.75,   230.68  C  4498.25    230.68   4500.28    228.65   4500.28    226.15  " /><path style="stroke-width: 1.42 ;&st7;   " d=" M  4500.28,   235.21  C  4500.28    232.71   4498.25    230.68   4495.75    230.68  " /><path style="stroke-width: 1.42 ;&st7;   " d=" M  4495.75,   230.68  C  4493.25    230.68   4491.22    232.71   4491.22    235.21  " /><path style="stroke-width: 1.42 ;&st7;   " d=" M  4491.22,   235.21  C  4491.22    237.72   4493.25    239.75   4495.75    239.75  " /><path style="stroke-width: 1.42 ;&st7;   " d=" M  4495.75,   239.75  C  4498.25    239.75   4500.28    237.72   4500.28    235.21  " /><text style="&st18;" transform="matrix(&st16;  4493.56  237.18 )">B</text><text style="&st18;" transform="matrix(&st16;  4487.05  288.74 )">1</text><text style="&st18;" transform="matrix(&st16;  4487.05  297.81 )">2</text><text style="&st18;" transform="matrix(&st16;  4493.56  297.81 )">B</text><text style="&st18;" transform="matrix(&st16;  4493.44  288.74 )">A</text><path style="stroke-width: 1.42 ;&st7;   " d=" M  4500.28,   286.77  C  4500.28    284.27   4498.25    282.24   4495.75    282.24  " /><path style="stroke-width: 1.42 ;&st7;   " d=" M  4495.75,   282.24  C  4493.25    282.24   4491.22    284.27   4491.22    286.77  " /><path style="stroke-width: 1.42 ;&st7;   " d=" M  4491.22,   286.77  C  4491.22    289.27   4493.25    291.30   4495.75    291.30  " /><path style="stroke-width: 1.42 ;&st7;   " d=" M  4495.75,   291.30  C  4498.25    291.30   4500.28    289.27   4500.28    286.77  " /><path style="stroke-width: 1.42 ;&st7;   " d=" M  4500.28,   295.84  C  4500.28    293.33   4498.25    291.30   4495.75    291.30  " /><path style="stroke-width: 1.42 ;&st7;   " d=" M  4495.75,   291.30  C  4493.25    291.30   4491.22    293.33   4491.22    295.84  " /><path style="stroke-width: 1.42 ;&st7;   " d=" M  4491.22,   295.84  C  4491.22    298.34   4493.25    300.37   4495.75    300.37  " /><path style="stroke-width: 1.42 ;&st7;   " d=" M  4495.75,   300.37  C  4498.25    300.37   4500.28    298.34   4500.28    295.84  " /><g ewd:figtype="title"><text style="&st18;" transform="matrix(&st17;  4467.41  285.14 )" ewd:textID="28">E. F. I. Engine <tspan x="0 " dy="6.0">Coolant Temperature </tspan><tspan x="0 " dy="6.0">Sensor</tspan></text><text style="&st18;" transform="matrix(&st17;  4460.58  285.14 )">B4(A),B125(B)</text></g><g ewd:code="" ewd:figID="169" ewd:comment="10" ewd:figtype="commref"><text style="&st18;" transform="matrix(&st16;  4500.84  237.18 )">(*10)</text></g><g ewd:code="" ewd:figID="170" ewd:comment="12" ewd:figtype="commref"><text style="&st18;" transform="matrix(&st16;  4500.84  228.12 )">(*12)</text></g><g ewd:code="" ewd:figID="171" ewd:comment="10" ewd:figtype="commref"><text style="&st18;" transform="matrix(&st16;  4500.84  297.81 )">(*10)</text></g><g ewd:code="" ewd:figID="172" ewd:comment="12" ewd:figtype="commref"><text style="&st18;" transform="matrix(&st16;  4500.84  288.74 )">(*12)</text></g></g><g ewd:figtype="conn" ewd:figID="6" ewd:code="B28,B29,B88,B106,B114"><path style="stroke-width: 0.85 ;&st7; stroke-dasharray:3, 1.5;" d=" M  4002.83,   489.04  L  4075.07,   489.04  " /><g ewd:lineID="92"><path style="stroke-width: 0.85 ;&st7;  " d=" M  4087.82,   511.70  L  4087.82,   493.57  " /><text style="&st18;" transform="matrix(&st16;  4079.12  491.01 )">3</text><text style="&st18;" transform="matrix(&st16;  4085.63  491.01 )">B</text><path style="stroke-width: 1.42 ;&st7;   " d=" M  4092.35,   489.04  C  4092.35    486.53   4090.32    484.50   4087.82    484.50  " /><path style="stroke-width: 1.42 ;&st7;   " d=" M  4087.82,   484.50  C  4085.31    484.50   4083.28    486.53   4083.28    489.04  " /><path style="stroke-width: 1.42 ;&st7;   " d=" M  4083.28,   489.04  C  4083.28    491.54   4085.31    493.57   4087.82    493.57  " /><path style="stroke-width: 1.42 ;&st7;   " d=" M  4087.82,   493.57  C  4090.32    493.57   4092.35    491.54   4092.35    489.04  " /><text style="&st18;" transform="matrix(&st16;  4081.17  519.33 )">GND</text></g></g><g ewd:figtype="conn" ewd:figID="26" ewd:code="G171,G188"><path style="stroke-width: 0.85 ;&st7; stroke-dasharray:3, 1.5;" d=" M  4368.27,   465.81  L  4385.27,   465.81  " /><path style="stroke-width: 0.85 ;&st7; stroke-dasharray:3, 1.5;" d=" M  4410.76,   465.81  L  4457.50,   465.81  " /><path style="stroke-width: 0.85 ;&st7; stroke-dasharray:3, 1.5;" d=" M  4478.75,   465.81  L  4495.75,   465.81  " /><path style="stroke-width: 0.85 ;&st7; stroke-dasharray:3, 1.5;" d=" M  4368.27,   422.18  L  4385.27,   422.18  " /><path style="stroke-width: 0.85 ;&st7; stroke-dasharray:3, 1.5;" d=" M  4368.27,   456.74  L  4385.27,   456.74  " /><path style="stroke-width: 0.85 ;&st7; stroke-dasharray:3, 1.5;" d=" M  4410.76,   456.74  L  4457.50,   456.74  " /><path style="stroke-width: 0.85 ;&st7; stroke-dasharray:3, 1.5;" d=" M  4478.75,   456.74  L  4495.75,   456.74  " /><path style="stroke-width: 0.85 ;&st7; stroke-dasharray:3, 1.5;" d=" M  4368.27,   413.12  L  4385.27,   413.12  " /><path style="stroke-width: 1.42 ;&st7;  " d=" M  4351.27,   452.21  L  4521.24,   452.21  L  4521.24,   426.71  L  4351.27,   426.71  L  4351.27,   452.21  " /><path style="stroke-width: 0.85 ;&st7;  " d=" M  4359.77,   426.71  L  4359.77,   452.21  " /><path style="stroke-width: 0.85 ;&st7;  " d=" M  4402.26,   426.71  L  4402.26,   452.21  " /><path style="stroke-width: 0.85 ;&st7;  " d=" M  4402.26,   435.21  L  4512.74,   435.21  L  4512.74,   452.21  " /><path style="stroke-width: 0.85 ;&st7;  " d=" M  4359.77,   443.71  L  4470.25,   443.71  L  4470.25,   452.21  " /><path style="stroke-width: 0.85 ;&st7;  " d=" M  4358.58,   442.71  L  4358.31,   443.18  L  4358.21,   443.71  L  4358.31,   444.24  L  4358.58,   444.71  L  4358.99,   445.06  L  4359.50,   445.25  L  4360.04,   445.25  L  4360.55,   445.06  L  4360.96,   444.71  L  4361.23,   444.24  L  4361.33,   443.71  L  4361.23,   443.18  L  4360.96,   442.71  L  4360.55,   442.36  L  4360.04,   442.18  L  4359.50,   442.18  L  4358.99,   442.36  L  4358.58,   442.71  L  4358.97,   443.42  L  4358.97,   444.00  L  4359.34,   444.45  L  4359.92,   444.55  L  4360.42,   444.26  L  4360.62,   443.71  L  4360.42,   443.16  L  4359.92,   442.88  L  4359.34,   442.97  L  4359.77,   443.71  " /><path style="stroke-width: 0.85 ;&st7;  " d=" M  4401.07,   434.21  L  4400.80,   434.68  L  4400.70,   435.21  L  4400.80,   435.75  L  4401.07,   436.22  L  4401.48,   436.56  L  4401.99,   436.75  L  4402.53,   436.75  L  4403.04,   436.56  L  4403.46,   436.22  L  4403.73,   435.75  L  4403.82,   435.21  L  4403.73,   434.68  L  4403.46,   434.21  L  4403.04,   433.86  L  4402.53,   433.68  L  4401.99,   433.68  L  4401.48,   433.86  L  4401.07,   434.21  L  4401.46,   434.92  L  4401.46,   435.50  L  4401.84,   435.95  L  4402.41,   436.05  L  4402.91,   435.76  L  4403.11,   435.21  L  4402.91,   434.67  L  4402.41,   434.38  L  4401.84,   434.48  L  4402.26,   435.21  " /><text style="&st18;" transform="matrix(&st16;  4461.56  467.78 )">4</text><text style="&st18;" transform="matrix(&st16;  4461.56  458.71 )">4</text><path style="stroke-width: 1.42 ;&st7;   " d=" M  4474.79,   465.81  C  4474.79    463.30   4472.76    461.27   4470.25    461.27  " /><path style="stroke-width: 1.42 ;&st7;   " d=" M  4470.25,   461.27  C  4467.75    461.27   4465.72    463.30   4465.72    465.81  " /><path style="stroke-width: 1.42 ;&st7;   " d=" M  4465.72,   465.81  C  4465.72    468.31   4467.75    470.34   4470.25    470.34  " /><path style="stroke-width: 1.42 ;&st7;   " d=" M  4470.25,   470.34  C  4472.76    470.34   4474.79    468.31   4474.79    465.81  " /><text style="&st18;" transform="matrix(&st16;  4468.06  467.78 )">B</text><path style="stroke-width: 1.42 ;&st7;   " d=" M  4474.79,   456.74  C  4474.79    454.24   4472.76    452.21   4470.25    452.21  " /><path style="stroke-width: 1.42 ;&st7;   " d=" M  4470.25,   452.21  C  4467.75    452.21   4465.72    454.24   4465.72    456.74  " /><path style="stroke-width: 1.42 ;&st7;   " d=" M  4465.72,   456.74  C  4465.72    459.25   4467.75    461.27   4470.25    461.27  " /><path style="stroke-width: 1.42 ;&st7;   " d=" M  4470.25,   461.27  C  4472.76    461.27   4474.79    459.25   4474.79    456.74  " /><text style="&st18;" transform="matrix(&st16;  4467.95  458.71 )">A</text><text style="&st18;" transform="matrix(&st16;  4500.95  467.78 )">15</text><text style="&st18;" transform="matrix(&st16;  4500.95  458.71 )">14</text><path style="stroke-width: 1.42 ;&st7;   " d=" M  4517.28,   465.81  C  4517.28    463.30   4515.25    461.27   4512.75    461.27  " /><path style="stroke-width: 1.42 ;&st7;   " d=" M  4512.75,   461.27  C  4510.24    461.27   4508.21    463.30   4508.21    465.81  " /><path style="stroke-width: 1.42 ;&st7;   " d=" M  4508.21,   465.81  C  4508.21    468.31   4510.24    470.34   4512.75    470.34  " /><path style="stroke-width: 1.42 ;&st7;   " d=" M  4512.75,   470.34  C  4515.25    470.34   4517.28    468.31   4517.28    465.81  " /><text style="&st18;" transform="matrix(&st16;  4510.56  467.78 )">B</text><path style="stroke-width: 1.42 ;&st7;   " d=" M  4517.28,   456.74  C  4517.28    454.24   4515.25    452.21   4512.75    452.21  " /><path style="stroke-width: 1.42 ;&st7;   " d=" M  4512.75,   452.21  C  4510.24    452.21   4508.21    454.24   4508.21    456.74  " /><path style="stroke-width: 1.42 ;&st7;   " d=" M  4508.21,   456.74  C  4508.21    459.25   4510.24    461.27   4512.75    461.27  " /><path style="stroke-width: 1.42 ;&st7;   " d=" M  4512.75,   461.27  C  4515.25    461.27   4517.28    459.25   4517.28    456.74  " /><text style="&st18;" transform="matrix(&st16;  4510.44  458.71 )">A</text><text style="&st18;" transform="matrix(&st16;  4390.47  467.78 )">13</text><text style="&st18;" transform="matrix(&st16;  4390.47  458.71 )">20</text><text style="&st18;" transform="matrix(&st16;  4400.08  467.78 )">B</text><text style="&st18;" transform="matrix(&st16;  4399.96  458.71 )">A</text><path style="stroke-width: 1.42 ;&st7;   " d=" M  4406.80,   456.74  C  4406.80    454.24   4404.77    452.21   4402.26    452.21  " /><path style="stroke-width: 1.42 ;&st7;   " d=" M  4402.26,   452.21  C  4399.76    452.21   4397.73    454.24   4397.73    456.74  " /><path style="stroke-width: 1.42 ;&st7;   " d=" M  4397.73,   456.74  C  4397.73    459.25   4399.76    461.27   4402.26    461.27  " /><path style="stroke-width: 1.42 ;&st7;   " d=" M  4402.26,   461.27  C  4404.77    461.27   4406.80    459.25   4406.80    456.74  " /><path style="stroke-width: 1.42 ;&st7;   " d=" M  4406.80,   465.81  C  4406.80    463.30   4404.77    461.27   4402.26    461.27  " /><path style="stroke-width: 1.42 ;&st7;   " d=" M  4402.26,   461.27  C  4399.76    461.27   4397.73    463.30   4397.73    465.81  " /><path style="stroke-width: 1.42 ;&st7;   " d=" M  4397.73,   465.81  C  4397.73    468.31   4399.76    470.34   4402.26    470.34  " /><path style="stroke-width: 1.42 ;&st7;   " d=" M  4402.26,   470.34  C  4404.77    470.34   4406.80    468.31   4406.80    465.81  " /><text style="&st18;" transform="matrix(&st16;  4347.98  458.71 )">10</text><text style="&st18;" transform="matrix(&st16;  4351.08  467.78 )">2</text><text style="&st18;" transform="matrix(&st16;  4357.58  467.78 )">B</text><text style="&st18;" transform="matrix(&st16;  4357.47  458.71 )">A</text><path style="stroke-width: 1.42 ;&st7;   " d=" M  4364.30,   456.74  C  4364.30    454.24   4362.27    452.21   4359.77    452.21  " /><path style="stroke-width: 1.42 ;&st7;   " d=" M  4359.77,   452.21  C  4357.27    452.21   4355.24    454.24   4355.24    456.74  " /><path style="stroke-width: 1.42 ;&st7;   " d=" M  4355.24,   456.74  C  4355.24    459.25   4357.27    461.27   4359.77    461.27  " /><path style="stroke-width: 1.42 ;&st7;   " d=" M  4359.77,   461.27  C  4362.27    461.27   4364.30    459.25   4364.30    456.74  " /><path style="stroke-width: 1.42 ;&st7;   " d=" M  4364.30,   465.81  C  4364.30    463.30   4362.27    461.27   4359.77    461.27  " /><path style="stroke-width: 1.42 ;&st7;   " d=" M  4359.77,   461.27  C  4357.27    461.27   4355.24    463.30   4355.24    465.81  " /><path style="stroke-width: 1.42 ;&st7;   " d=" M  4355.24,   465.81  C  4355.24    468.31   4357.27    470.34   4359.77    470.34  " /><path style="stroke-width: 1.42 ;&st7;   " d=" M  4359.77,   470.34  C  4362.27    470.34   4364.30    468.31   4364.30    465.81  " /><text style="&st18;" transform="matrix(&st16;  4351.08  424.15 )">7</text><text style="&st18;" transform="matrix(&st16;  4351.08  415.09 )">5</text><text style="&st18;" transform="matrix(&st16;  4357.58  424.15 )">B</text><path style="stroke-width: 1.42 ;&st7;   " d=" M  4364.30,   413.12  C  4364.30    410.61   4362.27    408.58   4359.77    408.58  " /><path style="stroke-width: 1.42 ;&st7;   " d=" M  4359.77,   408.58  C  4357.27    408.58   4355.24    410.61   4355.24    413.12  " /><path style="stroke-width: 1.42 ;&st7;   " d=" M  4355.24,   413.12  C  4355.24    415.62   4357.27    417.65   4359.77    417.65  " /><path style="stroke-width: 1.42 ;&st7;   " d=" M  4359.77,   417.65  C  4362.27    417.65   4364.30    415.62   4364.30    413.12  " /><text style="&st18;" transform="matrix(&st16;  4357.47  415.09 )">A</text><path style="stroke-width: 1.42 ;&st7;   " d=" M  4364.30,   422.18  C  4364.30    419.68   4362.27    417.65   4359.77    417.65  " /><path style="stroke-width: 1.42 ;&st7;   " d=" M  4359.77,   417.65  C  4357.27    417.65   4355.24    419.68   4355.24    422.18  " /><path style="stroke-width: 1.42 ;&st7;   " d=" M  4355.24,   422.18  C  4355.24    424.68   4357.27    426.71   4359.77    426.71  " /><path style="stroke-width: 1.42 ;&st7;   " d=" M  4359.77,   426.71  C  4362.27    426.71   4364.30    424.68   4364.30    422.18  " /><text style="&st18;" transform="matrix(&st16;  4390.47  424.15 )">18</text><text style="&st18;" transform="matrix(&st16;  4390.47  415.09 )">15</text><text style="&st18;" transform="matrix(&st16;  4399.96  415.09 )">A</text><text style="&st18;" transform="matrix(&st16;  4400.08  424.15 )">B</text><path style="stroke-width: 1.42 ;&st7;   " d=" M  4406.80,   413.12  C  4406.80    410.61   4404.77    408.58   4402.26    408.58  " /><path style="stroke-width: 1.42 ;&st7;   " d=" M  4402.26,   408.58  C  4399.76    408.58   4397.73    410.61   4397.73    413.12  " /><path style="stroke-width: 1.42 ;&st7;   " d=" M  4397.73,   413.12  C  4397.73    415.62   4399.76    417.65   4402.26    417.65  " /><path style="stroke-width: 1.42 ;&st7;   " d=" M  4402.26,   417.65  C  4404.77    417.65   4406.80    415.62   4406.80    413.12  " /><path style="stroke-width: 1.42 ;&st7;   " d=" M  4406.80,   422.18  C  4406.80    419.68   4404.77    417.65   4402.26    417.65  " /><path style="stroke-width: 1.42 ;&st7;   " d=" M  4402.26,   417.65  C  4399.76    417.65   4397.73    419.68   4397.73    422.18  " /><path style="stroke-width: 1.42 ;&st7;   " d=" M  4397.73,   422.18  C  4397.73    424.68   4399.76    426.71   4402.26    426.71  " /><path style="stroke-width: 1.42 ;&st7;   " d=" M  4402.26,   426.71  C  4404.77    426.71   4406.80    424.68   4406.80    422.18  " /><g ewd:figtype="title"><text style="&st18;" transform="matrix(&st17;  4347.58  452.28 )" ewd:textID="46">No. 11 CAN Junction Connector</text><text style="&st18;" transform="matrix(&st17;  4340.75  452.28 )">G188(B)</text><text style="&st18;" transform="matrix(&st17;  4333.41  452.28 )" ewd:textID="42">No. 6 CAN Junction Connector</text><text style="&st18;" transform="matrix(&st17;  4326.59  452.28 )">G171(A)</text></g><g ewd:code="" ewd:figID="115" ewd:comment="" ewd:figtype="commref"><text style="&st18;" transform="matrix(&st16;  4407.36  424.15 )">(RHD)</text></g><g ewd:code="" ewd:figID="116" ewd:comment="" ewd:figtype="commref"><text style="&st18;" transform="matrix(&st16;  4407.36  415.09 )">(LHD)</text></g><g ewd:code="" ewd:figID="118" ewd:comment="" ewd:figtype="commref"><text style="&st18;" transform="matrix(&st16;  4517.84  467.78 )">(RHD)</text></g><g ewd:code="" ewd:figID="119" ewd:comment="" ewd:figtype="commref"><text style="&st18;" transform="matrix(&st16;  4517.84  458.71 )">(LHD)</text></g></g><g ewd:figtype="conn" ewd:figID="28" ewd:code="G172,G189"><path style="stroke-width: 0.85 ;&st7; stroke-dasharray:3, 1.5;" d=" M  4478.75,   583.65  L  4495.75,   583.65  " /><path style="stroke-width: 0.85 ;&st7; stroke-dasharray:3, 1.5;" d=" M  4478.75,   618.78  L  4495.75,   618.78  " /><path style="stroke-width: 0.85 ;&st7; stroke-dasharray:3, 1.5;" d=" M  4478.75,   574.59  L  4495.75,   574.59  " /><path style="stroke-width: 0.85 ;&st7; stroke-dasharray:3, 1.5;" d=" M  4478.75,   609.72  L  4495.75,   609.72  " /><path style="stroke-width: 1.42 ;&st7;  " d=" M  4461.75,   605.18  L  4521.24,   605.18  L  4521.24,   588.19  L  4461.75,   588.19  L  4461.75,   605.18  " /><path style="stroke-width: 0.85 ;&st7;  " d=" M  4470.25,   588.19  L  4470.25,   605.18  " /><path style="stroke-width: 0.85 ;&st7;  " d=" M  4512.74,   588.19  L  4512.74,   605.18  " /><text style="&st18;" transform="matrix(&st16;  4461.56  611.69 )">1</text><text style="&st18;" transform="matrix(&st16;  4461.56  620.75 )">1</text><path style="stroke-width: 1.42 ;&st7;   " d=" M  4474.79,   609.72  C  4474.79    607.21   4472.76    605.18   4470.25    605.18  " /><path style="stroke-width: 1.42 ;&st7;   " d=" M  4470.25,   605.18  C  4467.75    605.18   4465.72    607.21   4465.72    609.72  " /><path style="stroke-width: 1.42 ;&st7;   " d=" M  4465.72,   609.72  C  4465.72    612.22   4467.75    614.25   4470.25    614.25  " /><path style="stroke-width: 1.42 ;&st7;   " d=" M  4470.25,   614.25  C  4472.76    614.25   4474.79    612.22   4474.79    609.72  " /><text style="&st18;" transform="matrix(&st16;  4468.06  620.75 )">B</text><path style="stroke-width: 1.42 ;&st7;   " d=" M  4474.79,   618.78  C  4474.79    616.28   4472.76    614.25   4470.25    614.25  " /><path style="stroke-width: 1.42 ;&st7;   " d=" M  4470.25,   614.25  C  4467.75    614.25   4465.72    616.28   4465.72    618.78  " /><path style="stroke-width: 1.42 ;&st7;   " d=" M  4465.72,   618.78  C  4465.72    621.29   4467.75    623.31   4470.25    623.31  " /><path style="stroke-width: 1.42 ;&st7;   " d=" M  4470.25,   623.31  C  4472.76    623.31   4474.79    621.29   4474.79    618.78  " /><text style="&st18;" transform="matrix(&st16;  4467.95  611.69 )">A</text><text style="&st18;" transform="matrix(&st16;  4461.56  585.62 )">8</text><text style="&st18;" transform="matrix(&st16;  4461.56  576.56 )">8</text><path style="stroke-width: 1.42 ;&st7;   " d=" M  4474.79,   574.59  C  4474.79    572.09   4472.76    570.06   4470.25    570.06  " /><path style="stroke-width: 1.42 ;&st7;   " d=" M  4470.25,   570.06  C  4467.75    570.06   4465.72    572.09   4465.72    574.59  " /><path style="stroke-width: 1.42 ;&st7;   " d=" M  4465.72,   574.59  C  4465.72    577.09   4467.75    579.12   4470.25    579.12  " /><path style="stroke-width: 1.42 ;&st7;   " d=" M  4470.25,   579.12  C  4472.76    579.12   4474.79    577.09   4474.79    574.59  " /><text style="&st18;" transform="matrix(&st16;  4468.06  585.62 )">B</text><text style="&st18;" transform="matrix(&st16;  4467.95  576.56 )">A</text><path style="stroke-width: 1.42 ;&st7;   " d=" M  4474.79,   583.65  C  4474.79    581.15   4472.76    579.12   4470.25    579.12  " /><path style="stroke-width: 1.42 ;&st7;   " d=" M  4470.25,   579.12  C  4467.75    579.12   4465.72    581.15   4465.72    583.65  " /><path style="stroke-width: 1.42 ;&st7;   " d=" M  4465.72,   583.65  C  4465.72    586.16   4467.75    588.19   4470.25    588.19  " /><path style="stroke-width: 1.42 ;&st7;   " d=" M  4470.25,   588.19  C  4472.76    588.19   4474.79    586.16   4474.79    583.65  " /><text style="&st18;" transform="matrix(&st16;  4500.95  576.56 )">18</text><text style="&st18;" transform="matrix(&st16;  4500.95  585.62 )">19</text><text style="&st18;" transform="matrix(&st16;  4510.56  585.62 )">B</text><text style="&st18;" transform="matrix(&st16;  4510.44  576.56 )">A</text><path style="stroke-width: 1.42 ;&st7;   " d=" M  4517.28,   574.59  C  4517.28    572.09   4515.25    570.06   4512.75    570.06  " /><path style="stroke-width: 1.42 ;&st7;   " d=" M  4512.75,   570.06  C  4510.24    570.06   4508.21    572.09   4508.21    574.59  " /><path style="stroke-width: 1.42 ;&st7;   " d=" M  4508.21,   574.59  C  4508.21    577.09   4510.24    579.12   4512.75    579.12  " /><path style="stroke-width: 1.42 ;&st7;   " d=" M  4512.75,   579.12  C  4515.25    579.12   4517.28    577.09   4517.28    574.59  " /><path style="stroke-width: 1.42 ;&st7;   " d=" M  4517.28,   583.65  C  4517.28    581.15   4515.25    579.12   4512.75    579.12  " /><path style="stroke-width: 1.42 ;&st7;   " d=" M  4512.75,   579.12  C  4510.24    579.12   4508.21    581.15   4508.21    583.65  " /><path style="stroke-width: 1.42 ;&st7;   " d=" M  4508.21,   583.65  C  4508.21    586.16   4510.24    588.19   4512.75    588.19  " /><path style="stroke-width: 1.42 ;&st7;   " d=" M  4512.75,   588.19  C  4515.25    588.19   4517.28    586.16   4517.28    583.65  " /><text style="&st18;" transform="matrix(&st16;  4500.95  620.75 )">12</text><text style="&st18;" transform="matrix(&st16;  4500.95  611.69 )">11</text><path style="stroke-width: 1.42 ;&st7;   " d=" M  4517.28,   618.78  C  4517.28    616.28   4515.25    614.25   4512.75    614.25  " /><path style="stroke-width: 1.42 ;&st7;   " d=" M  4512.75,   614.25  C  4510.24    614.25   4508.21    616.28   4508.21    618.78  " /><path style="stroke-width: 1.42 ;&st7;   " d=" M  4508.21,   618.78  C  4508.21    621.29   4510.24    623.31   4512.75    623.31  " /><path style="stroke-width: 1.42 ;&st7;   " d=" M  4512.75,   623.31  C  4515.25    623.31   4517.28    621.29   4517.28    618.78  " /><path style="stroke-width: 1.42 ;&st7;   " d=" M  4517.28,   609.72  C  4517.28    607.21   4515.25    605.18   4512.75    605.18  " /><path style="stroke-width: 1.42 ;&st7;   " d=" M  4512.75,   605.18  C  4510.24    605.18   4508.21    607.21   4508.21    609.72  " /><path style="stroke-width: 1.42 ;&st7;   " d=" M  4508.21,   609.72  C  4508.21    612.22   4510.24    614.25   4512.75    614.25  " /><path style="stroke-width: 1.42 ;&st7;   " d=" M  4512.75,   614.25  C  4515.25    614.25   4517.28    612.22   4517.28    609.72  " /><text style="&st18;" transform="matrix(&st16;  4510.56  620.75 )">B</text><text style="&st18;" transform="matrix(&st16;  4510.44  611.69 )">A</text><g ewd:figtype="title"><text style="&st18;" transform="matrix(&st17;  4451.23  608.08 )">G189(B)</text><text style="&st18;" transform="matrix(&st17;  4458.06  608.09 )" ewd:textID="48">No. 12 CAN Junction Connector</text><text style="&st18;" transform="matrix(&st17;  4437.07  608.08 )">G172(A)</text><text style="&st18;" transform="matrix(&st17;  4443.89  608.09 )" ewd:textID="44">No. 7 CAN Junction Connector</text></g><g ewd:code="" ewd:figID="99" ewd:comment="" ewd:figtype="commref"><text style="&st18;" transform="matrix(&st16;  4517.84  620.75 )">(RHD)</text></g><g ewd:code="" ewd:figID="135" ewd:comment="" ewd:figtype="commref"><text style="&st18;" transform="matrix(&st16;  4517.84  585.62 )">(RHD)</text></g><g ewd:code="" ewd:figID="136" ewd:comment="" ewd:figtype="commref"><text style="&st18;" transform="matrix(&st16;  4517.84  576.56 )">(LHD)</text></g><g ewd:code="" ewd:figID="137" ewd:comment="" ewd:figtype="commref"><text style="&st18;" transform="matrix(&st16;  4517.84  611.69 )">(LHD)</text></g></g><g ewd:figtype="conn" ewd:figID="34" ewd:code="A61,A62,B75,B76,B77,B93,B112"><path style="stroke-width: 0.85 ;&st7; stroke-dasharray:3, 1.5;" d=" M  4385.27,   134.93  L  4368.27,   134.93  " /><path style="stroke-width: 0.85 ;&st7; stroke-dasharray:3, 1.5;" d=" M  4385.27,   125.86  L  4368.27,   125.86  " /><path style="stroke-width: 0.85 ;&st7; stroke-dasharray:3, 1.5;" d=" M  4389.51,   116.80  L  4368.27,   116.80  " /><g ewd:lineID="102,103,104"><text style="&st18;" transform="matrix(&st16;  4483.95  155.03 )">82</text><text style="&st18;" transform="matrix(&st16;  4483.95  127.83 )">93</text><text style="&st18;" transform="matrix(&st16;  4480.85  145.96 )">120</text><text style="&st18;" transform="matrix(&st16;  4483.95  136.9 )">95</text><text style="&st18;" transform="matrix(&st16;  4480.85  118.77 )">111</text><path style="stroke-width: 1.42 ;&st7;   " d=" M  4495.75,   148.53  C  4493.25    148.53   4491.22    150.56   4491.22    153.06  " /><path style="stroke-width: 1.42 ;&st7;   " d=" M  4491.22,   153.06  C  4491.22    155.56   4493.25    157.59   4495.75    157.59  " /><path style="stroke-width: 1.42 ;&st7;   " d=" M  4495.75,   157.59  C  4498.25    157.59   4500.28    155.56   4500.28    153.06  " /><path style="stroke-width: 1.42 ;&st7;   " d=" M  4495.75,   139.46  C  4493.25    139.46   4491.22    141.49   4491.22    143.99  " /><path style="stroke-width: 1.42 ;&st7;   " d=" M  4491.22,   143.99  C  4491.22    146.50   4493.25    148.53   4495.75    148.53  " /><path style="stroke-width: 1.42 ;&st7;   " d=" M  4495.75,   148.53  C  4498.25    148.53   4500.28    146.50   4500.28    143.99  " /><text style="&st18;" transform="matrix(&st16;  4493.64  118.77 )">E</text><text style="&st18;" transform="matrix(&st16;  4493.25  155.03 )">H</text><text style="&st18;" transform="matrix(&st16;  4493.37  127.83 )">D</text><text style="&st18;" transform="matrix(&st16;  4493.29  145.96 )">G</text><path style="stroke-width: 1.42 ;&st7;   " d=" M  4495.75,   130.40  C  4493.25    130.40   4491.22    132.43   4491.22    134.93  " /><path style="stroke-width: 1.42 ;&st7;   " d=" M  4491.22,   134.93  C  4491.22    137.43   4493.25    139.46   4495.75    139.46  " /><path style="stroke-width: 1.42 ;&st7;   " d=" M  4495.75,   139.46  C  4498.25    139.46   4500.28    137.43   4500.28    134.93  " /><text style="&st18;" transform="matrix(&st16;  4493.64  136.9 )">F</text><path style="stroke-width: 1.42 ;&st7;   " d=" M  4495.75,   112.27  C  4493.25    112.27   4491.22    114.30   4491.22    116.80  " /><path style="stroke-width: 1.42 ;&st7;   " d=" M  4491.22,   116.80  C  4491.22    119.30   4493.25    121.33   4495.75    121.33  " /><path style="stroke-width: 1.42 ;&st7;   " d=" M  4495.75,   121.33  C  4498.25    121.33   4500.28    119.30   4500.28    116.80  " /><path style="stroke-width: 1.42 ;&st7;   " d=" M  4495.75,   121.33  C  4493.25    121.33   4491.22    123.36   4491.22    125.86  " /><path style="stroke-width: 1.42 ;&st7;   " d=" M  4491.22,   125.86  C  4491.22    128.37   4493.25    130.40   4495.75    130.40  " /><path style="stroke-width: 1.42 ;&st7;   " d=" M  4495.75,   130.40  C  4498.25    130.40   4500.28    128.37   4500.28    125.86  " /><text style="&st18;" transform="matrix(&st16;  4488.6  108.57 )">THW</text></g><g ewd:lineID="97"><text style="&st18;" transform="matrix(&st16;  4347.98  127.83 )">26</text><text style="&st18;" transform="matrix(&st16;  4347.98  136.9 )">13</text><text style="&st18;" transform="matrix(&st16;  4351.08  118.77 )">7</text><path style="stroke-width: 1.42 ;&st7;   " d=" M  4364.30,   134.93  C  4364.30    132.43   4362.27    130.40   4359.77    130.40  " /><path style="stroke-width: 1.42 ;&st7;   " d=" M  4359.77,   130.40  C  4357.27    130.40   4355.24    132.43   4355.24    134.93  " /><path style="stroke-width: 1.42 ;&st7;   " d=" M  4355.24,   134.93  C  4355.24    137.43   4357.27    139.46   4359.77    139.46  " /><path style="stroke-width: 1.42 ;&st7;   " d=" M  4359.77,   139.46  C  4362.27    139.46   4364.30    137.43   4364.30    134.93  " /><path style="stroke-width: 1.42 ;&st7;   " d=" M  4364.30,   116.80  C  4364.30    114.30   4362.27    112.27   4359.77    112.27  " /><path style="stroke-width: 1.42 ;&st7;   " d=" M  4359.77,   112.27  C  4357.27    112.27   4355.24    114.30   4355.24    116.80  " /><path style="stroke-width: 1.42 ;&st7;   " d=" M  4355.24,   116.80  C  4355.24    119.30   4357.27    121.33   4359.77    121.33  " /><path style="stroke-width: 1.42 ;&st7;   " d=" M  4359.77,   121.33  C  4362.27    121.33   4364.30    119.30   4364.30    116.80  " /><path style="stroke-width: 1.42 ;&st7;   " d=" M  4364.30,   125.86  C  4364.30    123.36   4362.27    121.33   4359.77    121.33  " /><path style="stroke-width: 1.42 ;&st7;   " d=" M  4359.77,   121.33  C  4357.27    121.33   4355.24    123.36   4355.24    125.86  " /><path style="stroke-width: 1.42 ;&st7;   " d=" M  4355.24,   125.86  C  4355.24    128.37   4357.27    130.40   4359.77    130.40  " /><path style="stroke-width: 1.42 ;&st7;   " d=" M  4359.77,   130.40  C  4362.27    130.40   4364.30    128.37   4364.30    125.86  " /><text style="&st18;" transform="matrix(&st16;  4357.58  127.83 )">B</text><text style="&st18;" transform="matrix(&st16;  4357.47  118.77 )">A</text><text style="&st18;" transform="matrix(&st16;  4357.58  136.9 )">B</text><text style="&st18;" transform="matrix(&st16;  4350.99  108.57 )">CANH</text></g><g ewd:lineID="99"><text style="&st18;" transform="matrix(&st16;  4393.57  118.77 )">6</text><text style="&st18;" transform="matrix(&st16;  4390.47  136.9 )">26</text><text style="&st18;" transform="matrix(&st16;  4390.47  127.83 )">25</text><text style="&st18;" transform="matrix(&st16;  4399.96  118.77 )">A</text><text style="&st18;" transform="matrix(&st16;  4400.08  136.9 )">B</text><path style="stroke-width: 1.42 ;&st7;   " d=" M  4406.80,   125.86  C  4406.80    123.36   4404.77    121.33   4402.26    121.33  " /><path style="stroke-width: 1.42 ;&st7;   " d=" M  4402.26,   121.33  C  4399.76    121.33   4397.73    123.36   4397.73    125.86  " /><path style="stroke-width: 1.42 ;&st7;   " d=" M  4397.73,   125.86  C  4397.73    128.37   4399.76    130.40   4402.26    130.40  " /><path style="stroke-width: 1.42 ;&st7;   " d=" M  4402.26,   130.40  C  4404.77    130.40   4406.80    128.37   4406.80    125.86  " /><path style="stroke-width: 1.42 ;&st7;   " d=" M  4406.80,   134.93  C  4406.80    132.43   4404.77    130.40   4402.26    130.40  " /><path style="stroke-width: 1.42 ;&st7;   " d=" M  4402.26,   130.40  C  4399.76    130.40   4397.73    132.43   4397.73    134.93  " /><path style="stroke-width: 1.42 ;&st7;   " d=" M  4397.73,   134.93  C  4397.73    137.43   4399.76    139.46   4402.26    139.46  " /><path style="stroke-width: 1.42 ;&st7;   " d=" M  4402.26,   139.46  C  4404.77    139.46   4406.80    137.43   4406.80    134.93  " /><text style="&st18;" transform="matrix(&st16;  4400.08  127.83 )">B</text><path style="stroke-width: 1.42 ;&st7;   " d=" M  4406.80,   116.80  C  4406.80    114.30   4404.77    112.27   4402.26    112.27  " /><path style="stroke-width: 1.42 ;&st7;   " d=" M  4402.26,   112.27  C  4399.76    112.27   4397.73    114.30   4397.73    116.80  " /><path style="stroke-width: 1.42 ;&st7;   " d=" M  4397.73,   116.80  C  4397.73    119.30   4399.76    121.33   4402.26    121.33  " /><path style="stroke-width: 1.42 ;&st7;   " d=" M  4402.26,   121.33  C  4404.77    121.33   4406.80    119.30   4406.80    116.80  " /><text style="&st18;" transform="matrix(&st16;  4393.91  108.57 )">CANL</text></g></g><g ewd:figtype="w2w" ewd:figID="63" ewd:code="AG5"><path style="stroke-width: 1.42 ;&st7;  " d=" M  4364.02,   240.31  L  4359.77,   236.06  L  4355.52,   240.31  " /><path style="stroke-width: 1.42 ;&st7;  " d=" M  4364.02,   236.91  L  4359.77,   232.66  L  4355.52,   236.91  " /><text style="&st18;" transform="matrix(&st16;  4347.14  228.97 )">5</text></g><g ewd:figtype="w2w" ewd:figID="64" ewd:code="AG5"><path style="stroke-width: 1.42 ;&st7;  " d=" M  4406.51,   240.31  L  4402.26,   236.06  L  4398.01,   240.31  " /><path style="stroke-width: 1.42 ;&st7;  " d=" M  4406.51,   236.91  L  4402.26,   232.66  L  4398.01,   236.91  " /><text style="&st18;" transform="matrix(&st16;  4389.63  228.97 )">6</text></g><g ewd:figtype="gp" ewd:figID="77" ewd:code="BC"><path style="stroke-width: 0.85 ;&st7;  " d=" M  4249.29,   697.25  L  4249.29,   701.50  " /><path style="stroke-width: 0.85 ;&st7;  " d=" M  4240.79,   701.50  L  4257.79,   701.50  " /><path style="stroke-width: 0.85 ;&st7;  " d=" M  4245.04,   704.33  L  4253.54,   704.33  " /><path style="stroke-width: 0.85 ;&st7;  " d=" M  4246.46,   707.17  L  4252.12,   707.17  " /><path style="stroke-width: 0.85 ;&st7;  " d=" M  4247.87,   710.00  L  4250.70,   710.00  " /></g><g ewd:code="" ewd:figID="131" ewd:comment="11" ewd:figtype="commref"><text style="&st18;" transform="matrix(&st16;  4092.91  491.01 )">(*11)</text></g><g ewd:code="" ewd:figID="138" ewd:comment="14" ewd:figtype="commref"><text style="&st18;" transform="matrix(&st16;  4407.36  136.9 )">(*14)</text></g><g ewd:code="" ewd:figID="139" ewd:comment="11" ewd:figtype="commref"><text style="&st18;" transform="matrix(&st16;  4407.36  118.77 )">(*11)</text></g><g ewd:code="" ewd:figID="140" ewd:comment="10" ewd:figtype="commref"><text style="&st18;" transform="matrix(&st16;  4407.36  127.83 )">(*10)</text></g></svg>